{
  "elements": [
    {
      "allowOverride": false,
      "combinationType": "FUNCTION",
      "displayOptions": 0,
      "elementGroups": [],
      "elementLabel": "Constants",
      "elementName": "Constants",
      "elementTimeout": 0,
      "excludeFromExport": false,
      "hideOnNull": false,
      "hideWarnings": false,
      "overridden": false,
      "protectedExpression": false,
      "summarize": false
    },
    {
      "allowOverride": false,
      "combinationType": "FUNCTION",
      "displayOptions": 0,
      "elementGroups": [],
      "elementLabel": "ds Historical Price List",
      "elementName": "dsHistoricalPriceList",
      "elementTimeout": 900,
      "excludeFromExport": false,
      "hideOnNull": false,
      "hideWarnings": false,
      "overridden": false,
      "protectedExpression": false,
      "summarize": false
    },
    {
      "allowOverride": false,
      "combinationType": "FUNCTION",
      "displayOptions": 0,
      "elementGroups": [],
      "elementLabel": "ds Pricing And Discounting",
      "elementName": "dsPricingAndDiscounting",
      "elementTimeout": 0,
      "excludeFromExport": false,
      "hideOnNull": false,
      "hideWarnings": false,
      "protectedExpression": false,
      "summarize": false
    },
    {
      "allowOverride": false,
      "combinationType": "FUNCTION",
      "displayOptions": 0,
      "elementGroups": [],
      "elementLabel": "_generic",
      "elementName": "_generic",
      "elementTimeout": 900,
      "excludeFromExport": false,
      "hideOnNull": false,
      "hideWarnings": false,
      "overridden": false,
      "protectedExpression": false,
      "summarize": false
    }
  ],
  "formulaNature": "library",
  "inputDescriptors": [],
  "label": "_dto",
  "status": "ACTIVE",
  "uniqueName": "_dto",
  "validAfter": "2020-01-01"
}