{
  "folder" : "MAPBU",
  "hideWarnings" : false,
  "isPlasma" : false,
  "label" : "BU Datacenter",
  "status" : "ACTIVE",
  "type" : "MATRIX",
  "uniqueName" : "BUDataCenter",
  "validAfter" : "2019-01-01",
  "valueType" : "MATRIX2"
}