{
  "areDefault" : true,
  "areGlobal" : true,
  "filter" : { },
  "preferenceName" : "Default",
  "viewState" : "({\"field\":[{\"name\":\"typedId\",\"visible\":false},{\"name\":\"id\",\"autoFitWidth\":false,\"width\":33},{\"name\":\"label\",\"autoFitWidth\":false,\"width\":274},{\"name\":\"priceGridType\",\"autoFitWidth\":false,\"width\":47},{\"name\":\"headerTypeUniqueName\",\"autoFitWidth\":false,\"width\":86},{\"name\":\"status\",\"autoFitWidth\":false,\"width\":56},{\"name\":\"numberOfItems\",\"autoFitWidth\":false,\"width\":104},{\"name\":\"calculationStartDate\",\"autoFitWidth\":false,\"width\":104},{\"name\":\"calculationDate\",\"autoFitWidth\":false,\"width\":128},{\"name\":\"calculationMessages\",\"autoFitWidth\":false,\"width\":15},{\"name\":\"targetDate\",\"autoFitWidth\":false,\"width\":94},{\"name\":\"partialCalculationDate\",\"autoFitWidth\":false,\"width\":134},{\"name\":\"relativeTargetDateDays\",\"autoFitWidth\":false,\"width\":122},{\"name\":\"numberOfApprovedItems\",\"autoFitWidth\":false,\"width\":78},{\"name\":\"numberOfOpenItems\",\"autoFitWidth\":false,\"width\":59},{\"name\":\"numberOfDeniedItems\",\"autoFitWidth\":false,\"width\":67},{\"name\":\"numberOfAutoApprovedItems\",\"autoFitWidth\":false,\"width\":104},{\"name\":\"numberOfSubmittedItems\",\"autoFitWidth\":false,\"width\":81},{\"name\":\"integrationStatus\",\"autoFitWidth\":false,\"width\":109},{\"name\":\"userGroupEdit\",\"autoFitWidth\":false,\"width\":109},{\"name\":\"userGroupViewDetails\",\"autoFitWidth\":false,\"width\":150},{\"name\":\"createDate\",\"visible\":false,\"autoFitWidth\":true},{\"name\":\"createdBy\",\"autoFitWidth\":false,\"width\":78},{\"name\":\"lastUpdateDate\",\"autoFitWidth\":false,\"width\":108},{\"name\":\"lastUpdateBy\",\"autoFitWidth\":false,\"width\":104}],\"sort\":{\"fieldName\":\"calculationStartDate\",\"sortDir\":\"descending\",\"sortSpecifiers\":[{\"property\":\"calculationStartDate\",\"direction\":\"descending\"}]},\"pricefx_columnLabels\":null})"
}