{
  "aggregation" : false,
  "auxiliary" : false,
  "calculated" : false,
  "deleted" : false,
  "deployed" : true,
  "dimension" : false,
  "expression" : "isParent",
  "key" : false,
  "label" : "IsParent",
  "numeric" : false,
  "persisted" : true,
  "queryable" : true,
  "source" : "DMDS.Customer",
  "sourceField" : "isParent",
  "system" : false,
  "time" : false,
  "type" : "TEXT"
}