{
  "folder" : "VeloCloud",
  "hideWarnings" : false,
  "isPlasma" : false,
  "label" : "VC Hardware Replacement Service Factor",
  "status" : "ACTIVE",
  "type" : "MATRIX",
  "uniqueName" : "VCHardwareReplacementServiceFactor",
  "validAfter" : "2019-01-01",
  "valueType" : "MATRIX3"
}