{
  "elements": [
    {
      "allowOverride": false,
      "combinationType": "FUNCTION",
      "displayOptions": 0,
      "elementLabel": "Retain Global",
      "elementName": "RetainGlobal",
      "elementTimeout": 0,
      "hideOnNull": false,
      "hideWarnings": false,
      "summarize": false
    },
    {
      "allowOverride": false,
      "combinationType": "FUNCTION",
      "displayOptions": 16,
      "elementGroups": [],
      "elementLabel": "Edge Model",
      "elementName": "EdgeModel",
      "elementTimeout": 0,
      "hideOnNull": false,
      "hideWarnings": false,
      "summarize": false
    },
    {
      "allowOverride": false,
      "combinationType": "FUNCTION",
      "displayOptions": 16,
      "elementGroups": [],
      "elementLabel": "Replacement Service",
      "elementName": "ReplacementService",
      "elementTimeout": 0,
      "hideOnNull": false,
      "hideWarnings": false,
      "summarize": false
    },
    {
      "allowOverride": false,
      "combinationType": "FUNCTION",
      "displayOptions": 16,
      "elementLabel": "License Class",
      "elementName": "LicenseClass",
      "elementTimeout": 0,
      "hideOnNull": false,
      "hideWarnings": false,
      "summarize": false
    },
    {
      "allowOverride": false,
      "combinationType": "FUNCTION",
      "displayOptions": 16,
      "elementGroups": [],
      "elementLabel": "Offering",
      "elementName": "Offering",
      "elementTimeout": 0,
      "hideOnNull": false,
      "hideWarnings": false,
      "summarize": false
    },
    {
      "allowOverride": false,
      "combinationType": "FUNCTION",
      "displayOptions": 16,
      "elementLabel": "Payment Term",
      "elementName": "PaymentTerm",
      "elementTimeout": 0,
      "hideOnNull": false,
      "hideWarnings": false,
      "summarize": false
    },
    {
      "allowOverride": false,
      "combinationType": "FUNCTION",
      "displayOptions": 16,
      "elementLabel": "Payment Type",
      "elementName": "PaymentType",
      "elementTimeout": 0,
      "hideOnNull": false,
      "hideWarnings": false,
      "summarize": false
    },
    {
      "allowOverride": false,
      "combinationType": "FUNCTION",
      "displayOptions": 16,
      "elementLabel": "View Hardware SKU",
      "elementName": "ViewHardwareSKU",
      "elementTimeout": 5000,
      "hideOnNull": false,
      "hideWarnings": false,
      "summarize": false
    }
  ],
  "inputDescriptors": [],
  "label": "VeloCloud HW SKU View",
  "status": "ACTIVE",
  "uniqueName": "VeloHWSKUView",
  "validAfter": "2019-09-01"
}