{
  "elements": [
    {
      "allowOverride": false,
      "combinationType": "FUNCTION",
      "displayOptions": 0,
      "elementGroups": [],
      "elementLabel": "Constants",
      "elementName": "Constants",
      "elementTimeout": 0,
      "excludeFromExport": false,
      "hideOnNull": false,
      "hideWarnings": false,
      "overridden": false,
      "protectedExpression": false,
      "summarize": false
    },
    {
      "allowOverride": false,
      "combinationType": "FUNCTION",
      "displayOptions": 0,
      "elementGroups": [],
      "elementLabel": "Lib",
      "elementName": "Lib",
      "elementTimeout": 900,
      "excludeFromExport": false,
      "hideOnNull": false,
      "hideWarnings": false,
      "overridden": false,
      "protectedExpression": false,
      "summarize": false
    },
    {
      "allowOverride": false,
      "combinationType": "FUNCTION",
      "displayOptions": 16,
      "elementGroups": [],
      "elementLabel": "Price List Date",
      "elementName": "PriceListDate",
      "elementTimeout": 0,
      "excludeFromExport": false,
      "hideOnNull": false,
      "hideWarnings": false,
      "overridden": false,
      "protectedExpression": false,
      "summarize": false
    },
    {
      "allowOverride": false,
      "combinationType": "FUNCTION",
      "displayOptions": 16,
      "elementGroups": [],
      "elementLabel": "Price List Launch Region",
      "elementName": "PriceListLaunchRegion",
      "elementTimeout": 0,
      "excludeFromExport": false,
      "hideOnNull": false,
      "hideWarnings": false,
      "overridden": false,
      "protectedExpression": false,
      "summarize": false
    },
    {
      "allowOverride": false,
      "combinationType": "FUNCTION",
      "displayOptions": 0,
      "elementGroups": [],
      "elementLabel": "Filter",
      "elementName": "Filter",
      "elementTimeout": 0,
      "excludeFromExport": false,
      "hideOnNull": false,
      "hideWarnings": false,
      "overridden": false,
      "protectedExpression": false,
      "summarize": false
    },
    {
      "allowOverride": false,
      "combinationType": "FUNCTION",
      "displayOptions": 0,
      "elementGroups": [],
      "elementLabel": "SyntaxCheck",
      "elementName": "SyntaxCheck",
      "elementTimeout": 0,
      "excludeFromExport": false,
      "hideOnNull": false,
      "hideWarnings": false,
      "overridden": false,
      "protectedExpression": false,
      "summarize": false
    },
    {
      "allowOverride": false,
      "combinationType": "FUNCTION",
      "displayOptions": 0,
      "elementGroups": [],
      "elementLabel": "Cache Std Adjustments",
      "elementName": "CacheStdAdjustments",
      "elementTimeout": 900,
      "excludeFromExport": false,
      "hideOnNull": false,
      "hideWarnings": false,
      "overridden": false,
      "protectedExpression": false,
      "summarize": false
    },
    {
      "allowOverride": false,
      "combinationType": "FUNCTION",
      "displayOptions": 0,
      "elementGroups": [],
      "elementLabel": "SKU",
      "elementName": "SKU",
      "elementTimeout": 0,
      "excludeFromExport": false,
      "hideOnNull": false,
      "hideWarnings": false,
      "overridden": false,
      "protectedExpression": false,
      "summarize": false
    },
    {
      "allowOverride": false,
      "combinationType": "FUNCTION",
      "displayOptions": 0,
      "elementGroups": [],
      "elementLabel": "Price List Region Cache",
      "elementName": "PriceListRegionCache",
      "elementTimeout": 900,
      "excludeFromExport": false,
      "hideOnNull": false,
      "hideWarnings": false,
      "overridden": false,
      "protectedExpression": false,
      "summarize": false
    },
    {
      "allowOverride": false,
      "combinationType": "FUNCTION",
      "displayOptions": 0,
      "elementGroups": [],
      "elementLabel": "Cache Base Price Attributes",
      "elementName": "CacheBasePriceAttributes",
      "elementTimeout": 900,
      "excludeFromExport": false,
      "hideOnNull": false,
      "hideWarnings": false,
      "overridden": false,
      "protectedExpression": false,
      "summarize": false
    },
    {
      "allowOverride": false,
      "combinationType": "FUNCTION",
      "displayOptions": 0,
      "elementGroups": [],
      "elementLabel": "Std Adj Meta Data",
      "elementName": "StdAdjMetaData",
      "elementTimeout": 900,
      "excludeFromExport": false,
      "hideOnNull": false,
      "hideWarnings": false,
      "overridden": false,
      "protectedExpression": false,
      "summarize": false
    },
    {
      "allowOverride": false,
      "combinationType": "FUNCTION",
      "displayOptions": 0,
      "elementGroups": [],
      "elementLabel": "Exclude Attributes Cache",
      "elementName": "ExcludeAttributesCache",
      "elementTimeout": 0,
      "excludeFromExport": false,
      "hideOnNull": false,
      "hideWarnings": false,
      "overridden": false,
      "protectedExpression": false,
      "summarize": false
    },
    {
      "allowOverride": false,
      "combinationType": "FUNCTION",
      "displayOptions": 0,
      "elementGroups": [],
      "elementLabel": "Cache LPG Sequence",
      "elementName": "CacheLPGSequence",
      "elementTimeout": 0,
      "excludeFromExport": false,
      "hideOnNull": true,
      "hideWarnings": false,
      "overridden": false,
      "protectedExpression": false,
      "summarize": false
    },
    {
      "allowOverride": false,
      "combinationType": "FUNCTION",
      "displayOptions": 0,
      "elementGroups": [],
      "elementLabel": "TermUoM Conversion Cache",
      "elementName": "TermUoMConversionCache",
      "elementTimeout": 0,
      "excludeFromExport": false,
      "hideOnNull": false,
      "hideWarnings": false,
      "overridden": false,
      "protectedExpression": false,
      "summarize": false
    },
    {
      "allowOverride": false,
      "combinationType": "FUNCTION",
      "displayOptions": 0,
      "elementGroups": [],
      "elementLabel": "Currency Adj Cache",
      "elementName": "CurrencyAdjCache",
      "elementTimeout": 0,
      "excludeFromExport": false,
      "hideOnNull": false,
      "hideWarnings": false,
      "overridden": false,
      "protectedExpression": false,
      "summarize": false
    },
    {
      "allowOverride": false,
      "combinationType": "FUNCTION",
      "displayOptions": 0,
      "elementGroups": [],
      "elementLabel": "Region Adj Cache",
      "elementName": "RegionAdjCache",
      "elementTimeout": 0,
      "excludeFromExport": false,
      "hideOnNull": false,
      "hideWarnings": false,
      "overridden": false,
      "protectedExpression": false,
      "summarize": false
    },
    {
      "allowOverride": false,
      "combinationType": "FUNCTION",
      "displayOptions": 0,
      "elementGroups": [],
      "elementLabel": "Uplift Cache",
      "elementName": "UpliftCache",
      "elementTimeout": 0,
      "excludeFromExport": false,
      "hideOnNull": false,
      "hideWarnings": false,
      "overridden": false,
      "protectedExpression": false,
      "summarize": false
    },
    {
      "allowOverride": false,
      "combinationType": "FUNCTION",
      "displayOptions": 0,
      "elementGroups": [],
      "elementLabel": "Promotion Adj Cache",
      "elementName": "PromotionAdjCache",
      "elementTimeout": 0,
      "excludeFromExport": false,
      "hideOnNull": false,
      "hideWarnings": false,
      "overridden": false,
      "protectedExpression": false,
      "summarize": false
    },
    {
      "allowOverride": false,
      "combinationType": "FUNCTION",
      "displayOptions": 0,
      "elementGroups": [],
      "elementLabel": "Upgrade Adj Cache",
      "elementName": "UpgradeAdjCache",
      "elementTimeout": 0,
      "excludeFromExport": false,
      "hideOnNull": false,
      "hideWarnings": false,
      "overridden": false,
      "protectedExpression": false,
      "summarize": false
    },
    {
      "allowOverride": false,
      "combinationType": "FUNCTION",
      "displayOptions": 0,
      "elementGroups": [],
      "elementLabel": "Volume Tier Adj Cache",
      "elementName": "VolumeTierAdjCache",
      "elementTimeout": 0,
      "excludeFromExport": false,
      "hideOnNull": false,
      "hideWarnings": false,
      "overridden": false,
      "protectedExpression": false,
      "summarize": false
    },
    {
      "allowOverride": false,
      "combinationType": "FUNCTION",
      "displayOptions": 0,
      "elementGroups": [],
      "elementLabel": "Data Center Adj Cache",
      "elementName": "DataCenterAdjCache",
      "elementTimeout": 0,
      "excludeFromExport": false,
      "hideOnNull": false,
      "hideWarnings": false,
      "overridden": false,
      "protectedExpression": false,
      "summarize": false
    },
    {
      "allowOverride": false,
      "combinationType": "FUNCTION",
      "displayOptions": 0,
      "elementGroups": [],
      "elementLabel": "Purchasing Program Adj Cache",
      "elementName": "PurchasingProgramAdjCache",
      "elementTimeout": 0,
      "excludeFromExport": false,
      "hideOnNull": false,
      "hideWarnings": false,
      "overridden": false,
      "protectedExpression": false,
      "summarize": false
    },
    {
      "allowOverride": false,
      "combinationType": "FUNCTION",
      "displayOptions": 0,
      "elementGroups": [],
      "elementLabel": "Segment Adj Cache",
      "elementName": "SegmentAdjCache",
      "elementTimeout": 0,
      "excludeFromExport": false,
      "hideOnNull": false,
      "hideWarnings": false,
      "overridden": false,
      "protectedExpression": false,
      "summarize": false
    },
    {
      "allowOverride": false,
      "combinationType": "FUNCTION",
      "displayOptions": 0,
      "elementGroups": [],
      "elementLabel": "Support Type Adj Cache",
      "elementName": "SupportTypeAdjCache",
      "elementTimeout": 0,
      "excludeFromExport": false,
      "hideOnNull": false,
      "hideWarnings": false,
      "overridden": false,
      "protectedExpression": false,
      "summarize": false
    },
    {
      "allowOverride": false,
      "combinationType": "FUNCTION",
      "displayOptions": 0,
      "elementGroups": [],
      "elementLabel": "Support Tier Adj Cache",
      "elementName": "SupportTierAdjCache",
      "elementTimeout": 0,
      "excludeFromExport": false,
      "hideOnNull": false,
      "hideWarnings": false,
      "overridden": false,
      "protectedExpression": false,
      "summarize": false
    },
    {
      "allowOverride": false,
      "combinationType": "FUNCTION",
      "displayOptions": 0,
      "elementGroups": [],
      "elementLabel": "Term Adj Cache",
      "elementName": "TermAdjCache",
      "elementTimeout": 0,
      "excludeFromExport": false,
      "hideOnNull": false,
      "hideWarnings": false,
      "overridden": false,
      "protectedExpression": false,
      "summarize": false
    },
    {
      "allowOverride": false,
      "combinationType": "FUNCTION",
      "displayOptions": 0,
      "elementGroups": [],
      "elementLabel": "Retention Period Adj Cache",
      "elementName": "RetentionPeriodAdjCache",
      "elementTimeout": 0,
      "excludeFromExport": false,
      "hideOnNull": false,
      "hideWarnings": false,
      "overridden": false,
      "protectedExpression": false,
      "summarize": false
    },
    {
      "allowOverride": false,
      "combinationType": "FUNCTION",
      "displayOptions": 0,
      "elementGroups": [],
      "elementLabel": "Payment Adj Cache",
      "elementName": "PaymentAdjCache",
      "elementTimeout": 0,
      "excludeFromExport": false,
      "hideOnNull": false,
      "hideWarnings": false,
      "overridden": false,
      "protectedExpression": false,
      "summarize": false
    },
    {
      "allowOverride": false,
      "combinationType": "FUNCTION",
      "displayOptions": 0,
      "elementGroups": [],
      "elementLabel": "Metric Adj Cache",
      "elementName": "MetricAdjCache",
      "elementTimeout": 0,
      "excludeFromExport": false,
      "hideOnNull": false,
      "hideWarnings": false,
      "overridden": false,
      "protectedExpression": false,
      "summarize": false
    },
    {
      "allowOverride": false,
      "combinationType": "FUNCTION",
      "displayOptions": 0,
      "elementGroups": [],
      "elementLabel": "Hosting Adj Cache",
      "elementName": "HostingAdjCache",
      "elementTimeout": 0,
      "excludeFromExport": false,
      "hideOnNull": false,
      "hideWarnings": false,
      "overridden": false,
      "protectedExpression": false,
      "summarize": false
    },
    {
      "allowOverride": false,
      "combinationType": "FUNCTION",
      "displayOptions": 0,
      "elementGroups": [],
      "elementLabel": "OS Adjustment Cache",
      "elementName": "OSAdjustmentCache",
      "elementTimeout": 0,
      "excludeFromExport": false,
      "hideOnNull": false,
      "hideWarnings": false,
      "overridden": false,
      "protectedExpression": false,
      "summarize": false
    },
    {
      "allowOverride": false,
      "combinationType": "FUNCTION",
      "displayOptions": 0,
      "elementGroups": [],
      "elementLabel": "ProgramOptionAdjCache",
      "elementName": "ProgramOptionAdjCache",
      "elementTimeout": 0,
      "excludeFromExport": false,
      "hideOnNull": false,
      "hideWarnings": false,
      "overridden": false,
      "protectedExpression": false,
      "summarize": false
    },
    {
      "allowOverride": false,
      "combinationType": "FUNCTION",
      "displayOptions": 0,
      "elementGroups": [],
      "elementLabel": "PSTermAdjCache",
      "elementName": "PSTermAdjCache",
      "elementTimeout": 0,
      "excludeFromExport": false,
      "hideOnNull": false,
      "hideWarnings": false,
      "overridden": false,
      "protectedExpression": false,
      "summarize": false
    },
    {
      "allowOverride": false,
      "combinationType": "FUNCTION",
      "displayOptions": 0,
      "elementGroups": [],
      "elementLabel": "PSOptionAdjCache",
      "elementName": "PSOptionAdjCache",
      "elementTimeout": 0,
      "excludeFromExport": false,
      "hideOnNull": false,
      "hideWarnings": false,
      "overridden": false,
      "protectedExpression": false,
      "summarize": false
    },
    {
      "allowOverride": false,
      "combinationType": "FUNCTION",
      "displayOptions": 0,
      "elementGroups": [],
      "elementLabel": "Rounding Rules Cache",
      "elementName": "RoundingRulesCache",
      "elementTimeout": 0,
      "excludeFromExport": false,
      "hideOnNull": false,
      "hideWarnings": false,
      "overridden": false,
      "protectedExpression": false,
      "summarize": false
    },
    {
      "allowOverride": false,
      "combinationType": "FUNCTION",
      "displayOptions": 0,
      "elementGroups": [],
      "elementLabel": "Disti Discount Cache",
      "elementName": "DistiDiscountCache",
      "elementTimeout": 0,
      "excludeFromExport": false,
      "hideOnNull": false,
      "hideWarnings": false,
      "overridden": false,
      "protectedExpression": false,
      "summarize": false
    },
    {
      "allowOverride": false,
      "combinationType": "FUNCTION",
      "displayOptions": 0,
      "elementGroups": [],
      "elementLabel": "Reseller Disti Discount Cache",
      "elementName": "ResellerDiscountCache",
      "elementTimeout": 0,
      "excludeFromExport": false,
      "hideOnNull": false,
      "hideWarnings": false,
      "overridden": false,
      "protectedExpression": false,
      "summarize": false
    },
    {
      "allowOverride": false,
      "combinationType": "FUNCTION",
      "displayOptions": 0,
      "elementGroups": [],
      "elementLabel": "Cache Std Product Info",
      "elementName": "CacheStdProductInfo",
      "elementTimeout": 900,
      "excludeFromExport": false,
      "hideOnNull": false,
      "hideWarnings": false,
      "overridden": false,
      "protectedExpression": false,
      "summarize": false
    },
    {
      "allowOverride": false,
      "combinationType": "FUNCTION",
      "displayOptions": 0,
      "elementGroups": [],
      "elementLabel": "Cache SAPSKU Info",
      "elementName": "CacheSAPSKUInfo",
      "elementTimeout": 900,
      "excludeFromExport": false,
      "hideOnNull": false,
      "hideWarnings": false,
      "overridden": false,
      "protectedExpression": false,
      "summarize": false
    },
    {
      "allowOverride": false,
      "combinationType": "FUNCTION",
      "displayOptions": 0,
      "elementGroups": [],
      "elementLabel": "Cache Pricing Change Data",
      "elementName": "CachePricingChangeData",
      "elementTimeout": 900,
      "excludeFromExport": false,
      "hideOnNull": false,
      "hideWarnings": false,
      "overridden": false,
      "protectedExpression": false,
      "summarize": false
    },
    {
      "allowOverride": false,
      "combinationType": "FUNCTION",
      "displayOptions": 0,
      "elementGroups": [],
      "elementLabel": "Cache PriceBook Data",
      "elementName": "CachePriceBookData",
      "elementTimeout": 900,
      "excludeFromExport": false,
      "hideOnNull": false,
      "hideWarnings": false,
      "overridden": false,
      "protectedExpression": false,
      "summarize": false
    },
    {
      "allowOverride": false,
      "combinationType": "FUNCTION",
      "displayOptions": 0,
      "elementGroups": [],
      "elementLabel": "Cache Standard Product Description",
      "elementName": "CacheStandardProductDescription",
      "elementTimeout": 0,
      "excludeFromExport": false,
      "hideOnNull": false,
      "hideWarnings": false,
      "overridden": false,
      "protectedExpression": false,
      "summarize": false
    },
    {
      "allowOverride": false,
      "combinationType": "FUNCTION",
      "displayOptions": 0,
      "elementGroups": [],
      "elementLabel": "SKUInfo",
      "elementName": "SKUInfo",
      "elementTimeout": 0,
      "excludeFromExport": false,
      "hideOnNull": false,
      "hideWarnings": false,
      "overridden": false,
      "protectedExpression": false,
      "summarize": false
    },
    {
      "allowOverride": false,
      "combinationType": "FUNCTION",
      "displayOptions": 16,
      "elementGroups": [],
      "elementLabel": "Product Group",
      "elementName": "ProductGroup",
      "elementTimeout": 0,
      "excludeFromExport": false,
      "hideOnNull": false,
      "hideWarnings": false,
      "overridden": false,
      "protectedExpression": false,
      "summarize": false
    },
    {
      "allowOverride": false,
      "combinationType": "FUNCTION",
      "displayOptions": 16,
      "elementGroups": [],
      "elementLabel": "Product",
      "elementName": "Product",
      "elementTimeout": 0,
      "excludeFromExport": false,
      "hideOnNull": false,
      "hideWarnings": false,
      "overridden": false,
      "protectedExpression": false,
      "summarize": false
    },
    {
      "allowOverride": false,
      "combinationType": "FUNCTION",
      "displayOptions": 16,
      "elementGroups": [],
      "elementLabel": "Offer",
      "elementName": "Offer",
      "elementTimeout": 0,
      "excludeFromExport": false,
      "hideOnNull": false,
      "hideWarnings": false,
      "overridden": false,
      "protectedExpression": false,
      "summarize": false
    },
    {
      "allowOverride": false,
      "combinationType": "FUNCTION",
      "displayOptions": 16,
      "elementGroups": [],
      "elementLabel": "Base",
      "elementName": "Base",
      "elementTimeout": 0,
      "excludeFromExport": false,
      "hideOnNull": false,
      "hideWarnings": false,
      "overridden": false,
      "protectedExpression": false,
      "summarize": false
    },
    {
      "allowOverride": false,
      "combinationType": "FUNCTION",
      "displayOptions": 16,
      "elementGroups": [],
      "elementLabel": "Description",
      "elementName": "Description",
      "elementTimeout": 0,
      "excludeFromExport": false,
      "hideOnNull": false,
      "hideWarnings": false,
      "overridden": false,
      "protectedExpression": false,
      "summarize": false
    },
    {
      "allowOverride": false,
      "combinationType": "FUNCTION",
      "displayOptions": 16,
      "elementGroups": [],
      "elementLabel": "SAP Base SKU",
      "elementName": "SAPBaseSKU",
      "elementTimeout": 0,
      "excludeFromExport": false,
      "hideOnNull": false,
      "hideWarnings": false,
      "overridden": false,
      "protectedExpression": false,
      "summarize": false
    },
    {
      "allowOverride": false,
      "combinationType": "FUNCTION",
      "displayOptions": 16,
      "elementGroups": [],
      "elementLabel": "SAP SKU Short Description",
      "elementName": "SAPSKUShortDescription",
      "elementTimeout": 0,
      "excludeFromExport": false,
      "hideOnNull": false,
      "hideWarnings": false,
      "overridden": false,
      "protectedExpression": false,
      "summarize": false
    },
    {
      "allowOverride": false,
      "combinationType": "FUNCTION",
      "displayOptions": 16,
      "elementGroups": [],
      "elementLabel": "SAP SKU Long Description",
      "elementName": "SAPSKULongDescription",
      "elementTimeout": 0,
      "excludeFromExport": false,
      "hideOnNull": false,
      "hideWarnings": false,
      "overridden": false,
      "protectedExpression": false,
      "summarize": false
    },
    {
      "allowOverride": false,
      "combinationType": "FUNCTION",
      "displayOptions": 16,
      "elementGroups": [],
      "elementLabel": "SAPSKULongDescription1",
      "elementName": "SAPSKULongDescription1",
      "elementTimeout": 0,
      "excludeFromExport": false,
      "hideOnNull": false,
      "hideWarnings": false,
      "overridden": false,
      "protectedExpression": false,
      "summarize": false
    },
    {
      "allowOverride": false,
      "combinationType": "FUNCTION",
      "displayOptions": 16,
      "elementGroups": [],
      "elementLabel": "SAPSKULongDescription2",
      "elementName": "SAPSKULongDescription2",
      "elementTimeout": 0,
      "excludeFromExport": false,
      "hideOnNull": false,
      "hideWarnings": false,
      "overridden": false,
      "protectedExpression": false,
      "summarize": false
    },
    {
      "allowOverride": false,
      "combinationType": "FUNCTION",
      "displayOptions": 16,
      "elementGroups": [],
      "elementLabel": "SAPSKULongDescription3",
      "elementName": "SAPSKULongDescription3",
      "elementTimeout": 0,
      "excludeFromExport": false,
      "hideOnNull": false,
      "hideWarnings": false,
      "overridden": false,
      "protectedExpression": false,
      "summarize": false
    },
    {
      "allowOverride": false,
      "combinationType": "FUNCTION",
      "displayOptions": 16,
      "elementGroups": [],
      "elementLabel": "Data Center",
      "elementName": "DataCenter",
      "elementTimeout": 0,
      "excludeFromExport": false,
      "hideOnNull": false,
      "hideWarnings": false,
      "overridden": false,
      "protectedExpression": false,
      "summarize": false
    },
    {
      "allowOverride": false,
      "combinationType": "FUNCTION",
      "displayOptions": 16,
      "elementGroups": [],
      "elementLabel": "Metric",
      "elementName": "Metric",
      "elementTimeout": 0,
      "excludeFromExport": false,
      "hideOnNull": false,
      "hideWarnings": false,
      "overridden": false,
      "protectedExpression": false,
      "summarize": false
    },
    {
      "allowOverride": false,
      "combinationType": "FUNCTION",
      "displayOptions": 16,
      "elementGroups": [],
      "elementLabel": "Quantity",
      "elementName": "Quantity",
      "elementTimeout": 0,
      "excludeFromExport": false,
      "hideOnNull": false,
      "hideWarnings": false,
      "overridden": false,
      "protectedExpression": false,
      "summarize": false
    },
    {
      "allowOverride": false,
      "combinationType": "FUNCTION",
      "displayOptions": 16,
      "elementGroups": [],
      "elementLabel": "Segment Type",
      "elementName": "SegmentType",
      "elementTimeout": 0,
      "excludeFromExport": false,
      "hideOnNull": false,
      "hideWarnings": false,
      "overridden": false,
      "protectedExpression": false,
      "summarize": false
    },
    {
      "allowOverride": false,
      "combinationType": "FUNCTION",
      "displayOptions": 16,
      "elementGroups": [],
      "elementLabel": "Support Tier",
      "elementName": "SupportTier",
      "elementTimeout": 0,
      "excludeFromExport": false,
      "hideOnNull": false,
      "hideWarnings": false,
      "overridden": false,
      "protectedExpression": false,
      "summarize": false
    },
    {
      "allowOverride": false,
      "combinationType": "FUNCTION",
      "displayOptions": 16,
      "elementGroups": [],
      "elementLabel": "Support Type",
      "elementName": "SupportType",
      "elementTimeout": 0,
      "excludeFromExport": false,
      "hideOnNull": false,
      "hideWarnings": false,
      "overridden": false,
      "protectedExpression": false,
      "summarize": false
    },
    {
      "allowOverride": false,
      "combinationType": "FUNCTION",
      "displayOptions": 16,
      "elementGroups": [],
      "elementLabel": "Term",
      "elementName": "Term",
      "elementTimeout": 0,
      "excludeFromExport": false,
      "hideOnNull": false,
      "hideWarnings": false,
      "overridden": false,
      "protectedExpression": false,
      "summarize": false
    },
    {
      "allowOverride": false,
      "combinationType": "FUNCTION",
      "displayOptions": 16,
      "elementGroups": [],
      "elementLabel": "Term UoM",
      "elementName": "TermUoM",
      "elementTimeout": 0,
      "excludeFromExport": false,
      "hideOnNull": false,
      "hideWarnings": false,
      "overridden": false,
      "protectedExpression": false,
      "summarize": false
    },
    {
      "allowOverride": false,
      "combinationType": "FUNCTION",
      "displayOptions": 16,
      "elementGroups": [],
      "elementLabel": "Retention Period",
      "elementName": "RetentionPeriod",
      "elementTimeout": 0,
      "excludeFromExport": false,
      "hideOnNull": false,
      "hideWarnings": false,
      "overridden": false,
      "protectedExpression": false,
      "summarize": false
    },
    {
      "allowOverride": false,
      "combinationType": "FUNCTION",
      "displayOptions": 16,
      "elementGroups": [],
      "elementLabel": "Retention Period UOM",
      "elementName": "RetentionPeriodUOM",
      "elementTimeout": 0,
      "excludeFromExport": false,
      "hideOnNull": false,
      "hideWarnings": false,
      "overridden": false,
      "protectedExpression": false,
      "summarize": false
    },
    {
      "allowOverride": false,
      "combinationType": "FUNCTION",
      "displayOptions": 16,
      "elementGroups": [],
      "elementLabel": "PS Term",
      "elementName": "PSTerm",
      "elementTimeout": 0,
      "excludeFromExport": false,
      "hideOnNull": false,
      "hideWarnings": false,
      "overridden": false,
      "protectedExpression": false,
      "summarize": false
    },
    {
      "allowOverride": false,
      "combinationType": "FUNCTION",
      "displayOptions": 16,
      "elementGroups": [],
      "elementLabel": "PS Option",
      "elementName": "PSOption",
      "elementTimeout": 0,
      "excludeFromExport": false,
      "hideOnNull": false,
      "hideWarnings": false,
      "overridden": false,
      "protectedExpression": false,
      "summarize": false
    },
    {
      "allowOverride": false,
      "combinationType": "FUNCTION",
      "displayOptions": 16,
      "elementGroups": [],
      "elementLabel": "Payment Type",
      "elementName": "PaymentType",
      "elementTimeout": 0,
      "excludeFromExport": false,
      "hideOnNull": false,
      "hideWarnings": false,
      "overridden": false,
      "protectedExpression": false,
      "summarize": false
    },
    {
      "allowOverride": false,
      "combinationType": "FUNCTION",
      "displayOptions": 16,
      "elementGroups": [],
      "elementLabel": "Volume/Deal Size",
      "elementName": "VolumeTierSize",
      "elementTimeout": 0,
      "excludeFromExport": false,
      "hideOnNull": false,
      "hideWarnings": false,
      "overridden": false,
      "protectedExpression": false,
      "summarize": false
    },
    {
      "allowOverride": false,
      "combinationType": "FUNCTION",
      "displayOptions": 16,
      "elementGroups": [],
      "elementLabel": "Purchasing Program",
      "elementName": "PurchasingProgram",
      "elementTimeout": 0,
      "excludeFromExport": false,
      "hideOnNull": false,
      "hideWarnings": false,
      "overridden": false,
      "protectedExpression": false,
      "summarize": false
    },
    {
      "allowOverride": false,
      "combinationType": "FUNCTION",
      "displayOptions": 16,
      "elementGroups": [],
      "elementLabel": "Hosting",
      "elementName": "Hosting",
      "elementTimeout": 0,
      "excludeFromExport": false,
      "hideOnNull": false,
      "hideWarnings": false,
      "overridden": false,
      "protectedExpression": false,
      "summarize": false
    },
    {
      "allowOverride": false,
      "combinationType": "FUNCTION",
      "displayOptions": 16,
      "elementGroups": [],
      "elementLabel": "Program Option",
      "elementName": "ProgramOption",
      "elementTimeout": 0,
      "excludeFromExport": false,
      "hideOnNull": false,
      "hideWarnings": false,
      "overridden": false,
      "protectedExpression": false,
      "summarize": false
    },
    {
      "allowOverride": false,
      "combinationType": "FUNCTION",
      "displayOptions": 16,
      "elementGroups": [],
      "elementLabel": "OS",
      "elementName": "OS",
      "elementTimeout": 0,
      "excludeFromExport": false,
      "hideOnNull": false,
      "hideWarnings": false,
      "overridden": false,
      "protectedExpression": false,
      "summarize": false
    },
    {
      "allowOverride": false,
      "combinationType": "FUNCTION",
      "displayOptions": 16,
      "elementGroups": [],
      "elementLabel": "Version",
      "elementName": "Version",
      "elementTimeout": 0,
      "excludeFromExport": false,
      "hideOnNull": false,
      "hideWarnings": false,
      "overridden": false,
      "protectedExpression": false,
      "summarize": false
    },
    {
      "allowOverride": false,
      "combinationType": "FUNCTION",
      "displayOptions": 16,
      "elementGroups": [],
      "elementLabel": "Promotion",
      "elementName": "Promotion",
      "elementTimeout": 0,
      "excludeFromExport": false,
      "hideOnNull": false,
      "hideWarnings": false,
      "overridden": false,
      "protectedExpression": false,
      "summarize": false
    },
    {
      "allowOverride": false,
      "combinationType": "FUNCTION",
      "displayOptions": 16,
      "elementGroups": [],
      "elementLabel": "DQ Indicator",
      "elementName": "DQIndicator",
      "elementTimeout": 0,
      "excludeFromExport": false,
      "hideOnNull": false,
      "hideWarnings": false,
      "overridden": false,
      "protectedExpression": false,
      "summarize": false
    },
    {
      "allowOverride": false,
      "combinationType": "FUNCTION",
      "displayOptions": 16,
      "elementGroups": [],
      "elementLabel": "Base Price SKU",
      "elementName": "BasePriceSKU",
      "elementTimeout": 0,
      "excludeFromExport": false,
      "hideOnNull": false,
      "hideWarnings": false,
      "overridden": false,
      "protectedExpression": false,
      "summarize": false
    },
    {
      "allowOverride": false,
      "combinationType": "FUNCTION",
      "displayOptions": 16,
      "elementGroups": [],
      "elementLabel": "Base Attribute Desc",
      "elementName": "BaseAttributeDesc",
      "elementTimeout": 0,
      "excludeFromExport": false,
      "hideOnNull": false,
      "hideWarnings": false,
      "overridden": false,
      "protectedExpression": false,
      "summarize": false
    },
    {
      "allowOverride": false,
      "combinationType": "FUNCTION",
      "displayOptions": 0,
      "elementGroups": [],
      "elementLabel": "Base Price SKU Info",
      "elementName": "BasePriceSKUInfo",
      "elementTimeout": 0,
      "excludeFromExport": false,
      "hideOnNull": false,
      "hideWarnings": false,
      "overridden": false,
      "protectedExpression": false,
      "summarize": false
    },
    {
      "allowOverride": false,
      "combinationType": "FUNCTION",
      "displayOptions": 0,
      "elementGroups": [],
      "elementLabel": "Base SKU Attributes",
      "elementName": "BaseSKUAttributes",
      "elementTimeout": 0,
      "excludeFromExport": false,
      "hideOnNull": false,
      "hideWarnings": false,
      "overridden": false,
      "protectedExpression": false,
      "summarize": false
    },
    {
      "allowOverride": false,
      "combinationType": "FUNCTION",
      "displayOptions": 16,
      "elementGroups": [],
      "elementLabel": "Base Price",
      "elementName": "BasePrice",
      "elementTimeout": 0,
      "excludeFromExport": false,
      "formatType": "NUMERIC_LONG",
      "hideOnNull": false,
      "hideWarnings": false,
      "overridden": false,
      "protectedExpression": false,
      "summarize": false
    },
    {
      "allowOverride": false,
      "combinationType": "FUNCTION",
      "displayOptions": 16,
      "elementGroups": [],
      "elementLabel": "Base Quantity",
      "elementName": "BaseQuantity",
      "elementTimeout": 0,
      "excludeFromExport": false,
      "hideOnNull": false,
      "hideWarnings": false,
      "overridden": false,
      "protectedExpression": false,
      "summarize": false
    },
    {
      "allowOverride": false,
      "combinationType": "FUNCTION",
      "displayOptions": 0,
      "elementGroups": [],
      "elementLabel": "SKU Hierarchy",
      "elementName": "SKUHierarchy",
      "elementTimeout": 0,
      "excludeFromExport": false,
      "hideOnNull": false,
      "hideWarnings": false,
      "overridden": false,
      "protectedExpression": false,
      "summarize": false
    },
    {
      "allowOverride": false,
      "combinationType": "FUNCTION",
      "displayOptions": 0,
      "elementGroups": [],
      "elementLabel": "Base Hierarchy",
      "elementName": "BaseHierarchy",
      "elementTimeout": 0,
      "excludeFromExport": false,
      "hideOnNull": false,
      "hideWarnings": false,
      "overridden": false,
      "protectedExpression": false,
      "summarize": false
    },
    {
      "allowOverride": false,
      "combinationType": "FUNCTION",
      "displayOptions": 16,
      "elementGroups": [],
      "elementLabel": "Currency Factor",
      "elementName": "CurrencyFactor",
      "elementTimeout": 0,
      "excludeFromExport": false,
      "formatType": "NUMERIC_LONG",
      "hideOnNull": false,
      "hideWarnings": false,
      "overridden": false,
      "protectedExpression": false,
      "summarize": false
    },
    {
      "allowOverride": false,
      "combinationType": "FUNCTION",
      "displayOptions": 16,
      "elementGroups": [],
      "elementLabel": "Price List Region Factor",
      "elementName": "PriceListRegionFactor",
      "elementTimeout": 0,
      "excludeFromExport": false,
      "formatType": "NUMERIC_LONG",
      "hideOnNull": false,
      "hideWarnings": true,
      "overridden": false,
      "protectedExpression": false,
      "summarize": false
    },
    {
      "allowOverride": false,
      "combinationType": "FUNCTION",
      "displayOptions": 16,
      "elementGroups": [],
      "elementLabel": "Promotion Factor",
      "elementName": "PromotionFactor",
      "elementTimeout": 0,
      "excludeFromExport": false,
      "formatType": "NUMERIC_LONG",
      "hideOnNull": false,
      "hideWarnings": false,
      "overridden": false,
      "protectedExpression": false,
      "summarize": false
    },
    {
      "allowOverride": false,
      "combinationType": "FUNCTION",
      "displayOptions": 16,
      "elementGroups": [],
      "elementLabel": "Volume Tier Factor",
      "elementName": "VolumeTierFactor",
      "elementTimeout": 0,
      "excludeFromExport": false,
      "formatType": "NUMERIC_LONG",
      "hideOnNull": false,
      "hideWarnings": false,
      "overridden": false,
      "protectedExpression": false,
      "summarize": false
    },
    {
      "allowOverride": false,
      "combinationType": "FUNCTION",
      "displayOptions": 16,
      "elementGroups": [],
      "elementLabel": "Data center Factor",
      "elementName": "DatacenterFactor",
      "elementTimeout": 0,
      "excludeFromExport": false,
      "formatType": "NUMERIC_LONG",
      "hideOnNull": false,
      "hideWarnings": false,
      "overridden": false,
      "protectedExpression": false,
      "summarize": false
    },
    {
      "allowOverride": false,
      "combinationType": "FUNCTION",
      "displayOptions": 16,
      "elementGroups": [],
      "elementLabel": "Purchasing Program Factor",
      "elementName": "PurchasingProgramFactor",
      "elementTimeout": 0,
      "excludeFromExport": false,
      "formatType": "NUMERIC_LONG",
      "hideOnNull": false,
      "hideWarnings": false,
      "overridden": false,
      "protectedExpression": false,
      "summarize": false
    },
    {
      "allowOverride": false,
      "combinationType": "FUNCTION",
      "displayOptions": 16,
      "elementGroups": [],
      "elementLabel": "Segment Factor",
      "elementName": "SegmentFactor",
      "elementTimeout": 0,
      "excludeFromExport": false,
      "formatType": "NUMERIC_LONG",
      "hideOnNull": false,
      "hideWarnings": false,
      "overridden": false,
      "protectedExpression": false,
      "summarize": false
    },
    {
      "allowOverride": false,
      "combinationType": "FUNCTION",
      "displayOptions": 16,
      "elementGroups": [],
      "elementLabel": "Support Type Factor",
      "elementName": "SupportTypeFactor",
      "elementTimeout": 0,
      "excludeFromExport": false,
      "formatType": "NUMERIC_LONG",
      "hideOnNull": false,
      "hideWarnings": false,
      "overridden": false,
      "protectedExpression": false,
      "summarize": false
    },
    {
      "allowOverride": false,
      "combinationType": "FUNCTION",
      "displayOptions": 16,
      "elementGroups": [],
      "elementLabel": "Support Tier Factor",
      "elementName": "SupportTierFactor",
      "elementTimeout": 0,
      "excludeFromExport": false,
      "formatType": "NUMERIC_LONG",
      "hideOnNull": false,
      "hideWarnings": false,
      "overridden": false,
      "protectedExpression": false,
      "summarize": false
    },
    {
      "allowOverride": false,
      "combinationType": "FUNCTION",
      "displayOptions": 16,
      "elementGroups": [],
      "elementLabel": "Term Factor",
      "elementName": "TermFactor",
      "elementTimeout": 0,
      "excludeFromExport": false,
      "formatType": "NUMERIC_LONG",
      "hideOnNull": false,
      "hideWarnings": false,
      "overridden": false,
      "protectedExpression": false,
      "summarize": false
    },
    {
      "allowOverride": true,
      "combinationType": "FUNCTION",
      "displayOptions": 16,
      "elementGroups": [],
      "elementLabel": "Term UoM Factor",
      "elementName": "TermUoMFactor",
      "elementTimeout": 0,
      "excludeFromExport": false,
      "formatType": "NUMERIC_LONG",
      "hideOnNull": false,
      "hideWarnings": false,
      "overridden": false,
      "protectedExpression": false,
      "summarize": false
    },
    {
      "allowOverride": false,
      "combinationType": "FUNCTION",
      "displayOptions": 16,
      "elementGroups": [],
      "elementLabel": "Retention Period Factor",
      "elementName": "RetentionPeriodFactor",
      "elementTimeout": 0,
      "excludeFromExport": false,
      "formatType": "NUMERIC_LONG",
      "hideOnNull": false,
      "hideWarnings": false,
      "overridden": false,
      "protectedExpression": false,
      "summarize": false
    },
    {
      "allowOverride": false,
      "combinationType": "FUNCTION",
      "displayOptions": 16,
      "elementGroups": [],
      "elementLabel": "PS Term Factor",
      "elementName": "PSTermFactor",
      "elementTimeout": 0,
      "excludeFromExport": false,
      "formatType": "NUMERIC_LONG",
      "hideOnNull": false,
      "hideWarnings": false,
      "overridden": false,
      "protectedExpression": false,
      "summarize": false
    },
    {
      "allowOverride": false,
      "combinationType": "FUNCTION",
      "displayOptions": 16,
      "elementGroups": [],
      "elementLabel": "PS Option Factor",
      "elementName": "PSOptionFactor",
      "elementTimeout": 0,
      "excludeFromExport": false,
      "formatType": "NUMERIC_LONG",
      "hideOnNull": false,
      "hideWarnings": false,
      "overridden": false,
      "protectedExpression": false,
      "summarize": false
    },
    {
      "allowOverride": false,
      "combinationType": "FUNCTION",
      "displayOptions": 16,
      "elementGroups": [],
      "elementLabel": "Payment Factor",
      "elementName": "PaymentFactor",
      "elementTimeout": 0,
      "excludeFromExport": false,
      "formatType": "NUMERIC_LONG",
      "hideOnNull": false,
      "hideWarnings": false,
      "overridden": false,
      "protectedExpression": false,
      "summarize": false
    },
    {
      "allowOverride": false,
      "combinationType": "FUNCTION",
      "displayOptions": 16,
      "elementGroups": [],
      "elementLabel": "Metric Factor",
      "elementName": "MetricFactor",
      "elementTimeout": 0,
      "excludeFromExport": false,
      "formatType": "NUMERIC_LONG",
      "hideOnNull": false,
      "hideWarnings": false,
      "overridden": false,
      "protectedExpression": false,
      "summarize": false
    },
    {
      "allowOverride": false,
      "combinationType": "FUNCTION",
      "displayOptions": 16,
      "elementGroups": [],
      "elementLabel": "Hosting Factor",
      "elementName": "HostingFactor",
      "elementTimeout": 0,
      "excludeFromExport": false,
      "formatType": "NUMERIC_LONG",
      "hideOnNull": false,
      "hideWarnings": false,
      "overridden": false,
      "protectedExpression": false,
      "summarize": false
    },
    {
      "allowOverride": false,
      "combinationType": "FUNCTION",
      "displayOptions": 16,
      "elementGroups": [],
      "elementLabel": "OS Factor",
      "elementName": "OSFactor",
      "elementTimeout": 0,
      "excludeFromExport": false,
      "formatType": "NUMERIC_LONG",
      "hideOnNull": false,
      "hideWarnings": false,
      "overridden": false,
      "protectedExpression": false,
      "summarize": false
    },
    {
      "allowOverride": false,
      "combinationType": "FUNCTION",
      "displayOptions": 16,
      "elementGroups": [],
      "elementLabel": "Program Option Factor",
      "elementName": "ProgramOptionFactor",
      "elementTimeout": 0,
      "excludeFromExport": false,
      "formatType": "NUMERIC_LONG",
      "hideOnNull": false,
      "hideWarnings": false,
      "overridden": false,
      "protectedExpression": false,
      "summarize": false
    },
    {
      "allowOverride": false,
      "combinationType": "FUNCTION",
      "displayOptions": 16,
      "elementGroups": [],
      "elementLabel": "Quantity Adjustment",
      "elementName": "QuantityAdjustment",
      "elementTimeout": 0,
      "excludeFromExport": false,
      "formatType": "NUMERIC_LONG",
      "hideOnNull": false,
      "hideWarnings": false,
      "overridden": false,
      "protectedExpression": false,
      "summarize": false
    },
    {
      "allowOverride": false,
      "combinationType": "FUNCTION",
      "displayOptions": 16,
      "elementGroups": [],
      "elementLabel": "Upgrade Factor",
      "elementName": "UpgradeFactor",
      "elementTimeout": 0,
      "excludeFromExport": false,
      "formatType": "NUMERIC_LONG",
      "hideOnNull": false,
      "hideWarnings": false,
      "overridden": false,
      "protectedExpression": false,
      "summarize": false
    },
    {
      "allowOverride": true,
      "combinationType": "FUNCTION",
      "displayOptions": 16,
      "elementGroups": [],
      "elementLabel": "Payment Cycle Adjustment Factor",
      "elementName": "PaymentCycleAdjustmentFactor",
      "elementTimeout": 0,
      "excludeFromExport": false,
      "formatType": "NUMERIC_LONG",
      "hideOnNull": false,
      "hideWarnings": false,
      "overridden": false,
      "protectedExpression": false,
      "summarize": false
    },
    {
      "allowOverride": false,
      "combinationType": "FUNCTION",
      "displayOptions": 16,
      "elementGroups": [],
      "elementLabel": "Factors",
      "elementName": "Factors",
      "elementTimeout": 0,
      "excludeFromExport": false,
      "formatType": "COMPLEX",
      "hideOnNull": false,
      "hideWarnings": false,
      "overridden": false,
      "protectedExpression": false,
      "summarize": false
    },
    {
      "allowOverride": false,
      "combinationType": "FUNCTION",
      "displayOptions": 0,
      "elementGroups": [],
      "elementName": "ProductKeys",
      "elementTimeout": 900,
      "excludeFromExport": false,
      "formatType": "NUMERIC_LONG",
      "hideOnNull": false,
      "hideWarnings": false,
      "overridden": false,
      "protectedExpression": false,
      "summarize": false
    },
    {
      "allowOverride": false,
      "combinationType": "FUNCTION",
      "displayOptions": 0,
      "elementGroups": [],
      "elementLabel": "Rounding Precision",
      "elementName": "RoundingPrecision",
      "elementTimeout": 0,
      "excludeFromExport": false,
      "hideOnNull": false,
      "hideWarnings": false,
      "overridden": false,
      "protectedExpression": false,
      "summarize": false
    },
    {
      "allowOverride": false,
      "combinationType": "FUNCTION",
      "displayOptions": 16,
      "elementGroups": [],
      "elementLabel": "List Price",
      "elementName": "ListPrice",
      "elementTimeout": 0,
      "excludeFromExport": false,
      "formatType": "NUMERIC_LONG",
      "hideOnNull": false,
      "hideWarnings": false,
      "overridden": false,
      "protectedExpression": false,
      "summarize": false
    },
    {
      "allowOverride": false,
      "combinationType": "FUNCTION",
      "displayOptions": 16,
      "elementGroups": [],
      "elementLabel": "SAPListPrice",
      "elementName": "SAPListPrice",
      "elementTimeout": 0,
      "excludeFromExport": false,
      "formatType": "NUMERIC_LONG",
      "hideOnNull": false,
      "hideWarnings": false,
      "overridden": false,
      "protectedExpression": false,
      "summarize": false
    },
    {
      "allowOverride": false,
      "combinationType": "FUNCTION",
      "displayOptions": 16,
      "elementGroups": [],
      "elementLabel": "Rounded List Price",
      "elementName": "RoundedListPrice",
      "elementTimeout": 0,
      "excludeFromExport": false,
      "formatType": "NUMERIC_LONG",
      "hideOnNull": false,
      "hideWarnings": false,
      "overridden": false,
      "protectedExpression": false,
      "summarize": false
    },
    {
      "allowOverride": false,
      "combinationType": "FUNCTION",
      "displayOptions": 16,
      "elementGroups": [],
      "elementLabel": "Disti Discount",
      "elementName": "DistiDiscount",
      "elementTimeout": 0,
      "excludeFromExport": false,
      "formatType": "PERCENT",
      "hideOnNull": false,
      "hideWarnings": false,
      "overridden": false,
      "protectedExpression": false,
      "summarize": false
    },
    {
      "allowOverride": false,
      "combinationType": "FUNCTION",
      "displayOptions": 16,
      "elementGroups": [],
      "elementLabel": "Reseller Discount",
      "elementName": "ResellerDiscount",
      "elementTimeout": 0,
      "excludeFromExport": false,
      "formatType": "PERCENT",
      "hideOnNull": false,
      "hideWarnings": false,
      "overridden": false,
      "protectedExpression": false,
      "summarize": false
    },
    {
      "allowOverride": false,
      "combinationType": "FUNCTION",
      "displayOptions": 0,
      "elementGroups": [],
      "elementName": "KeyList",
      "elementTimeout": 900,
      "excludeFromExport": false,
      "formatType": "NUMERIC_LONG",
      "hideOnNull": false,
      "hideWarnings": false,
      "overridden": false,
      "protectedExpression": false,
      "summarize": false
    },
    {
      "allowOverride": false,
      "combinationType": "FUNCTION",
      "displayOptions": 0,
      "elementGroups": [],
      "elementName": "USDCache",
      "elementTimeout": 0,
      "excludeFromExport": false,
      "hideOnNull": false,
      "hideWarnings": false,
      "overridden": false,
      "protectedExpression": false,
      "summarize": false
    },
    {
      "allowOverride": false,
      "combinationType": "FUNCTION",
      "displayOptions": 0,
      "elementGroups": [],
      "elementName": "NAMUSDCache",
      "elementTimeout": 0,
      "excludeFromExport": false,
      "hideOnNull": false,
      "hideWarnings": false,
      "overridden": false,
      "protectedExpression": false,
      "summarize": false
    },
    {
      "allowOverride": false,
      "combinationType": "FUNCTION",
      "displayOptions": 0,
      "elementGroups": [],
      "elementName": "APACUSDCache",
      "elementTimeout": 0,
      "excludeFromExport": false,
      "hideOnNull": false,
      "hideWarnings": false,
      "overridden": false,
      "protectedExpression": false,
      "summarize": false
    },
    {
      "allowOverride": false,
      "combinationType": "FUNCTION",
      "displayOptions": 0,
      "elementGroups": [],
      "elementName": "CHINAUSDCache",
      "elementTimeout": 0,
      "excludeFromExport": false,
      "hideOnNull": false,
      "hideWarnings": false,
      "overridden": false,
      "protectedExpression": false,
      "summarize": false
    },
    {
      "allowOverride": false,
      "combinationType": "FUNCTION",
      "displayOptions": 0,
      "elementGroups": [],
      "elementName": "LATAMUSDCache",
      "elementTimeout": 0,
      "excludeFromExport": false,
      "hideOnNull": false,
      "hideWarnings": false,
      "overridden": false,
      "protectedExpression": false,
      "summarize": false
    },
    {
      "allowOverride": false,
      "combinationType": "FUNCTION",
      "displayOptions": 0,
      "elementGroups": [],
      "elementName": "EMEAUSDCache",
      "elementTimeout": 0,
      "excludeFromExport": false,
      "hideOnNull": false,
      "hideWarnings": false,
      "overridden": false,
      "protectedExpression": false,
      "summarize": false
    },
    {
      "allowOverride": false,
      "combinationType": "FUNCTION",
      "displayOptions": 0,
      "elementGroups": [],
      "elementName": "EMEAUSD2Cache",
      "elementTimeout": 0,
      "excludeFromExport": false,
      "hideOnNull": false,
      "hideWarnings": false,
      "overridden": false,
      "protectedExpression": false,
      "summarize": false
    },
    {
      "allowOverride": false,
      "combinationType": "FUNCTION",
      "displayOptions": 0,
      "elementGroups": [],
      "elementName": "GlobalUSDCache",
      "elementTimeout": 0,
      "excludeFromExport": false,
      "hideOnNull": false,
      "hideWarnings": false,
      "overridden": false,
      "protectedExpression": false,
      "summarize": false
    },
    {
      "allowOverride": false,
      "combinationType": "FUNCTION",
      "displayOptions": 0,
      "elementGroups": [],
      "elementName": "EMEAEURCache",
      "elementTimeout": 0,
      "excludeFromExport": false,
      "hideOnNull": false,
      "hideWarnings": false,
      "overridden": false,
      "protectedExpression": false,
      "summarize": false
    },
    {
      "allowOverride": false,
      "combinationType": "FUNCTION",
      "displayOptions": 0,
      "elementGroups": [],
      "elementName": "EMEAGBPCache",
      "elementTimeout": 0,
      "excludeFromExport": false,
      "hideOnNull": false,
      "hideWarnings": false,
      "overridden": false,
      "protectedExpression": false,
      "summarize": false
    },
    {
      "allowOverride": false,
      "combinationType": "FUNCTION",
      "displayOptions": 0,
      "elementGroups": [],
      "elementName": "APACCNYCache",
      "elementTimeout": 0,
      "excludeFromExport": false,
      "hideOnNull": false,
      "hideWarnings": false,
      "overridden": false,
      "protectedExpression": false,
      "summarize": false
    },
    {
      "allowOverride": false,
      "combinationType": "FUNCTION",
      "displayOptions": 0,
      "elementGroups": [],
      "elementName": "APACAUDCache",
      "elementTimeout": 0,
      "excludeFromExport": false,
      "hideOnNull": false,
      "hideWarnings": false,
      "overridden": false,
      "protectedExpression": false,
      "summarize": false
    },
    {
      "allowOverride": false,
      "combinationType": "FUNCTION",
      "displayOptions": 0,
      "elementGroups": [],
      "elementName": "APACJPYCache",
      "elementTimeout": 0,
      "excludeFromExport": false,
      "hideOnNull": false,
      "hideWarnings": false,
      "overridden": false,
      "protectedExpression": false,
      "summarize": false
    },
    {
      "allowOverride": false,
      "combinationType": "FUNCTION",
      "displayOptions": 0,
      "elementGroups": [],
      "elementLabel": "NAM USD",
      "elementName": "NAMUSD",
      "elementTimeout": 0,
      "excludeFromExport": false,
      "formatType": "NUMERIC_LONG",
      "hideOnNull": false,
      "hideWarnings": false,
      "overridden": false,
      "protectedExpression": false,
      "summarize": false
    },
    {
      "allowOverride": false,
      "combinationType": "FUNCTION",
      "displayOptions": 0,
      "elementGroups": [],
      "elementLabel": "SAP NAM USD",
      "elementName": "SAPNAMUSD",
      "elementTimeout": 0,
      "excludeFromExport": false,
      "formatType": "NUMERIC_LONG",
      "hideOnNull": false,
      "hideWarnings": false,
      "overridden": false,
      "protectedExpression": false,
      "summarize": false
    },
    {
      "allowOverride": false,
      "combinationType": "FUNCTION",
      "displayOptions": 0,
      "elementGroups": [],
      "elementLabel": "APAC USD",
      "elementName": "APACUSD",
      "elementTimeout": 0,
      "excludeFromExport": false,
      "formatType": "NUMERIC_LONG",
      "hideOnNull": false,
      "hideWarnings": false,
      "overridden": false,
      "protectedExpression": false,
      "summarize": false
    },
    {
      "allowOverride": false,
      "combinationType": "FUNCTION",
      "displayOptions": 0,
      "elementGroups": [],
      "elementLabel": "SAP APAC USD",
      "elementName": "SAPAPACUSD",
      "elementTimeout": 0,
      "excludeFromExport": false,
      "formatType": "NUMERIC_LONG",
      "hideOnNull": false,
      "hideWarnings": false,
      "overridden": false,
      "protectedExpression": false,
      "summarize": false
    },
    {
      "allowOverride": false,
      "combinationType": "FUNCTION",
      "displayOptions": 0,
      "elementGroups": [],
      "elementLabel": "CHINA USD",
      "elementName": "CHINAUSD",
      "elementTimeout": 0,
      "excludeFromExport": false,
      "formatType": "NUMERIC_LONG",
      "hideOnNull": false,
      "hideWarnings": false,
      "overridden": false,
      "protectedExpression": false,
      "summarize": false
    },
    {
      "allowOverride": false,
      "combinationType": "FUNCTION",
      "displayOptions": 0,
      "elementGroups": [],
      "elementLabel": "SAP CHINA USD",
      "elementName": "SAPCHINAUSD",
      "elementTimeout": 0,
      "excludeFromExport": false,
      "formatType": "NUMERIC_LONG",
      "hideOnNull": false,
      "hideWarnings": false,
      "overridden": false,
      "protectedExpression": false,
      "summarize": false
    },
    {
      "allowOverride": false,
      "combinationType": "FUNCTION",
      "displayOptions": 0,
      "elementGroups": [],
      "elementLabel": "LATAM USD",
      "elementName": "LATAMUSD",
      "elementTimeout": 0,
      "excludeFromExport": false,
      "formatType": "NUMERIC_LONG",
      "hideOnNull": false,
      "hideWarnings": false,
      "overridden": false,
      "protectedExpression": false,
      "summarize": false
    },
    {
      "allowOverride": false,
      "combinationType": "FUNCTION",
      "displayOptions": 0,
      "elementGroups": [],
      "elementLabel": "SAP LATAM USD",
      "elementName": "SAPLATAMUSD",
      "elementTimeout": 0,
      "excludeFromExport": false,
      "formatType": "NUMERIC_LONG",
      "hideOnNull": false,
      "hideWarnings": false,
      "overridden": false,
      "protectedExpression": false,
      "summarize": false
    },
    {
      "allowOverride": false,
      "combinationType": "FUNCTION",
      "displayOptions": 0,
      "elementGroups": [],
      "elementLabel": "EMEA USD",
      "elementName": "EMEAUSD",
      "elementTimeout": 0,
      "excludeFromExport": false,
      "formatType": "NUMERIC_LONG",
      "hideOnNull": false,
      "hideWarnings": false,
      "overridden": false,
      "protectedExpression": false,
      "summarize": false
    },
    {
      "allowOverride": false,
      "combinationType": "FUNCTION",
      "displayOptions": 0,
      "elementGroups": [],
      "elementLabel": "SAP EMEA USD",
      "elementName": "SAPEMEAUSD",
      "elementTimeout": 0,
      "excludeFromExport": false,
      "formatType": "NUMERIC_LONG",
      "hideOnNull": false,
      "hideWarnings": false,
      "overridden": false,
      "protectedExpression": false,
      "summarize": false
    },
    {
      "allowOverride": false,
      "combinationType": "FUNCTION",
      "displayOptions": 0,
      "elementGroups": [],
      "elementLabel": "EMEA USD2",
      "elementName": "EMEAUSD2",
      "elementTimeout": 0,
      "excludeFromExport": false,
      "formatType": "NUMERIC_LONG",
      "hideOnNull": false,
      "hideWarnings": false,
      "overridden": false,
      "protectedExpression": false,
      "summarize": false
    },
    {
      "allowOverride": false,
      "combinationType": "FUNCTION",
      "displayOptions": 0,
      "elementGroups": [],
      "elementLabel": "SAP EMEA USD2",
      "elementName": "SAPEMEAUSD2",
      "elementTimeout": 0,
      "excludeFromExport": false,
      "formatType": "NUMERIC_LONG",
      "hideOnNull": false,
      "hideWarnings": false,
      "overridden": false,
      "protectedExpression": false,
      "summarize": false
    },
    {
      "allowOverride": false,
      "combinationType": "FUNCTION",
      "displayOptions": 0,
      "elementGroups": [],
      "elementLabel": "Global USD",
      "elementName": "GlobalUSD",
      "elementTimeout": 0,
      "excludeFromExport": false,
      "formatType": "NUMERIC_LONG",
      "hideOnNull": false,
      "hideWarnings": false,
      "overridden": false,
      "protectedExpression": false,
      "summarize": false
    },
    {
      "allowOverride": false,
      "combinationType": "FUNCTION",
      "displayOptions": 0,
      "elementGroups": [],
      "elementLabel": "SAP Global USD",
      "elementName": "SAPGlobalUSD",
      "elementTimeout": 0,
      "excludeFromExport": false,
      "formatType": "NUMERIC_LONG",
      "hideOnNull": false,
      "hideWarnings": false,
      "overridden": false,
      "protectedExpression": false,
      "summarize": false
    },
    {
      "allowOverride": false,
      "combinationType": "FUNCTION",
      "displayOptions": 0,
      "elementGroups": [],
      "elementLabel": "EMEA EUR",
      "elementName": "EMEAEUR",
      "elementTimeout": 0,
      "excludeFromExport": false,
      "formatType": "NUMERIC_LONG",
      "hideOnNull": false,
      "hideWarnings": false,
      "overridden": false,
      "protectedExpression": false,
      "summarize": false
    },
    {
      "allowOverride": false,
      "combinationType": "FUNCTION",
      "displayOptions": 0,
      "elementGroups": [],
      "elementLabel": "SAP EMEA EUR",
      "elementName": "SAPEMEAEUR",
      "elementTimeout": 0,
      "excludeFromExport": false,
      "formatType": "NUMERIC_LONG",
      "hideOnNull": false,
      "hideWarnings": false,
      "overridden": false,
      "protectedExpression": false,
      "summarize": false
    },
    {
      "allowOverride": false,
      "combinationType": "FUNCTION",
      "displayOptions": 0,
      "elementGroups": [],
      "elementLabel": "EMEA GBP",
      "elementName": "EMEAGBP",
      "elementTimeout": 0,
      "excludeFromExport": false,
      "formatType": "NUMERIC_LONG",
      "hideOnNull": false,
      "hideWarnings": false,
      "overridden": false,
      "protectedExpression": false,
      "summarize": false
    },
    {
      "allowOverride": false,
      "combinationType": "FUNCTION",
      "displayOptions": 0,
      "elementGroups": [],
      "elementLabel": "SAP EMEA GBP",
      "elementName": "SAPEMEAGBP",
      "elementTimeout": 0,
      "excludeFromExport": false,
      "formatType": "NUMERIC_LONG",
      "hideOnNull": false,
      "hideWarnings": false,
      "overridden": false,
      "protectedExpression": false,
      "summarize": false
    },
    {
      "allowOverride": false,
      "combinationType": "FUNCTION",
      "displayOptions": 0,
      "elementGroups": [],
      "elementLabel": "APAC CNY",
      "elementName": "APACCNY",
      "elementTimeout": 0,
      "excludeFromExport": false,
      "formatType": "NUMERIC_LONG",
      "hideOnNull": false,
      "hideWarnings": false,
      "overridden": false,
      "protectedExpression": false,
      "summarize": false
    },
    {
      "allowOverride": false,
      "combinationType": "FUNCTION",
      "displayOptions": 0,
      "elementGroups": [],
      "elementLabel": "SAP APAC CNY",
      "elementName": "SAPAPACCNY",
      "elementTimeout": 0,
      "excludeFromExport": false,
      "formatType": "NUMERIC_LONG",
      "hideOnNull": false,
      "hideWarnings": false,
      "overridden": false,
      "protectedExpression": false,
      "summarize": false
    },
    {
      "allowOverride": false,
      "combinationType": "FUNCTION",
      "displayOptions": 0,
      "elementGroups": [],
      "elementLabel": "APAC AUD",
      "elementName": "APACAUD",
      "elementTimeout": 0,
      "excludeFromExport": false,
      "formatType": "NUMERIC_LONG",
      "hideOnNull": false,
      "hideWarnings": false,
      "overridden": false,
      "protectedExpression": false,
      "summarize": false
    },
    {
      "allowOverride": false,
      "combinationType": "FUNCTION",
      "displayOptions": 0,
      "elementGroups": [],
      "elementLabel": "SAP APAC AUD",
      "elementName": "SAPAPACAUD",
      "elementTimeout": 0,
      "excludeFromExport": false,
      "formatType": "NUMERIC_LONG",
      "hideOnNull": true,
      "hideWarnings": false,
      "overridden": false,
      "protectedExpression": false,
      "summarize": false
    },
    {
      "allowOverride": false,
      "combinationType": "FUNCTION",
      "displayOptions": 0,
      "elementGroups": [],
      "elementLabel": "APAC JPY",
      "elementName": "APACJPY",
      "elementTimeout": 0,
      "excludeFromExport": false,
      "formatType": "NUMERIC_LONG",
      "hideOnNull": false,
      "hideWarnings": false,
      "overridden": false,
      "protectedExpression": false,
      "summarize": false
    },
    {
      "allowOverride": false,
      "combinationType": "FUNCTION",
      "displayOptions": 0,
      "elementGroups": [],
      "elementLabel": "SAP APAC JPY",
      "elementName": "SAPAPACJPY",
      "elementTimeout": 0,
      "excludeFromExport": false,
      "formatType": "NUMERIC_LONG",
      "hideOnNull": false,
      "hideWarnings": false,
      "overridden": false,
      "protectedExpression": false,
      "summarize": false
    },
    {
      "allowOverride": false,
      "combinationType": "FUNCTION",
      "displayOptions": 16,
      "elementGroups": [],
      "elementLabel": "Pricefx Local Currency List Price",
      "elementName": "PricefxLocalCurrencyListPrice",
      "elementTimeout": 0,
      "excludeFromExport": false,
      "formatType": "COMPLEX",
      "hideOnNull": false,
      "hideWarnings": false,
      "overridden": false,
      "protectedExpression": false,
      "summarize": false
    },
    {
      "allowOverride": false,
      "combinationType": "FUNCTION",
      "displayOptions": 16,
      "elementGroups": [],
      "elementLabel": "SAP Local Currency List Price",
      "elementName": "SAPLocalCurrencyListPrice",
      "elementTimeout": 0,
      "excludeFromExport": false,
      "formatType": "COMPLEX",
      "hideOnNull": false,
      "hideWarnings": false,
      "overridden": false,
      "protectedExpression": false,
      "summarize": false
    },
    {
      "allowOverride": false,
      "combinationType": "FUNCTION",
      "displayOptions": 0,
      "elementGroups": [],
      "elementLabel": "DistiListPrice NAMUSD",
      "elementName": "DistiListPriceNAMUSD",
      "elementTimeout": 0,
      "excludeFromExport": false,
      "formatType": "NUMERIC_LONG",
      "hideOnNull": false,
      "hideWarnings": false,
      "overridden": false,
      "protectedExpression": false,
      "summarize": false
    },
    {
      "allowOverride": false,
      "combinationType": "FUNCTION",
      "displayOptions": 0,
      "elementGroups": [],
      "elementLabel": "DistiListPrice SAPNAMUSD",
      "elementName": "DistiListPriceSAPNAMUSD",
      "elementTimeout": 0,
      "excludeFromExport": false,
      "formatType": "NUMERIC_LONG",
      "hideOnNull": false,
      "hideWarnings": false,
      "overridden": false,
      "protectedExpression": false,
      "summarize": false
    },
    {
      "allowOverride": false,
      "combinationType": "FUNCTION",
      "displayOptions": 0,
      "elementGroups": [],
      "elementLabel": "DistiListPrice APACUSD",
      "elementName": "DistiListPriceAPACUSD",
      "elementTimeout": 0,
      "excludeFromExport": false,
      "formatType": "NUMERIC_LONG",
      "hideOnNull": false,
      "hideWarnings": false,
      "overridden": false,
      "protectedExpression": false,
      "summarize": false
    },
    {
      "allowOverride": false,
      "combinationType": "FUNCTION",
      "displayOptions": 0,
      "elementGroups": [],
      "elementLabel": "DistiListPrice SAPAPACUSD",
      "elementName": "DistiListPriceSAPAPACUSD",
      "elementTimeout": 0,
      "excludeFromExport": false,
      "formatType": "NUMERIC_LONG",
      "hideOnNull": false,
      "hideWarnings": false,
      "overridden": false,
      "protectedExpression": false,
      "summarize": false
    },
    {
      "allowOverride": false,
      "combinationType": "FUNCTION",
      "displayOptions": 0,
      "elementGroups": [],
      "elementLabel": "DistiListPrice CHINAUSD",
      "elementName": "DistiListPriceCHINAUSD",
      "elementTimeout": 0,
      "excludeFromExport": false,
      "formatType": "NUMERIC_LONG",
      "hideOnNull": false,
      "hideWarnings": false,
      "overridden": false,
      "protectedExpression": false,
      "summarize": false
    },
    {
      "allowOverride": false,
      "combinationType": "FUNCTION",
      "displayOptions": 0,
      "elementGroups": [],
      "elementLabel": "DistiListPrice SAPCHINAUSD",
      "elementName": "DistiListPriceSAPCHINAUSD",
      "elementTimeout": 0,
      "excludeFromExport": false,
      "formatType": "NUMERIC_LONG",
      "hideOnNull": false,
      "hideWarnings": false,
      "overridden": false,
      "protectedExpression": false,
      "summarize": false
    },
    {
      "allowOverride": false,
      "combinationType": "FUNCTION",
      "displayOptions": 0,
      "elementGroups": [],
      "elementLabel": "DistiListPrice LATAMUSD",
      "elementName": "DistiListPriceLATAMUSD",
      "elementTimeout": 0,
      "excludeFromExport": false,
      "formatType": "NUMERIC_LONG",
      "hideOnNull": false,
      "hideWarnings": false,
      "overridden": false,
      "protectedExpression": false,
      "summarize": false
    },
    {
      "allowOverride": false,
      "combinationType": "FUNCTION",
      "displayOptions": 0,
      "elementGroups": [],
      "elementLabel": "DistiListPrice SAPLATAMUSD",
      "elementName": "DistiListPriceSAPLATAMUSD",
      "elementTimeout": 0,
      "excludeFromExport": false,
      "formatType": "NUMERIC_LONG",
      "hideOnNull": false,
      "hideWarnings": false,
      "overridden": false,
      "protectedExpression": false,
      "summarize": false
    },
    {
      "allowOverride": false,
      "combinationType": "FUNCTION",
      "displayOptions": 0,
      "elementGroups": [],
      "elementLabel": "DistiListPrice EMEAUSD",
      "elementName": "DistiListPriceEMEAUSD",
      "elementTimeout": 0,
      "excludeFromExport": false,
      "formatType": "NUMERIC_LONG",
      "hideOnNull": false,
      "hideWarnings": false,
      "overridden": false,
      "protectedExpression": false,
      "summarize": false
    },
    {
      "allowOverride": false,
      "combinationType": "FUNCTION",
      "displayOptions": 0,
      "elementGroups": [],
      "elementLabel": "DistiListPrice SAPEMEAUSD",
      "elementName": "DistiListPriceSAPEMEAUSD",
      "elementTimeout": 0,
      "excludeFromExport": false,
      "formatType": "NUMERIC_LONG",
      "hideOnNull": false,
      "hideWarnings": false,
      "overridden": false,
      "protectedExpression": false,
      "summarize": false
    },
    {
      "allowOverride": false,
      "combinationType": "FUNCTION",
      "displayOptions": 0,
      "elementGroups": [],
      "elementLabel": "DistiListPrice EMEAUSD2",
      "elementName": "DistiListPriceEMEAUSD2",
      "elementTimeout": 0,
      "excludeFromExport": false,
      "formatType": "NUMERIC_LONG",
      "hideOnNull": false,
      "hideWarnings": false,
      "overridden": false,
      "protectedExpression": false,
      "summarize": false
    },
    {
      "allowOverride": false,
      "combinationType": "FUNCTION",
      "displayOptions": 0,
      "elementGroups": [],
      "elementLabel": "DistiListPrice SAPEMEAUSD2",
      "elementName": "DistiListPriceSAPEMEAUSD2",
      "elementTimeout": 0,
      "excludeFromExport": false,
      "formatType": "NUMERIC_LONG",
      "hideOnNull": false,
      "hideWarnings": false,
      "overridden": false,
      "protectedExpression": false,
      "summarize": false
    },
    {
      "allowOverride": false,
      "combinationType": "FUNCTION",
      "displayOptions": 0,
      "elementGroups": [],
      "elementLabel": "DistiListPrice GlobalUSD",
      "elementName": "DistiListPriceGlobalUSD",
      "elementTimeout": 0,
      "excludeFromExport": false,
      "formatType": "NUMERIC_LONG",
      "hideOnNull": false,
      "hideWarnings": false,
      "overridden": false,
      "protectedExpression": false,
      "summarize": false
    },
    {
      "allowOverride": false,
      "combinationType": "FUNCTION",
      "displayOptions": 0,
      "elementGroups": [],
      "elementLabel": "DistiListPrice SAPGlobalUSD",
      "elementName": "DistiListPriceSAPGlobalUSD",
      "elementTimeout": 0,
      "excludeFromExport": false,
      "formatType": "NUMERIC_LONG",
      "hideOnNull": false,
      "hideWarnings": false,
      "overridden": false,
      "protectedExpression": false,
      "summarize": false
    },
    {
      "allowOverride": false,
      "combinationType": "FUNCTION",
      "displayOptions": 0,
      "elementGroups": [],
      "elementLabel": "DistiListPrice EMEAEUR",
      "elementName": "DistiListPriceEMEAEUR",
      "elementTimeout": 0,
      "excludeFromExport": false,
      "formatType": "NUMERIC_LONG",
      "hideOnNull": false,
      "hideWarnings": false,
      "overridden": false,
      "protectedExpression": false,
      "summarize": false
    },
    {
      "allowOverride": false,
      "combinationType": "FUNCTION",
      "displayOptions": 0,
      "elementGroups": [],
      "elementLabel": "DistiListPrice SAPEMEAEUR",
      "elementName": "DistiListPriceSAPEMEAEUR",
      "elementTimeout": 0,
      "excludeFromExport": false,
      "formatType": "NUMERIC_LONG",
      "hideOnNull": false,
      "hideWarnings": false,
      "overridden": false,
      "protectedExpression": false,
      "summarize": false
    },
    {
      "allowOverride": false,
      "combinationType": "FUNCTION",
      "displayOptions": 0,
      "elementGroups": [],
      "elementLabel": "DistiListPrice EMEAGBP",
      "elementName": "DistiListPriceEMEAGBP",
      "elementTimeout": 0,
      "excludeFromExport": false,
      "formatType": "NUMERIC_LONG",
      "hideOnNull": false,
      "hideWarnings": false,
      "overridden": false,
      "protectedExpression": false,
      "summarize": false
    },
    {
      "allowOverride": false,
      "combinationType": "FUNCTION",
      "displayOptions": 0,
      "elementGroups": [],
      "elementLabel": "DistiListPrice SAPEMEAGBP",
      "elementName": "DistiListPriceSAPEMEAGBP",
      "elementTimeout": 0,
      "excludeFromExport": false,
      "formatType": "NUMERIC_LONG",
      "hideOnNull": false,
      "hideWarnings": false,
      "overridden": false,
      "protectedExpression": false,
      "summarize": false
    },
    {
      "allowOverride": false,
      "combinationType": "FUNCTION",
      "displayOptions": 0,
      "elementGroups": [],
      "elementLabel": "DistiListPrice APAC CNY",
      "elementName": "DistiListPriceAPACCNY",
      "elementTimeout": 0,
      "excludeFromExport": false,
      "formatType": "NUMERIC_LONG",
      "hideOnNull": false,
      "hideWarnings": false,
      "overridden": false,
      "protectedExpression": false,
      "summarize": false
    },
    {
      "allowOverride": false,
      "combinationType": "FUNCTION",
      "displayOptions": 0,
      "elementGroups": [],
      "elementLabel": "DistiListPrice SAPAPACCNY",
      "elementName": "DistiListPriceSAPAPACCNY",
      "elementTimeout": 0,
      "excludeFromExport": false,
      "formatType": "NUMERIC_LONG",
      "hideOnNull": false,
      "hideWarnings": false,
      "overridden": false,
      "protectedExpression": false,
      "summarize": false
    },
    {
      "allowOverride": false,
      "combinationType": "FUNCTION",
      "displayOptions": 0,
      "elementGroups": [],
      "elementLabel": "DistiListPrice APACAUD",
      "elementName": "DistiListPriceAPACAUD",
      "elementTimeout": 0,
      "excludeFromExport": false,
      "formatType": "NUMERIC_LONG",
      "hideOnNull": false,
      "hideWarnings": false,
      "overridden": false,
      "protectedExpression": false,
      "summarize": false
    },
    {
      "allowOverride": false,
      "combinationType": "FUNCTION",
      "displayOptions": 0,
      "elementGroups": [],
      "elementLabel": "DistiListPrice SAPAPACAUD",
      "elementName": "DistiListPriceSAPAPACAUD",
      "elementTimeout": 0,
      "excludeFromExport": false,
      "formatType": "NUMERIC_LONG",
      "hideOnNull": false,
      "hideWarnings": false,
      "overridden": false,
      "protectedExpression": false,
      "summarize": false
    },
    {
      "allowOverride": false,
      "combinationType": "FUNCTION",
      "displayOptions": 0,
      "elementGroups": [],
      "elementLabel": "DistiListPrice APACJPY",
      "elementName": "DistiListPriceAPACJPY",
      "elementTimeout": 0,
      "excludeFromExport": false,
      "formatType": "NUMERIC_LONG",
      "hideOnNull": false,
      "hideWarnings": false,
      "overridden": false,
      "protectedExpression": false,
      "summarize": false
    },
    {
      "allowOverride": false,
      "combinationType": "FUNCTION",
      "displayOptions": 0,
      "elementGroups": [],
      "elementLabel": "DistiListPrice SAPAPACJPY",
      "elementName": "DistiListPriceSAPAPACJPY",
      "elementTimeout": 0,
      "excludeFromExport": false,
      "formatType": "NUMERIC_LONG",
      "hideOnNull": false,
      "hideWarnings": false,
      "overridden": false,
      "protectedExpression": false,
      "summarize": false
    },
    {
      "allowOverride": false,
      "combinationType": "FUNCTION",
      "displayOptions": 16,
      "elementGroups": [],
      "elementLabel": "Pricefx Disti List Price",
      "elementName": "PricefxDistiListPrice",
      "elementTimeout": 0,
      "excludeFromExport": false,
      "formatType": "COMPLEX",
      "hideOnNull": false,
      "hideWarnings": false,
      "overridden": false,
      "protectedExpression": false,
      "summarize": false
    },
    {
      "allowOverride": false,
      "combinationType": "FUNCTION",
      "displayOptions": 16,
      "elementGroups": [],
      "elementLabel": "SAP Disti List Price ",
      "elementName": "SAPDistiListPrice",
      "elementTimeout": 0,
      "excludeFromExport": false,
      "formatType": "COMPLEX",
      "hideOnNull": false,
      "hideWarnings": false,
      "overridden": false,
      "protectedExpression": false,
      "summarize": false
    },
    {
      "allowOverride": false,
      "combinationType": "FUNCTION",
      "displayOptions": 0,
      "elementGroups": [],
      "elementLabel": "ResellerListPrice APACJPY",
      "elementName": "ResellerListPriceAPACJPY",
      "elementTimeout": 0,
      "excludeFromExport": false,
      "formatType": "NUMERIC_LONG",
      "hideOnNull": false,
      "hideWarnings": false,
      "overridden": false,
      "protectedExpression": false,
      "summarize": false
    },
    {
      "allowOverride": false,
      "combinationType": "FUNCTION",
      "displayOptions": 0,
      "elementGroups": [],
      "elementLabel": "ResellerListPrice SAPAPACJPY",
      "elementName": "ResellerListPriceSAPAPACJPY",
      "elementTimeout": 0,
      "excludeFromExport": false,
      "formatType": "NUMERIC_LONG",
      "hideOnNull": false,
      "hideWarnings": false,
      "overridden": false,
      "protectedExpression": false,
      "summarize": false
    },
    {
      "allowOverride": false,
      "combinationType": "FUNCTION",
      "displayOptions": 0,
      "elementGroups": [],
      "elementLabel": "ResellerListPrice NAMUSD",
      "elementName": "ResellerListPriceNAMUSD",
      "elementTimeout": 0,
      "excludeFromExport": false,
      "formatType": "NUMERIC_LONG",
      "hideOnNull": false,
      "hideWarnings": false,
      "overridden": false,
      "protectedExpression": false,
      "summarize": false
    },
    {
      "allowOverride": false,
      "combinationType": "FUNCTION",
      "displayOptions": 0,
      "elementGroups": [],
      "elementLabel": "ResellerListPrice SAPNAMUSD",
      "elementName": "ResellerListPriceSAPNAMUSD",
      "elementTimeout": 0,
      "excludeFromExport": false,
      "formatType": "NUMERIC_LONG",
      "hideOnNull": false,
      "hideWarnings": false,
      "overridden": false,
      "protectedExpression": false,
      "summarize": false
    },
    {
      "allowOverride": false,
      "combinationType": "FUNCTION",
      "displayOptions": 0,
      "elementGroups": [],
      "elementLabel": "ResellerListPrice APACUSD",
      "elementName": "ResellerListPriceAPACUSD",
      "elementTimeout": 0,
      "excludeFromExport": false,
      "formatType": "NUMERIC_LONG",
      "hideOnNull": false,
      "hideWarnings": false,
      "overridden": false,
      "protectedExpression": false,
      "summarize": false
    },
    {
      "allowOverride": false,
      "combinationType": "FUNCTION",
      "displayOptions": 0,
      "elementGroups": [],
      "elementLabel": "ResellerListPrice SAPAPACUSD",
      "elementName": "ResellerListPriceSAPAPACUSD",
      "elementTimeout": 0,
      "excludeFromExport": false,
      "formatType": "NUMERIC_LONG",
      "hideOnNull": false,
      "hideWarnings": false,
      "overridden": false,
      "protectedExpression": false,
      "summarize": false
    },
    {
      "allowOverride": false,
      "combinationType": "FUNCTION",
      "displayOptions": 0,
      "elementGroups": [],
      "elementLabel": "ResellerListPrice CHINAUSD",
      "elementName": "ResellerListPriceCHINAUSD",
      "elementTimeout": 0,
      "excludeFromExport": false,
      "formatType": "NUMERIC_LONG",
      "hideOnNull": false,
      "hideWarnings": false,
      "overridden": false,
      "protectedExpression": false,
      "summarize": false
    },
    {
      "allowOverride": false,
      "combinationType": "FUNCTION",
      "displayOptions": 0,
      "elementGroups": [],
      "elementLabel": "ResellerListPrice SAPCHINAUSD",
      "elementName": "ResellerListPriceSAPCHINAUSD",
      "elementTimeout": 0,
      "excludeFromExport": false,
      "formatType": "NUMERIC_LONG",
      "hideOnNull": false,
      "hideWarnings": false,
      "overridden": false,
      "protectedExpression": false,
      "summarize": false
    },
    {
      "allowOverride": false,
      "combinationType": "FUNCTION",
      "displayOptions": 0,
      "elementGroups": [],
      "elementLabel": "ResellerListPrice LATAMUSD",
      "elementName": "ResellerListPriceLATAMUSD",
      "elementTimeout": 0,
      "excludeFromExport": false,
      "formatType": "NUMERIC_LONG",
      "hideOnNull": false,
      "hideWarnings": false,
      "overridden": false,
      "protectedExpression": false,
      "summarize": false
    },
    {
      "allowOverride": false,
      "combinationType": "FUNCTION",
      "displayOptions": 0,
      "elementGroups": [],
      "elementLabel": "ResellerListPrice SAPLATAMUSD",
      "elementName": "ResellerListPriceSAPLATAMUSD",
      "elementTimeout": 0,
      "excludeFromExport": false,
      "formatType": "NUMERIC_LONG",
      "hideOnNull": false,
      "hideWarnings": false,
      "overridden": false,
      "protectedExpression": false,
      "summarize": true
    },
    {
      "allowOverride": false,
      "combinationType": "FUNCTION",
      "displayOptions": 0,
      "elementGroups": [],
      "elementLabel": "ResellerListPrice EMEAUSD",
      "elementName": "ResellerListPriceEMEAUSD",
      "elementTimeout": 0,
      "excludeFromExport": false,
      "formatType": "NUMERIC",
      "hideOnNull": false,
      "hideWarnings": false,
      "overridden": false,
      "protectedExpression": false,
      "summarize": false
    },
    {
      "allowOverride": false,
      "combinationType": "FUNCTION",
      "displayOptions": 0,
      "elementGroups": [],
      "elementLabel": "ResellerListPrice SAPEMEAUSD",
      "elementName": "ResellerListPriceSAPEMEAUSD",
      "elementTimeout": 0,
      "excludeFromExport": false,
      "formatType": "NUMERIC_LONG",
      "hideOnNull": false,
      "hideWarnings": false,
      "overridden": false,
      "protectedExpression": false,
      "summarize": false
    },
    {
      "allowOverride": false,
      "combinationType": "FUNCTION",
      "displayOptions": 0,
      "elementGroups": [],
      "elementLabel": "ResellerListPrice EMEAUSD2",
      "elementName": "ResellerListPriceEMEAUSD2",
      "elementTimeout": 0,
      "excludeFromExport": false,
      "formatType": "NUMERIC_LONG",
      "hideOnNull": false,
      "hideWarnings": false,
      "overridden": false,
      "protectedExpression": false,
      "summarize": false
    },
    {
      "allowOverride": false,
      "combinationType": "FUNCTION",
      "displayOptions": 0,
      "elementGroups": [],
      "elementLabel": "ResellerListPrice SAPEMEAUSD2",
      "elementName": "ResellerListPriceSAPEMEAUSD2",
      "elementTimeout": 0,
      "excludeFromExport": false,
      "formatType": "NUMERIC_LONG",
      "hideOnNull": false,
      "hideWarnings": false,
      "overridden": false,
      "protectedExpression": false,
      "summarize": false
    },
    {
      "allowOverride": false,
      "combinationType": "FUNCTION",
      "displayOptions": 0,
      "elementGroups": [],
      "elementLabel": "ResellerListPrice GlobalUSD",
      "elementName": "ResellerListPriceGlobalUSD",
      "elementTimeout": 0,
      "excludeFromExport": false,
      "formatType": "NUMERIC_LONG",
      "hideOnNull": false,
      "hideWarnings": false,
      "overridden": false,
      "protectedExpression": false,
      "summarize": false
    },
    {
      "allowOverride": false,
      "combinationType": "FUNCTION",
      "displayOptions": 0,
      "elementGroups": [],
      "elementLabel": "ResellerListPrice SAPGlobalUSD",
      "elementName": "ResellerListPriceSAPGlobalUSD",
      "elementTimeout": 0,
      "excludeFromExport": false,
      "formatType": "NUMERIC_LONG",
      "hideOnNull": false,
      "hideWarnings": false,
      "overridden": false,
      "protectedExpression": false,
      "summarize": false
    },
    {
      "allowOverride": false,
      "combinationType": "FUNCTION",
      "displayOptions": 0,
      "elementGroups": [],
      "elementLabel": "ResellerListPrice EMEAEUR",
      "elementName": "ResellerListPriceEMEAEUR",
      "elementTimeout": 0,
      "excludeFromExport": false,
      "formatType": "NUMERIC_LONG",
      "hideOnNull": false,
      "hideWarnings": false,
      "overridden": false,
      "protectedExpression": false,
      "summarize": false
    },
    {
      "allowOverride": false,
      "combinationType": "FUNCTION",
      "displayOptions": 0,
      "elementGroups": [],
      "elementLabel": "ResellerListPrice SAPEMEAEUR",
      "elementName": "ResellerListPriceSAPEMEAEUR",
      "elementTimeout": 0,
      "excludeFromExport": false,
      "formatType": "NUMERIC_LONG",
      "hideOnNull": false,
      "hideWarnings": false,
      "overridden": false,
      "protectedExpression": false,
      "summarize": false
    },
    {
      "allowOverride": false,
      "combinationType": "FUNCTION",
      "displayOptions": 0,
      "elementGroups": [],
      "elementLabel": "ResellerListPrice EMEAGBP",
      "elementName": "ResellerListPriceEMEAGBP",
      "elementTimeout": 0,
      "excludeFromExport": false,
      "formatType": "NUMERIC_LONG",
      "hideOnNull": false,
      "hideWarnings": false,
      "overridden": false,
      "protectedExpression": false,
      "summarize": false
    },
    {
      "allowOverride": false,
      "combinationType": "FUNCTION",
      "displayOptions": 0,
      "elementGroups": [],
      "elementLabel": "ResellerListPriceSAPEMEAGBP",
      "elementName": "ResellerListPriceSAPEMEAGBP",
      "elementTimeout": 0,
      "excludeFromExport": false,
      "formatType": "NUMERIC_LONG",
      "hideOnNull": true,
      "hideWarnings": false,
      "overridden": false,
      "protectedExpression": false,
      "summarize": false
    },
    {
      "allowOverride": false,
      "combinationType": "FUNCTION",
      "displayOptions": 0,
      "elementGroups": [],
      "elementLabel": "ResellerListPrice APAC CNY",
      "elementName": "ResellerListPriceAPACCNY",
      "elementTimeout": 0,
      "excludeFromExport": false,
      "formatType": "NUMERIC_LONG",
      "hideOnNull": false,
      "hideWarnings": false,
      "overridden": false,
      "protectedExpression": false,
      "summarize": false
    },
    {
      "allowOverride": false,
      "combinationType": "FUNCTION",
      "displayOptions": 0,
      "elementGroups": [],
      "elementLabel": "ResellerListPrice SAPAPACCNY",
      "elementName": "ResellerListPriceSAPAPACCNY",
      "elementTimeout": 0,
      "excludeFromExport": false,
      "formatType": "NUMERIC_LONG",
      "hideOnNull": false,
      "hideWarnings": false,
      "overridden": false,
      "protectedExpression": false,
      "summarize": false
    },
    {
      "allowOverride": false,
      "combinationType": "FUNCTION",
      "displayOptions": 0,
      "elementGroups": [],
      "elementLabel": "ResellerListPrice APACAUD",
      "elementName": "ResellerListPriceAPACAUD",
      "elementTimeout": 0,
      "excludeFromExport": false,
      "formatType": "NUMERIC_LONG",
      "hideOnNull": false,
      "hideWarnings": false,
      "overridden": false,
      "protectedExpression": false,
      "summarize": false
    },
    {
      "allowOverride": false,
      "combinationType": "FUNCTION",
      "displayOptions": 0,
      "elementGroups": [],
      "elementLabel": "ResellerListPrice SAPAPACAUD",
      "elementName": "ResellerListPriceSAPAPACAUD",
      "elementTimeout": 0,
      "excludeFromExport": false,
      "formatType": "NUMERIC_LONG",
      "hideOnNull": false,
      "hideWarnings": false,
      "overridden": false,
      "protectedExpression": false,
      "summarize": false
    },
    {
      "allowOverride": false,
      "combinationType": "FUNCTION",
      "displayOptions": 16,
      "elementGroups": [],
      "elementLabel": "Pricefx Reseller List Price",
      "elementName": "PricefxResellerListPrice",
      "elementTimeout": 0,
      "excludeFromExport": false,
      "formatType": "COMPLEX",
      "hideOnNull": false,
      "hideWarnings": false,
      "overridden": false,
      "protectedExpression": false,
      "summarize": false
    },
    {
      "allowOverride": false,
      "combinationType": "FUNCTION",
      "displayOptions": 16,
      "elementGroups": [],
      "elementLabel": "SAP Reseller List Price",
      "elementName": "SAPResellerListPrice",
      "elementTimeout": 0,
      "excludeFromExport": false,
      "formatType": "COMPLEX",
      "hideOnNull": false,
      "hideWarnings": false,
      "overridden": false,
      "protectedExpression": false,
      "summarize": false
    },
    {
      "allowOverride": false,
      "combinationType": "FUNCTION",
      "displayOptions": 16,
      "elementGroups": [],
      "elementLabel": "Regional Uplift Factor",
      "elementName": "RegionalUpliftFactor",
      "elementTimeout": 0,
      "excludeFromExport": false,
      "formatType": "COMPLEX",
      "hideOnNull": false,
      "hideWarnings": false,
      "overridden": false,
      "protectedExpression": false,
      "summarize": false
    },
    {
      "allowOverride": false,
      "combinationType": "FUNCTION",
      "displayOptions": 16,
      "elementGroups": [],
      "elementLabel": "Regional Fx Rate Factor",
      "elementName": "RegionalFxRateFactor",
      "elementTimeout": 0,
      "excludeFromExport": false,
      "formatType": "COMPLEX",
      "hideOnNull": false,
      "hideWarnings": false,
      "overridden": false,
      "protectedExpression": false,
      "summarize": false
    },
    {
      "allowOverride": false,
      "combinationType": "FUNCTION",
      "displayOptions": 16,
      "elementGroups": [],
      "elementLabel": "Price Analysis",
      "elementName": "PriceAnalysis",
      "elementTimeout": 900,
      "excludeFromExport": false,
      "hideOnNull": false,
      "hideWarnings": false,
      "overridden": false,
      "protectedExpression": false,
      "summarize": false
    }
  ],
  "inputDescriptors": [],
  "label": "Pricing Logic Std Product",
  "status": "ACTIVE",
  "uniqueName": "PricingLogicStdProduct",
  "validAfter": "2019-01-01"
}