{
  "areDefault" : true,
  "areGlobal" : true,
  "preferenceName" : "--single-preferences--",
  "viewState" : "({\"columns\":[{\"width\":1524,\"portlets\":[{\"rowOffset\":0,\"height\":300,\"name\":\"ResultData\",\"viewState\":null,\"minimized\":false},{\"rowOffset\":0,\"height\":300,\"name\":\"DownLoad\",\"viewState\":null,\"minimized\":false}]}],\"isToolbarVisible\":true})"
}