{
  "folder" : "Standard Product",
  "hideWarnings" : false,
  "isPlasma" : false,
  "label" : "16.OS",
  "status" : "ACTIVE",
  "type" : "MATRIX",
  "uniqueName" : "OS",
  "validAfter" : "2016-01-01",
  "valueType" : "MATRIX"
}