{
  "fieldName" : "attribute4",
  "fieldType" : 2,
  "fieldValueOptions" : {
    "ValuesRestrictedByDSConfig" : true,
    "attributedFieldType" : 2,
    "dataSourceConfig" : {
      "autoConvertRelativeDates" : true,
      "defaultTextMatchStyle" : "exact",
      "dropUnknownCriteria" : true,
      "ignoreTextMatchStyleCaseSensitive" : false,
      "patternEscapeChar" : "\\",
      "patternMultiWildcard" : "*",
      "patternSingleWildcard" : [ "?", "%" ],
      "translatePatternOperators" : false,
      "trimMilliseconds" : null,
      "useHttpProxy" : null,
      "useStrictJSON" : null
    },
    "dataSourceLabel" : "Price Parameter Values : OverageFileConfigurationColumn",
    "fetchUrl_target" : {
      "fetchUrl_type" : "LT",
      "simulationSet" : null,
      "uniqueName" : "OverageFileConfigurationColumn",
      "validAfter" : "2016-01-01"
    },
    "fieldConfig" : {
      "dateFormatter" : null,
      "decimalPad" : null,
      "decimalPrecision" : null,
      "editorType" : null,
      "escapeHTML" : true,
      "format" : null,
      "optionTextMatchStyle" : null,
      "precision" : null,
      "readOnlyEditorType" : null
    },
    "fieldLabel" : "Attribute Name",
    "fieldName" : "name",
    "fieldType" : "text",
    "metaKeyPrefix_is_fetchUrl_target" : true,
    "metaTypeCode" : "MLTVM"
  },
  "label" : "SAPField4",
  "labelTranslations" : {
    "" : "SAP Field4"
  },
  "readOnly" : false,
  "requiredField" : false
}