{
  "elements": [
    {
      "allowOverride": false,
      "combinationType": "FUNCTION",
      "displayOptions": 0,
      "elementGroups": [],
      "elementLabel": "Abort On Syntax Check",
      "elementName": "AbortOnSyntaxCheck",
      "elementTimeout": 0,
      "hideOnNull": false,
      "hideWarnings": false,
      "protectedExpression": false,
      "summarize": false
    },
    {
      "allowOverride": false,
      "combinationType": "FUNCTION",
      "displayOptions": 0,
      "elementGroups": [],
      "elementLabel": "Constants",
      "elementName": "Constants",
      "elementTimeout": 0,
      "hideOnNull": false,
      "hideWarnings": false,
      "protectedExpression": false,
      "summarize": false
    },
    {
      "allowOverride": false,
      "combinationType": "FUNCTION",
      "displayOptions": 0,
      "elementGroups": [],
      "elementLabel": "Pfx SAP Internal Cache",
      "elementName": "PfxSAPInternalCache",
      "elementTimeout": 0,
      "hideOnNull": false,
      "hideWarnings": false,
      "protectedExpression": false,
      "summarize": false
    },
    {
      "allowOverride": false,
      "combinationType": "FUNCTION",
      "displayOptions": 16,
      "elementGroups": [],
      "elementLabel": "Master Launch Region",
      "elementName": "MasterLaunchRegion",
      "elementTimeout": 0,
      "hideOnNull": false,
      "hideWarnings": false,
      "protectedExpression": false,
      "summarize": false
    },
    {
      "allowOverride": false,
      "combinationType": "FUNCTION",
      "displayOptions": 16,
      "elementGroups": [],
      "elementLabel": "Channel Launch Region",
      "elementName": "ChannelLaunchRegion",
      "elementTimeout": 0,
      "hideOnNull": false,
      "hideWarnings": false,
      "protectedExpression": false,
      "summarize": false
    }
  ],
  "inputDescriptors": [],
  "label": "CFS_PriceList Region table Pfx Sap Conversion",
  "status": "ACTIVE",
  "uniqueName": "CFS_PriceListRegiontablePfxSapConversion",
  "validAfter": "2020-01-01"
}