{
  "folder" : "VeloCloud",
  "hideWarnings" : false,
  "isPlasma" : false,
  "label" : "VC Hardware Attribute Values",
  "status" : "ACTIVE",
  "type" : "MATRIX",
  "uniqueName" : "VCHardwareAttributeValues",
  "validAfter" : "2019-01-01",
  "valueType" : "MATRIX"
}