{
  "folder" : "Common",
  "hideWarnings" : false,
  "isPlasma" : false,
  "label" : "ServiceLevelFactor",
  "status" : "ACTIVE",
  "type" : "MATRIX",
  "uniqueName" : "ServiceLevelFactors",
  "validAfter" : "2019-01-01",
  "valueType" : "MATRIX4"
}