{
  "folder" : "Perpetual",
  "hideWarnings" : false,
  "isPlasma" : false,
  "label" : "Base To Upgrade",
  "status" : "ACTIVE",
  "type" : "MATRIX",
  "uniqueName" : "BaseToUpgrade",
  "validAfter" : "2019-08-23",
  "valueType" : "MATRIX"
}