{
  "folder" : "Perpetual",
  "hideWarnings" : false,
  "isPlasma" : false,
  "label" : "License Adjustment",
  "status" : "ACTIVE",
  "type" : "MATRIX",
  "uniqueName" : "LicenseAdjustment",
  "validAfter" : "2019-07-01",
  "valueType" : "MATRIX"
}