{
  "elements": [
    {
      "allowOverride": false,
      "combinationType": "FUNCTION",
      "displayOptions": 0,
      "elementGroups": [
        "init"
      ],
      "elementLabel": "Constants",
      "elementName": "Constants",
      "elementTimeout": 0,
      "hideOnNull": false,
      "hideWarnings": false,
      "protectedExpression": false,
      "summarize": false
    },
    {
      "allowOverride": false,
      "combinationType": "FUNCTION",
      "displayOptions": 0,
      "elementGroups": [
        "init"
      ],
      "elementLabel": "Lib",
      "elementName": "Lib",
      "elementTimeout": 900,
      "hideOnNull": false,
      "hideWarnings": false,
      "protectedExpression": false,
      "summarize": false
    },
    {
      "allowOverride": false,
      "combinationType": "FUNCTION",
      "displayOptions": 0,
      "elementGroups": [
        "init"
      ],
      "elementLabel": "LPG Configuration",
      "elementName": "LPGConfiguration",
      "elementTimeout": 0,
      "hideOnNull": false,
      "hideWarnings": false,
      "protectedExpression": false,
      "summarize": false
    },
    {
      "allowOverride": false,
      "combinationType": "FUNCTION",
      "displayOptions": 0,
      "elementGroups": [
        "init"
      ],
      "elementLabel": "Cache Approved Price",
      "elementName": "CacheApprovedPrice",
      "elementTimeout": 900,
      "hideOnNull": false,
      "hideWarnings": false,
      "protectedExpression": false,
      "summarize": false
    },
    {
      "allowOverride": false,
      "combinationType": "FUNCTION",
      "displayOptions": 0,
      "elementGroups": [
        "init"
      ],
      "elementLabel": "Load Records",
      "elementName": "LoadRecords",
      "elementTimeout": 900,
      "hideOnNull": false,
      "hideWarnings": false,
      "protectedExpression": false,
      "summarize": false
    }
  ],
  "formulaNature": "paDataLoad",
  "inputDescriptors": [],
  "label": "DL_PriceFx_PriceBook",
  "status": "ACTIVE",
  "uniqueName": "DL_PriceFx_PriceBook",
  "validAfter": "2020-01-01"
}