{
  "aggregation" : false,
  "auxiliary" : false,
  "calculated" : false,
  "deleted" : false,
  "deployed" : true,
  "dimension" : false,
  "expression" : "DistiListPrice_SAP_EMEA_GBP_pfx",
  "format" : "#.######",
  "key" : false,
  "label" : "Disti List Price SAP EMEA GBP pfx",
  "labelTranslations" : { },
  "measureType" : "PERUNIT",
  "numeric" : true,
  "owningFC" : "PriceFx PriceBook",
  "partitioningKey" : false,
  "persisted" : true,
  "queryable" : true,
  "source" : "DMDS.PriceFxPriceBook",
  "system" : false,
  "time" : false,
  "type" : "NUMBER",
  "visibility" : 1
}