{
  "aggregation" : false,
  "auxiliary" : true,
  "calculated" : false,
  "deleted" : false,
  "deployed" : true,
  "dimension" : false,
  "expression" : "lastUpdateDate",
  "key" : false,
  "label" : "LastUpdateDate",
  "labelTranslations" : { },
  "numeric" : false,
  "owningFC" : "[System]",
  "partitioningKey" : false,
  "persisted" : true,
  "queryable" : true,
  "source" : "DMDS.PriceFxPriceBook",
  "system" : true,
  "time" : true,
  "type" : "DATETIME",
  "visibility" : 0
}