{
  "aggregation" : false,
  "auxiliary" : false,
  "calculated" : false,
  "deleted" : false,
  "deployed" : true,
  "dimension" : false,
  "expression" : "SAP_EMEA_USD_ListPrice",
  "format" : "#.######",
  "key" : false,
  "label" : "SAP EMEA USD List Price",
  "labelTranslations" : { },
  "measureType" : "PERUNIT",
  "numeric" : true,
  "owningFC" : "PriceFx PriceBook",
  "partitioningKey" : false,
  "persisted" : true,
  "queryable" : true,
  "source" : "DMDS.PriceFxPriceBook",
  "system" : false,
  "time" : false,
  "type" : "NUMBER",
  "visibility" : 1
}