{
  "fieldName" : "key1",
  "fieldType" : 2,
  "fieldValueOptions" : "[\"Type 1\",\"Type 2\",\"Type 3\"]",
  "label" : "Key1",
  "labelTranslations" : {
    "" : "AddOn Type"
  },
  "requiredField" : false
}