{
  "elements": [
    {
      "allowOverride": false,
      "combinationType": "FUNCTION",
      "displayOptions": 0,
      "elementGroups": [],
      "elementLabel": "Constants",
      "elementName": "Constants",
      "elementTimeout": 0,
      "hideOnNull": false,
      "hideWarnings": false,
      "protectedExpression": false,
      "summarize": false
    },
    {
      "allowOverride": false,
      "combinationType": "FUNCTION",
      "displayOptions": 0,
      "elementGroups": [],
      "elementLabel": "Product Info",
      "elementName": "ProductInfo",
      "elementTimeout": 0,
      "hideOnNull": false,
      "hideWarnings": false,
      "protectedExpression": false,
      "summarize": false
    },
    {
      "allowOverride": false,
      "combinationType": "FUNCTION",
      "displayOptions": 0,
      "elementGroups": [],
      "elementLabel": "SKU",
      "elementName": "SKU",
      "elementTimeout": 0,
      "hideOnNull": false,
      "hideWarnings": false,
      "protectedExpression": false,
      "summarize": false
    },
    {
      "allowOverride": false,
      "combinationType": "FUNCTION",
      "displayOptions": 0,
      "elementGroups": [],
      "elementLabel": "Syntax",
      "elementName": "Syntax",
      "elementTimeout": 0,
      "hideOnNull": false,
      "hideWarnings": false,
      "protectedExpression": false,
      "summarize": false
    },
    {
      "allowOverride": false,
      "combinationType": "FUNCTION",
      "displayOptions": 0,
      "elementGroups": [],
      "elementLabel": "Load Price Factors",
      "elementName": "LoadPriceFactors",
      "elementTimeout": 0,
      "hideOnNull": false,
      "hideWarnings": false,
      "protectedExpression": false,
      "summarize": false
    },
    {
      "allowOverride": false,
      "combinationType": "FUNCTION",
      "displayOptions": 0,
      "elementGroups": [],
      "elementLabel": "SKUInfo",
      "elementName": "SKUInfo",
      "elementTimeout": 0,
      "hideOnNull": false,
      "hideWarnings": false,
      "protectedExpression": false,
      "summarize": false
    },
    {
      "allowOverride": false,
      "combinationType": "FUNCTION",
      "displayOptions": 16,
      "elementGroups": [],
      "elementLabel": "Product Type",
      "elementName": "ProductType",
      "elementTimeout": 0,
      "formatType": "TEXT",
      "hideOnNull": false,
      "hideWarnings": false,
      "protectedExpression": false,
      "summarize": false
    },
    {
      "allowOverride": false,
      "combinationType": "FUNCTION",
      "displayOptions": 0,
      "elementGroups": [],
      "elementLabel": "Is VeloCloud Product",
      "elementName": "IsVeloCloudProduct",
      "elementTimeout": 0,
      "hideOnNull": false,
      "hideWarnings": false,
      "protectedExpression": false,
      "summarize": false
    },
    {
      "allowOverride": false,
      "combinationType": "FUNCTION",
      "displayOptions": 0,
      "elementGroups": [],
      "elementLabel": "Abort Calculation",
      "elementName": "AbortCalculation",
      "elementTimeout": 0,
      "hideOnNull": false,
      "hideWarnings": false,
      "protectedExpression": false,
      "summarize": false
    },
    {
      "allowOverride": false,
      "combinationType": "FUNCTION",
      "displayOptions": 16,
      "elementGroups": [],
      "elementLabel": "Payment Type",
      "elementName": "PaymentType",
      "elementTimeout": 0,
      "formatType": "TEXT",
      "hideOnNull": false,
      "hideWarnings": false,
      "protectedExpression": false,
      "summarize": false
    },
    {
      "allowOverride": false,
      "combinationType": "FUNCTION",
      "displayOptions": 16,
      "elementGroups": [],
      "elementLabel": "Years",
      "elementName": "Years",
      "elementTimeout": 0,
      "formatType": "NUMERIC",
      "hideOnNull": false,
      "hideWarnings": false,
      "protectedExpression": false,
      "summarize": false
    },
    {
      "allowOverride": false,
      "combinationType": "FUNCTION",
      "displayOptions": 16,
      "elementGroups": [],
      "elementLabel": "Years Factor",
      "elementName": "YearsFactor",
      "elementTimeout": 0,
      "formatType": "NUMERIC",
      "hideOnNull": false,
      "hideWarnings": false,
      "protectedExpression": false,
      "summarize": false
    },
    {
      "allowOverride": false,
      "combinationType": "FUNCTION",
      "displayOptions": 16,
      "elementGroups": [],
      "elementLabel": "Billing Term Factors",
      "elementName": "BillingTermFactor",
      "elementTimeout": 0,
      "formatType": "NUMERIC",
      "hideOnNull": false,
      "hideWarnings": false,
      "protectedExpression": false,
      "summarize": false
    },
    {
      "allowOverride": false,
      "combinationType": "FUNCTION",
      "displayOptions": 16,
      "elementGroups": [],
      "elementLabel": "Edition",
      "elementName": "Edition",
      "elementTimeout": 0,
      "formatType": "TEXT",
      "hideOnNull": false,
      "hideWarnings": false,
      "protectedExpression": false,
      "summarize": false
    },
    {
      "allowOverride": false,
      "combinationType": "FUNCTION",
      "displayOptions": 21,
      "elementGroups": [],
      "elementLabel": "Edition Factor",
      "elementName": "EditionFactor",
      "elementTimeout": 0,
      "hideOnNull": false,
      "hideWarnings": false,
      "protectedExpression": false,
      "summarize": false
    },
    {
      "allowOverride": false,
      "combinationType": "FUNCTION",
      "displayOptions": 21,
      "elementGroups": [],
      "elementLabel": "Edition Base Price",
      "elementName": "EditionBasePrice",
      "elementTimeout": 0,
      "hideOnNull": false,
      "hideWarnings": false,
      "protectedExpression": false,
      "summarize": false
    },
    {
      "allowOverride": false,
      "combinationType": "FUNCTION",
      "displayOptions": 16,
      "elementGroups": [],
      "elementLabel": "Bandwidth",
      "elementName": "Bandwidth",
      "elementTimeout": 0,
      "formatType": "TEXT",
      "hideOnNull": false,
      "hideWarnings": false,
      "protectedExpression": false,
      "summarize": false
    },
    {
      "allowOverride": false,
      "combinationType": "FUNCTION",
      "displayOptions": 16,
      "elementGroups": [],
      "elementLabel": "Support Level",
      "elementName": "SupportLevel",
      "elementTimeout": 0,
      "formatType": "TEXT",
      "hideOnNull": false,
      "hideWarnings": false,
      "protectedExpression": false,
      "summarize": false
    },
    {
      "allowOverride": false,
      "combinationType": "FUNCTION",
      "displayOptions": 16,
      "elementGroups": [],
      "elementLabel": "ServiceLevel",
      "elementName": "ServiceLevel",
      "elementTimeout": 0,
      "formatType": "TEXT",
      "hideOnNull": false,
      "hideWarnings": false,
      "protectedExpression": false,
      "summarize": false
    },
    {
      "allowOverride": false,
      "combinationType": "FUNCTION",
      "displayOptions": 16,
      "elementGroups": [],
      "elementLabel": "Segment Adjustment",
      "elementName": "SegmentAdjustment",
      "elementTimeout": 0,
      "formatType": "TEXT",
      "hideOnNull": false,
      "hideWarnings": false,
      "protectedExpression": false,
      "summarize": false
    },
    {
      "allowOverride": false,
      "combinationType": "FUNCTION",
      "displayOptions": 16,
      "elementGroups": [],
      "elementLabel": "Service Level Factor",
      "elementName": "ServiceLevelFactor",
      "elementTimeout": 0,
      "formatType": "NUMERIC",
      "hideOnNull": false,
      "hideWarnings": false,
      "protectedExpression": false,
      "summarize": false
    },
    {
      "allowOverride": false,
      "combinationType": "FUNCTION",
      "displayOptions": 16,
      "elementGroups": [],
      "elementLabel": "Segment Adjustment Factor",
      "elementName": "SegmentAdjustmentFactor",
      "elementTimeout": 0,
      "formatType": "NUMERIC",
      "hideOnNull": false,
      "hideWarnings": false,
      "protectedExpression": false,
      "summarize": false
    },
    {
      "allowOverride": false,
      "combinationType": "FUNCTION",
      "displayOptions": 0,
      "elementGroups": [],
      "elementLabel": "Load SW Base Prices",
      "elementName": "LoadSWBasePrices",
      "elementTimeout": 0,
      "hideOnNull": false,
      "hideWarnings": false,
      "protectedExpression": false,
      "summarize": false
    },
    {
      "allowOverride": false,
      "combinationType": "FUNCTION",
      "displayOptions": 0,
      "elementGroups": [],
      "elementLabel": "Load SW Base Prices for L14 and L34",
      "elementName": "LoadSWBasePricesL14L34",
      "elementTimeout": 0,
      "hideOnNull": false,
      "hideWarnings": false,
      "protectedExpression": false,
      "summarize": false
    },
    {
      "allowOverride": false,
      "combinationType": "FUNCTION",
      "displayOptions": 16,
      "elementGroups": [],
      "elementLabel": "Base Price",
      "elementName": "BasePrice",
      "elementTimeout": 0,
      "formatType": "MONEY_USD",
      "hideOnNull": false,
      "hideWarnings": false,
      "protectedExpression": false,
      "summarize": false
    },
    {
      "allowOverride": false,
      "combinationType": "FUNCTION",
      "displayOptions": 4,
      "elementGroups": [],
      "elementLabel": "Software Product Price",
      "elementName": "SoftwareProductPrice",
      "elementTimeout": 0,
      "formatType": "MONEY_USD",
      "hideOnNull": false,
      "hideWarnings": false,
      "protectedExpression": false,
      "summarize": false
    },
    {
      "allowOverride": false,
      "combinationType": "FUNCTION",
      "displayOptions": 16,
      "elementGroups": [],
      "elementLabel": "Suggested Retail Price",
      "elementName": "SuggestedRetailPrice",
      "elementTimeout": 0,
      "formatType": "MONEY_USD",
      "hideOnNull": false,
      "hideWarnings": false,
      "protectedExpression": false,
      "summarize": false
    },
    {
      "allowOverride": false,
      "combinationType": "FUNCTION",
      "displayOptions": 16,
      "elementGroups": [],
      "elementLabel": "Final Retail Price",
      "elementName": "FinalRetailPrice",
      "elementTimeout": 0,
      "formatType": "MONEY_USD",
      "hideOnNull": false,
      "hideWarnings": false,
      "protectedExpression": false,
      "summarize": false
    },
    {
      "allowOverride": false,
      "combinationType": "FUNCTION",
      "displayOptions": 0,
      "elementGroups": [],
      "elementLabel": "Local Currency Factor",
      "elementName": "LCFactor",
      "elementTimeout": 0,
      "formatType": "TEXT",
      "hideOnNull": false,
      "hideWarnings": false,
      "protectedExpression": false,
      "summarize": false
    },
    {
      "allowOverride": false,
      "combinationType": "FUNCTION",
      "displayOptions": 0,
      "elementGroups": [],
      "elementLabel": "Conversion Factor (AUD)",
      "elementName": "ConversionFactorAUD",
      "elementTimeout": 0,
      "hideOnNull": false,
      "hideWarnings": false,
      "protectedExpression": false,
      "summarize": false
    },
    {
      "allowOverride": false,
      "combinationType": "FUNCTION",
      "displayOptions": 0,
      "elementLabel": "Conversion Factor (JPY)",
      "elementName": "ConversionFactorJPY",
      "elementTimeout": 0,
      "hideOnNull": false,
      "hideWarnings": false,
      "protectedExpression": false,
      "summarize": false
    },
    {
      "allowOverride": false,
      "combinationType": "FUNCTION",
      "displayOptions": 0,
      "elementLabel": "Conversion Factor (CNY)",
      "elementName": "ConversionFactorCNY",
      "elementTimeout": 0,
      "hideOnNull": false,
      "hideWarnings": false,
      "protectedExpression": false,
      "summarize": false
    },
    {
      "allowOverride": false,
      "combinationType": "FUNCTION",
      "displayOptions": 0,
      "elementLabel": "Conversion Factor (EUR)",
      "elementName": "ConversionFactorEUR",
      "elementTimeout": 0,
      "hideOnNull": false,
      "hideWarnings": false,
      "protectedExpression": false,
      "summarize": false
    },
    {
      "allowOverride": false,
      "combinationType": "FUNCTION",
      "displayOptions": 0,
      "elementGroups": [],
      "elementLabel": "Conversion Factor (GBP)",
      "elementName": "ConversionFactorGBP",
      "elementTimeout": 0,
      "hideOnNull": false,
      "hideWarnings": false,
      "protectedExpression": false,
      "summarize": false
    },
    {
      "allowOverride": false,
      "combinationType": "FUNCTION",
      "displayOptions": 0,
      "elementLabel": "Conversion Factor (GBP)",
      "elementName": "ConversionFactorEMEAUSD",
      "elementTimeout": 0,
      "hideOnNull": false,
      "hideWarnings": false,
      "protectedExpression": false,
      "summarize": false
    },
    {
      "allowOverride": false,
      "combinationType": "FUNCTION",
      "displayOptions": 0,
      "elementGroups": [],
      "elementLabel": "Conversion Factor (GBP)",
      "elementName": "ConversionFactorEMEAUSD2",
      "elementTimeout": 0,
      "hideOnNull": false,
      "hideWarnings": false,
      "protectedExpression": false,
      "summarize": false
    },
    {
      "allowOverride": false,
      "combinationType": "FUNCTION",
      "displayOptions": 0,
      "elementGroups": [],
      "elementLabel": "Conversion Factor (GBP)",
      "elementName": "ConversionFactorUSDGLOBAL",
      "elementTimeout": 0,
      "hideOnNull": false,
      "hideWarnings": false,
      "protectedExpression": false,
      "summarize": false
    },
    {
      "allowOverride": false,
      "combinationType": "FUNCTION",
      "displayOptions": 4,
      "elementGroups": [],
      "elementLabel": "Retail Price AUD",
      "elementName": "RetailPriceAUD",
      "elementTimeout": 0,
      "formatType": "NUMERIC_LONG",
      "hideOnNull": false,
      "hideWarnings": false,
      "protectedExpression": false,
      "summarize": false
    },
    {
      "allowOverride": false,
      "combinationType": "FUNCTION",
      "displayOptions": 4,
      "elementGroups": [],
      "elementLabel": "Retail Price JPY",
      "elementName": "RetailPriceJPY",
      "elementTimeout": 0,
      "formatType": "NUMERIC_LONG",
      "hideOnNull": false,
      "hideWarnings": false,
      "protectedExpression": false,
      "summarize": false
    },
    {
      "allowOverride": false,
      "combinationType": "FUNCTION",
      "displayOptions": 4,
      "elementGroups": [],
      "elementLabel": "Retail Price CNY",
      "elementName": "RetailPriceCNY",
      "elementTimeout": 0,
      "formatType": "NUMERIC_LONG",
      "hideOnNull": false,
      "hideWarnings": false,
      "protectedExpression": false,
      "summarize": false
    },
    {
      "allowOverride": false,
      "combinationType": "FUNCTION",
      "displayOptions": 4,
      "elementGroups": [],
      "elementLabel": "Retail Price EUR",
      "elementName": "RetailPriceEUR",
      "elementTimeout": 0,
      "formatType": "NUMERIC_LONG",
      "hideOnNull": false,
      "hideWarnings": false,
      "protectedExpression": false,
      "summarize": false
    },
    {
      "allowOverride": false,
      "combinationType": "FUNCTION",
      "displayOptions": 4,
      "elementGroups": [],
      "elementLabel": "RetailPrice GBP",
      "elementName": "RetailPriceGBP",
      "elementTimeout": 0,
      "formatType": "NUMERIC_LONG",
      "hideOnNull": false,
      "hideWarnings": false,
      "protectedExpression": false,
      "summarize": false
    },
    {
      "allowOverride": false,
      "combinationType": "FUNCTION",
      "displayOptions": 4,
      "elementGroups": [],
      "elementLabel": "Retail Price EMEA USD",
      "elementName": "RetailPriceEMEAUSD",
      "elementTimeout": 0,
      "formatType": "NUMERIC_LONG",
      "hideOnNull": false,
      "hideWarnings": false,
      "protectedExpression": false,
      "summarize": false
    },
    {
      "allowOverride": false,
      "combinationType": "FUNCTION",
      "displayOptions": 4,
      "elementGroups": [],
      "elementLabel": "Retail Price EMEA USD 2",
      "elementName": "RetailPriceEMEAUSD2",
      "elementTimeout": 0,
      "formatType": "MONEY_USD",
      "hideOnNull": false,
      "hideWarnings": false,
      "protectedExpression": false,
      "summarize": false
    },
    {
      "allowOverride": false,
      "combinationType": "FUNCTION",
      "displayOptions": 4,
      "elementGroups": [],
      "elementLabel": "Retail Price USD GLOBAL",
      "elementName": "RetailPriceUSDGLOBAL",
      "elementTimeout": 0,
      "formatType": "NUMERIC_LONG",
      "hideOnNull": false,
      "hideWarnings": false,
      "protectedExpression": false,
      "summarize": false
    }
  ],
  "inputDescriptors": [],
  "label": "Pricing Logic VC Software",
  "status": "ACTIVE",
  "uniqueName": "PricingLogicVCSoftware",
  "validAfter": "2019-01-01"
}