{
  "areDefault" : false,
  "areGlobal" : true,
  "filter" : {
    "_constructor" : "AdvancedCriteria",
    "criteria" : [ {
      "_constructor" : "AdvancedCriteria",
      "fieldName" : "attribute10",
      "operator" : "equals",
      "value" : "VS6-EPL-C"
    } ],
    "operator" : "and"
  },
  "preferenceName" : "Perpetual - Mandatory",
  "viewState" : "({\"field\":[{\"name\":\"typedId\",\"visible\":false,\"autoFitWidth\":false,\"width\":65},{\"name\":\"sku\",\"autoFitWidth\":false,\"width\":134},{\"name\":\"attribute6\",\"autoFitWidth\":false,\"width\":140},{\"name\":\"attribute10\",\"autoFitWidth\":false,\"width\":123},{\"name\":\"attribute9\",\"autoFitWidth\":false,\"width\":71},{\"name\":\"attribute11\",\"autoFitWidth\":false,\"width\":153},{\"name\":\"attribute5\",\"autoFitWidth\":false,\"width\":98},{\"name\":\"label\",\"autoFitWidth\":false,\"width\":266},{\"name\":\"unitOfMeasure\",\"autoFitWidth\":false,\"width\":83},{\"name\":\"currency\",\"autoFitWidth\":false,\"width\":67},{\"name\":\"lastUpdateDate\",\"autoFitWidth\":false,\"width\":92},{\"name\":\"formulaName\",\"autoFitWidth\":false,\"width\":86},{\"name\":\"attribute1\",\"autoFitWidth\":false,\"width\":45},{\"name\":\"attribute2\",\"autoFitWidth\":false,\"width\":78},{\"name\":\"attribute3\",\"autoFitWidth\":false,\"width\":82},{\"name\":\"attribute4\",\"autoFitWidth\":false,\"width\":80},{\"name\":\"attribute14\",\"autoFitWidth\":false,\"width\":112},{\"name\":\"attribute8\",\"autoFitWidth\":false,\"width\":104},{\"name\":\"attribute7\",\"autoFitWidth\":false,\"width\":224},{\"name\":\"attribute12\",\"autoFitWidth\":false,\"width\":160},{\"name\":\"attribute13\",\"autoFitWidth\":false,\"width\":82},{\"name\":\"attribute15\",\"autoFitWidth\":false,\"width\":141},{\"name\":\"attribute16\",\"autoFitWidth\":false,\"width\":87},{\"name\":\"attribute17\",\"autoFitWidth\":false,\"width\":84},{\"name\":\"attribute18\",\"autoFitWidth\":false,\"width\":112},{\"name\":\"attribute19\",\"autoFitWidth\":false,\"width\":142},{\"name\":\"attribute20\",\"autoFitWidth\":false,\"width\":82},{\"name\":\"attribute21\",\"autoFitWidth\":false,\"width\":106},{\"name\":\"attribute22\",\"autoFitWidth\":false,\"width\":76},{\"name\":\"attribute23\",\"autoFitWidth\":false,\"width\":105},{\"name\":\"attribute24\",\"autoFitWidth\":false,\"width\":135},{\"name\":\"attribute25\",\"autoFitWidth\":false,\"width\":127},{\"name\":\"attribute26\",\"autoFitWidth\":false,\"width\":122},{\"name\":\"attribute27\",\"autoFitWidth\":false,\"width\":72},{\"name\":\"attribute28\",\"autoFitWidth\":false,\"width\":79},{\"name\":\"attribute29\",\"autoFitWidth\":false,\"width\":199},{\"name\":\"attribute30\",\"autoFitWidth\":false,\"width\":197},{\"name\":\"userGroupEdit\",\"autoFitWidth\":false,\"width\":109},{\"name\":\"userGroupViewDetails\",\"autoFitWidth\":false,\"width\":150}],\"sort\":{\"fieldName\":\"attribute4\",\"sortDir\":\"ascending\",\"sortSpecifiers\":[{\"property\":\"attribute4\",\"direction\":\"ascending\"}]},\"hilite\":[{\"fieldName\":[\"formulaName\"],\"criteria\":{\"fieldName\":\"formulaName\",\"operator\":\"isNull\"},\"textColor\":\"#8888CC\",\"cssText\":\"color:#8888CC\",\"id\":\"hilite_formulaName\",\"htmlAfter\":\"<i>( Default Logic )</i>\"}],\"pricefx_columnLabels\":null})"
}