{
  "fieldName" : "attribute1",
  "fieldType" : 2,
  "fieldValueOptions" : "[\"Yes\",\"No\"]",
  "formatType" : "TEXT",
  "label" : "Value",
  "labelTranslations" : {
    "" : "Value"
  },
  "readOnly" : false,
  "requiredField" : false
}