{
  "areDefault" : true,
  "areGlobal" : true,
  "filter" : { },
  "instance" : {
    "simulationSet" : null,
    "type" : "LT",
    "uniqueName" : "VCHardwareShortDesc",
    "validAfter" : "2019-01-01"
  },
  "preferenceName" : "All",
  "viewState" : "({\"field\":[{\"name\":\"key1\",\"autoFitWidth\":false,\"width\":159},{\"name\":\"key2\",\"autoFitWidth\":false,\"width\":80},{\"name\":\"attribute1\",\"autoFitWidth\":false,\"width\":60},{\"name\":\"attribute6\",\"autoFitWidth\":false,\"width\":638},{\"name\":\"attribute2\",\"autoFitWidth\":false,\"width\":139},{\"name\":\"attribute3\",\"autoFitWidth\":false,\"width\":107},{\"name\":\"attribute4\",\"autoFitWidth\":false,\"width\":66},{\"name\":\"attribute5\",\"autoFitWidth\":false,\"width\":50},{\"name\":\"attribute7\",\"visible\":false},{\"name\":\"attribute8\",\"visible\":false},{\"name\":\"attribute9\",\"visible\":false},{\"name\":\"attribute10\",\"visible\":false},{\"name\":\"attribute11\",\"visible\":false},{\"name\":\"attribute12\",\"visible\":false},{\"name\":\"attribute13\",\"visible\":false},{\"name\":\"attribute14\",\"visible\":false},{\"name\":\"attribute15\",\"visible\":false},{\"name\":\"attribute16\",\"visible\":false},{\"name\":\"attribute17\",\"visible\":false},{\"name\":\"attribute18\",\"visible\":false},{\"name\":\"attribute19\",\"visible\":false},{\"name\":\"attribute20\",\"visible\":false},{\"name\":\"attribute21\",\"visible\":false},{\"name\":\"attribute22\",\"visible\":false},{\"name\":\"attribute23\",\"visible\":false},{\"name\":\"attribute24\",\"visible\":false},{\"name\":\"attribute25\",\"visible\":false},{\"name\":\"attribute26\",\"visible\":false},{\"name\":\"attribute27\",\"visible\":false},{\"name\":\"attribute28\",\"visible\":false},{\"name\":\"attribute29\",\"visible\":false},{\"name\":\"attribute30\",\"visible\":false},{\"name\":\"lastUpdateByName\",\"visible\":false},{\"name\":\"createdByName\",\"visible\":false,\"autoFitWidth\":false,\"width\":114},{\"name\":\"createDate\",\"visible\":false,\"autoFitWidth\":true},{\"name\":\"lastUpdateDate\",\"visible\":false,\"autoFitWidth\":true}],\"sort\":{\"fieldName\":\"key2\",\"sortDir\":\"ascending\",\"sortSpecifiers\":[{\"property\":\"key2\",\"direction\":\"ascending\"}]},\"pricefx_columnLabels\":null})"
}