{
  "folder": "Standard",
  "hideWarnings": false,
  "isPlasma": false,
  "label": "Disti Discount",
  "status": "ACTIVE",
  "type": "MATRIX",
  "uniqueName": "DistiDiscount",
  "validAfter": "2019-01-01",
  "valueType": "MATRIX5"
}