{
  "areDefault" : true,
  "areGlobal" : true,
  "filter" : {
    "_constructor" : "AdvancedCriteria",
    "criteria" : [ {
      "_constructor" : "AdvancedCriteria",
      "fieldName" : "sku",
      "operator" : "iStartsWith",
      "value" : "VS6-"
    } ],
    "operator" : "and"
  },
  "preferenceName" : "VS6 Price",
  "viewState" : "({\"field\":[{\"name\":\"typedId\",\"visible\":false},{\"name\":\"sku\",\"autoFitWidth\":false,\"width\":164},{\"name\":\"attribute1\",\"autoFitWidth\":false,\"width\":68},{\"name\":\"lastUpdateDate\",\"autoFitWidth\":false,\"width\":110},{\"name\":\"attribute2\",\"visible\":false,\"autoFitWidth\":false,\"width\":52},{\"name\":\"attribute3\",\"visible\":false,\"autoFitWidth\":false,\"width\":52},{\"name\":\"attribute4\",\"visible\":false,\"autoFitWidth\":false,\"width\":52},{\"name\":\"attribute5\",\"visible\":false,\"autoFitWidth\":false,\"width\":52},{\"name\":\"attribute6\",\"visible\":false}],\"pricefx_columnLabels\":null})"
}