{
  "folder" : "VeloCloud",
  "hideWarnings" : false,
  "isPlasma" : false,
  "label" : "Velo Software SKUs",
  "status" : "ACTIVE",
  "type" : "MATRIX",
  "uniqueName" : "VeloSoftwareSKUs",
  "validAfter" : "2019-01-01",
  "valueType" : "MATRIX"
}