{
  "allowSearch": false,
  "businessKey": [
    "attribute1",
    "attribute2",
    "attribute3",
    "attribute4",
    "attribute5",
    "attribute6",
    "attribute7",
    "attribute8",
    "attribute9",
    "attribute10",
    "attribute11",
    "attribute12",
    "attribute21",
    "attribute23",
    "attribute24",
    "attribute25",
    "attribute27",
    "attribute29",
    "attribute31",
    "attribute33",
    "attribute35",
    "attribute37",
    "attribute39",
    "attribute41",
    "attribute43",
    "attribute44",
    "attribute46",
    "attribute48",
    "attribute50"
  ],
  "label": "Standard Adjustment",
  "numberOfAttributes": 50
}