{
  "folder" : "VeloCloud",
  "hideWarnings" : false,
  "isPlasma" : false,
  "label" : "L14 and L34 Prices",
  "status" : "ACTIVE",
  "type" : "MATRIX",
  "uniqueName" : "L14L34Prices",
  "validAfter" : "2019-01-01",
  "valueType" : "MATRIX2"
}