{
  "fieldName" : "attribute8",
  "fieldType" : 2,
  "fieldValueOptions" : "[\"Yes\",\"No\"]",
  "label" : "MasterLaunchRegion",
  "labelTranslations" : {
    "" : "Master Launch Region"
  },
  "readOnly" : false,
  "requiredField" : false
}