{
  "fieldName" : "attribute3",
  "fieldType" : 2,
  "fieldValueOptions" : "[\"Yes\",\"No\"]",
  "label" : "ChannelLaunchRegion",
  "labelTranslations" : {
    "" : "Channel Launch Region"
  },
  "readOnly" : false,
  "requiredField" : false
}