{
  "areDefault" : true,
  "areGlobal" : true,
  "preferenceName" : "Default",
  "viewState" : "({\"field\":[{\"frozen\":false,\"name\":\"OrderId\",\"visible\":true},{\"frozen\":false,\"name\":\"ProductClass\",\"visible\":true},{\"frozen\":false,\"name\":\"SubClass\",\"visible\":true},{\"frozen\":false,\"name\":\"PlatformGroup\",\"visible\":true},{\"frozen\":false,\"name\":\"ProductGroup\",\"visible\":true},{\"frozen\":false,\"name\":\"ProductDivision\",\"visible\":true},{\"frozen\":false,\"name\":\"CustomerPurchasedSKU\",\"visible\":true},{\"frozen\":false,\"name\":\"ProductSKU\",\"visible\":true},{\"frozen\":false,\"name\":\"PhantomSku\",\"visible\":true},{\"frozen\":false,\"name\":\"BundleSku\",\"visible\":true},{\"frozen\":false,\"name\":\"BundleFlag\",\"visible\":false},{\"frozen\":false,\"name\":\"OrderDate\",\"visible\":false},{\"frozen\":false,\"name\":\"FiscalWeek\",\"visible\":false},{\"frozen\":false,\"name\":\"FiscalMonth\",\"visible\":false},{\"frozen\":false,\"name\":\"FiscalQuarter\",\"visible\":false},{\"frozen\":false,\"name\":\"FiscalYear\",\"visible\":false},{\"frozen\":false,\"name\":\"GeoRpt\",\"visible\":false},{\"frozen\":false,\"name\":\"RegionRpt\",\"visible\":true},{\"frozen\":false,\"name\":\"SubRegionRpt\",\"visible\":false},{\"frozen\":false,\"name\":\"TerritoryRpt\",\"visible\":false},{\"frozen\":false,\"name\":\"EndUserCountry\",\"visible\":false},{\"frozen\":false,\"name\":\"EndUserOrganization\",\"visible\":false},{\"frozen\":false,\"name\":\"ChannelName\",\"visible\":false},{\"frozen\":false,\"name\":\"CurrencyCode\",\"visible\":false},{\"frozen\":false,\"name\":\"TransactionType\",\"visible\":false},{\"frozen\":false,\"name\":\"TransactionQuality\",\"visible\":false},{\"frozen\":false,\"name\":\"VCPPFlag\",\"visible\":false},{\"frozen\":false,\"name\":\"RenewalFlag\",\"visible\":false},{\"frozen\":false,\"name\":\"DealRangebyOrderId\",\"visible\":true},{\"frozen\":false,\"name\":\"VmwareAcvCc\",\"visible\":false},{\"frozen\":false,\"name\":\"VmwareTcvCc\",\"visible\":false},{\"frozen\":false,\"name\":\"Quantity\",\"visible\":false},{\"frozen\":false,\"name\":\"ExtendedBaseCC\",\"visible\":false},{\"frozen\":false,\"name\":\"Fxrate\",\"visible\":false},{\"frozen\":false,\"name\":\"UpliftCC\",\"visible\":false},{\"frozen\":false,\"name\":\"ExtendedlistPriceCC\",\"visible\":false},{\"frozen\":false,\"name\":\"DiscountCC\",\"visible\":false},{\"frozen\":false,\"name\":\"GrossBookingsCC\",\"visible\":false},{\"frozen\":false,\"name\":\"ContraCC\",\"visible\":false},{\"frozen\":false,\"name\":\"NetPriceCCReversed\",\"visible\":false},{\"frozen\":false,\"name\":\"ASPCC\",\"visible\":false},{\"frozen\":false,\"name\":\"SubscriptionACVCC\",\"visible\":false},{\"frozen\":false,\"name\":\"SubscriptionTCVCC\",\"visible\":false},{\"frozen\":false,\"name\":\"DiscountPercentage\",\"visible\":false},{\"frozen\":false,\"name\":\"DealSizebyOrderId\",\"visible\":true},{\"frozen\":false,\"name\":\"lastUpdateDate\",\"visible\":true}],\"sort\":null,\"pageSize\":300,\"extraOptions\":{}})"
}