{
  "allowSearch": false,
  "businessKey": [
    "sku",
    "attribute1",
    "attribute2",
    "attribute3",
    "attribute4",
    "attribute5",
    "attribute6",
    "attribute7",
    "attribute8",
    "attribute9",
    "attribute10",
    "attribute11",
    "attribute12",
    "attribute13",
    "attribute14",
    "attribute15",
    "attribute16",
    "attribute17",
    "attribute18",
    "attribute19",
    "attribute21",
    "attribute26"
  ],
  "label": "Bundle Product Rules",
  "numberOfAttributes": 30
}