{
  "areDefault" : true,
  "areGlobal" : true,
  "filter" : { },
  "instance" : {
    "simulationSet" : null,
    "type" : "LT",
    "uniqueName" : "PaymentFrequency",
    "validAfter" : "2019-01-01"
  },
  "preferenceName" : "All",
  "viewState" : "({selected:[{typedId:\"8162.LTV\"}],field:[{name:\"name\",autoFitWidth:false,width:63},{name:\"value\",autoFitWidth:false,width:50},{name:\"lastUpdateByName\",visible:false},{name:\"createdByName\",visible:false},{name:\"createDate\",visible:false,autoFitWidth:true},{name:\"lastUpdateDate\",visible:false,autoFitWidth:true}]})"
}