{
  "fieldName" : "key1",
  "fieldType" : 2,
  "fieldValueOptions" : "[\"Hardware\",\"Software\",\"Velo Add-On\"]",
  "label" : "Key1",
  "labelTranslations" : {
    "" : "Name"
  },
  "readOnly" : false,
  "requiredField" : false
}