{
  "areDefault" : true,
  "areGlobal" : true,
  "filter" : { },
  "instance" : {
    "simulationSet" : null,
    "type" : "LT",
    "uniqueName" : "SoftwareAdjustments",
    "validAfter" : "2019-01-01"
  },
  "preferenceName" : "Default",
  "viewState" : "({\"selected\":[{\"typedId\":\"2149498530.MLTV2\"}],\"field\":[{\"name\":\"key1\",\"autoFitWidth\":false,\"width\":74},{\"name\":\"key2\",\"autoFitWidth\":false,\"width\":56},{\"name\":\"attribute1\",\"autoFitWidth\":false,\"width\":136},{\"name\":\"attribute2\",\"autoFitWidth\":false,\"width\":157},{\"name\":\"attribute3\",\"autoFitWidth\":false,\"width\":134},{\"name\":\"attribute4\",\"autoFitWidth\":false,\"width\":134},{\"name\":\"attribute5\",\"visible\":false,\"autoFitWidth\":false,\"width\":51},{\"name\":\"attribute6\",\"visible\":false},{\"name\":\"attribute7\",\"visible\":false},{\"name\":\"attribute8\",\"visible\":false},{\"name\":\"attribute9\",\"visible\":false},{\"name\":\"attribute10\",\"visible\":false},{\"name\":\"attribute11\",\"visible\":false},{\"name\":\"attribute12\",\"visible\":false},{\"name\":\"attribute13\",\"visible\":false},{\"name\":\"attribute14\",\"visible\":false},{\"name\":\"attribute15\",\"visible\":false},{\"name\":\"attribute16\",\"visible\":false},{\"name\":\"attribute17\",\"visible\":false},{\"name\":\"attribute18\",\"visible\":false},{\"name\":\"attribute19\",\"visible\":false},{\"name\":\"attribute20\",\"visible\":false},{\"name\":\"attribute21\",\"visible\":false},{\"name\":\"attribute22\",\"visible\":false},{\"name\":\"attribute23\",\"visible\":false},{\"name\":\"attribute24\",\"visible\":false},{\"name\":\"attribute25\",\"visible\":false},{\"name\":\"attribute26\",\"visible\":false},{\"name\":\"attribute27\",\"visible\":false},{\"name\":\"attribute28\",\"visible\":false},{\"name\":\"attribute29\",\"visible\":false},{\"name\":\"attribute30\",\"visible\":false},{\"name\":\"lastUpdateByName\",\"autoFitWidth\":false,\"width\":104},{\"name\":\"createdByName\",\"autoFitWidth\":false,\"width\":78},{\"name\":\"createDate\",\"autoFitWidth\":false,\"width\":92},{\"name\":\"lastUpdateDate\",\"autoFitWidth\":false,\"width\":108}],\"pricefx_columnLabels\":null})"
}