{
  "auxiliary" : true,
  "deployed" : true,
  "fields" : [ "UomConversionFactor", "UomFrom", "UomTo" ],
  "isPlasma" : false,
  "label" : "Unit of Measures",
  "locked" : true,
  "queryable" : true,
  "reload" : false,
  "type" : "DATASOURCE",
  "uniqueName" : "uom",
  "valid" : true,
  "view" : false
}