{
  "cssProperties" : "background-color:#C0C0C0",
  "fieldName" : "attribute8",
  "fieldType" : 1,
  "formatType" : "NUMERIC_LONG",
  "label" : "ServiceUpliftVsBaseDC3Year",
  "labelTranslations" : {
    "" : "Service Uplift Vs Base DC 3 Year %"
  },
  "readOnly" : true,
  "requiredField" : false
}