{
  "areDefault": true,
  "areGlobal": true,
  "columnLabels": "{}",
  "preferenceName": "Default",
  "viewState": "({\"field\":[{\"frozen\":false,\"name\":\"typedId\",\"visible\":false},{\"autoFitWidth\":false,\"frozen\":false,\"name\":\"sku\",\"visible\":true,\"width\":85},{\"autoFitWidth\":false,\"frozen\":false,\"name\":\"attribute24\",\"visible\":true,\"width\":134},{\"autoFitWidth\":false,\"frozen\":false,\"name\":\"attribute25\",\"visible\":true,\"width\":98},{\"frozen\":false,\"name\":\"attribute26\",\"visible\":true},{\"autoFitWidth\":false,\"frozen\":false,\"name\":\"attribute1\",\"visible\":true,\"width\":60},{\"autoFitWidth\":false,\"frozen\":false,\"name\":\"attribute2\",\"visible\":true,\"width\":47},{\"autoFitWidth\":false,\"frozen\":false,\"name\":\"attribute3\",\"visible\":true,\"width\":48},{\"autoFitWidth\":false,\"frozen\":false,\"name\":\"attribute4\",\"visible\":true,\"width\":67},{\"autoFitWidth\":false,\"frozen\":false,\"name\":\"attribute5\",\"visible\":true,\"width\":106},{\"autoFitWidth\":false,\"frozen\":false,\"name\":\"attribute6\",\"visible\":true,\"width\":80},{\"autoFitWidth\":false,\"frozen\":false,\"name\":\"attribute7\",\"visible\":true,\"width\":38},{\"autoFitWidth\":false,\"frozen\":false,\"name\":\"attribute8\",\"visible\":true,\"width\":52},{\"autoFitWidth\":false,\"frozen\":false,\"name\":\"attribute9\",\"visible\":true,\"width\":82},{\"autoFitWidth\":false,\"frozen\":false,\"name\":\"attribute10\",\"visible\":true,\"width\":67},{\"autoFitWidth\":false,\"frozen\":false,\"name\":\"attribute11\",\"visible\":true,\"width\":63},{\"autoFitWidth\":false,\"frozen\":false,\"name\":\"attribute12\",\"visible\":true,\"width\":47},{\"autoFitWidth\":false,\"frozen\":false,\"name\":\"attribute13\",\"visible\":true,\"width\":73},{\"autoFitWidth\":false,\"frozen\":false,\"name\":\"attribute14\",\"visible\":true,\"width\":93},{\"autoFitWidth\":false,\"frozen\":false,\"name\":\"attribute15\",\"visible\":true,\"width\":88},{\"autoFitWidth\":false,\"frozen\":false,\"name\":\"attribute16\",\"visible\":true,\"width\":82},{\"autoFitWidth\":false,\"frozen\":false,\"name\":\"attribute17\",\"visible\":true,\"width\":123},{\"autoFitWidth\":false,\"frozen\":false,\"name\":\"attribute18\",\"visible\":true,\"width\":41},{\"autoFitWidth\":false,\"frozen\":false,\"name\":\"attribute19\",\"visible\":true,\"width\":59},{\"autoFitWidth\":false,\"frozen\":false,\"name\":\"attribute21\",\"visible\":true,\"width\":67},{\"autoFitWidth\":false,\"frozen\":false,\"name\":\"attribute22\",\"visible\":true,\"width\":60},{\"autoFitWidth\":false,\"frozen\":false,\"name\":\"attribute23\",\"visible\":true,\"width\":137},{\"autoFitWidth\":false,\"frozen\":false,\"name\":\"attribute20\",\"visible\":true,\"width\":45},{\"autoFitWidth\":false,\"frozen\":false,\"name\":\"lastUpdateDate\",\"visible\":true,\"width\":108},{\"frozen\":false,\"name\":\"attribute27\",\"visible\":false},{\"frozen\":false,\"name\":\"attribute28\",\"visible\":false},{\"frozen\":false,\"name\":\"attribute29\",\"visible\":false},{\"frozen\":false,\"name\":\"attribute30\",\"visible\":false}],\"sort\":null,\"pageSize\":300})"
}