{
  "folder" : "VMC on AWS_Old",
  "hideWarnings" : false,
  "isPlasma" : false,
  "label" : "Data Center",
  "status" : "ACTIVE",
  "type" : "MATRIX",
  "uniqueName" : "DataCenter",
  "validAfter" : "2019-08-01",
  "valueType" : "MATRIX"
}