{
  "fieldName" : "attribute1",
  "fieldType" : 1,
  "formatType" : "PERCENT",
  "label" : "ResellerDiscount",
  "labelTranslations" : {
    "" : "Reseller Discount"
  },
  "readOnly" : false,
  "requiredField" : false
}