{
  "fieldName" : "attribute3",
  "fieldType" : 1,
  "formatType" : "NUMERIC",
  "label" : "SubscriptionMonths",
  "labelTranslations" : {
    "" : "Subscription Months"
  },
  "readOnly" : false,
  "requiredField" : false
}