{
  "fieldName" : "attribute2",
  "fieldType" : 1,
  "formatType" : "PERCENT",
  "label" : "Attr. 2",
  "labelTranslations" : {
    "" : "Discount Pct"
  },
  "readOnly" : false,
  "requiredField" : false
}