{
  "folder" : "Common",
  "hideWarnings" : false,
  "isPlasma" : false,
  "label" : "Hardware Replacement Service Factor",
  "status" : "ACTIVE",
  "type" : "MATRIX",
  "uniqueName" : "HardwareReplacementServiceFactor",
  "validAfter" : "2019-01-01",
  "valueType" : "MATRIX5"
}