{
  "folder" : "Standard Product",
  "hideWarnings" : false,
  "isPlasma" : false,
  "label" : "07.Payment",
  "status" : "ACTIVE",
  "type" : "MATRIX",
  "uniqueName" : "Payment",
  "validAfter" : "2016-01-01",
  "valueType" : "MATRIX"
}