{
  "aggregation" : false,
  "auxiliary" : false,
  "calculated" : false,
  "deleted" : false,
  "deployed" : true,
  "dimension" : true,
  "expression" : "PartNumber",
  "key" : true,
  "label" : "Part Number",
  "labelTranslations" : { },
  "numeric" : false,
  "owningFC" : "Channel Price Book",
  "partitioningKey" : false,
  "persisted" : true,
  "queryable" : true,
  "source" : "DMDS.ChannelPriceBook",
  "system" : false,
  "time" : false,
  "type" : "TEXT",
  "visibility" : 1
}