{
  "elements": [
    {
      "allowOverride": false,
      "combinationType": "FUNCTION",
      "displayOptions": 0,
      "elementGroups": [],
      "elementName": "SyntaxCheck",
      "elementTimeout": 0,
      "hideOnNull": false,
      "hideWarnings": false,
      "protectedExpression": false,
      "summarize": false
    },
    {
      "allowOverride": false,
      "combinationType": "FUNCTION",
      "displayOptions": 0,
      "elementGroups": [],
      "elementName": "Constants",
      "elementTimeout": 0,
      "hideOnNull": false,
      "hideWarnings": false,
      "protectedExpression": false,
      "summarize": false
    },
    {
      "allowOverride": false,
      "combinationType": "FUNCTION",
      "displayOptions": 0,
      "elementGroups": [],
      "elementName": "Lib",
      "elementTimeout": 900,
      "hideOnNull": false,
      "hideWarnings": false,
      "protectedExpression": false,
      "summarize": false
    },
    {
      "allowOverride": false,
      "combinationType": "FUNCTION",
      "displayOptions": 0,
      "elementGroups": [],
      "elementName": "BasePriceMetaData",
      "elementTimeout": 0,
      "hideOnNull": false,
      "hideWarnings": false,
      "protectedExpression": false,
      "summarize": false
    },
    {
      "allowOverride": false,
      "combinationType": "FUNCTION",
      "displayOptions": 0,
      "elementGroups": [],
      "elementName": "StandardProductMetaData",
      "elementTimeout": 0,
      "hideOnNull": false,
      "hideWarnings": false,
      "protectedExpression": false,
      "summarize": false
    },
    {
      "allowOverride": false,
      "combinationType": "FUNCTION",
      "displayOptions": 0,
      "elementGroups": [],
      "elementLabel": "ExcludeAttributesCache",
      "elementName": "ExcludeAttributesCache",
      "elementTimeout": 0,
      "hideOnNull": false,
      "hideWarnings": false,
      "protectedExpression": false,
      "summarize": false
    },
    {
      "allowOverride": false,
      "combinationType": "FUNCTION",
      "displayOptions": 0,
      "elementGroups": [],
      "elementLabel": "CacheBundleSKUs",
      "elementName": "CacheBundleSKUs",
      "elementTimeout": 0,
      "hideOnNull": false,
      "hideWarnings": false,
      "protectedExpression": false,
      "summarize": false
    },
    {
      "allowOverride": false,
      "combinationType": "FUNCTION",
      "displayOptions": 0,
      "elementGroups": [],
      "elementName": "CacheBundleSKUBaseSKU",
      "elementTimeout": 0,
      "hideOnNull": false,
      "hideWarnings": false,
      "protectedExpression": false,
      "summarize": false
    },
    {
      "allowOverride": false,
      "combinationType": "FUNCTION",
      "displayOptions": 0,
      "elementGroups": [],
      "elementLabel": "CacheComponents",
      "elementName": "CacheComponents",
      "elementTimeout": 0,
      "hideOnNull": false,
      "hideWarnings": false,
      "protectedExpression": false,
      "summarize": false
    },
    {
      "allowOverride": false,
      "combinationType": "FUNCTION",
      "displayOptions": 0,
      "elementGroups": [],
      "elementName": "CacheBaseSKUPriceDetails",
      "elementTimeout": 0,
      "hideOnNull": false,
      "hideWarnings": false,
      "protectedExpression": false,
      "summarize": false
    },
    {
      "allowOverride": false,
      "combinationType": "FUNCTION",
      "displayOptions": 0,
      "elementGroups": [],
      "elementName": "CacheStdAdjustments",
      "elementTimeout": 900,
      "hideOnNull": false,
      "hideWarnings": false,
      "protectedExpression": false,
      "summarize": false
    },
    {
      "allowOverride": false,
      "combinationType": "FUNCTION",
      "displayOptions": 0,
      "elementGroups": [],
      "elementName": "StandardAdjMetaData",
      "elementTimeout": 0,
      "hideOnNull": false,
      "hideWarnings": false,
      "protectedExpression": false,
      "summarize": false
    },
    {
      "allowOverride": false,
      "combinationType": "FUNCTION",
      "displayOptions": 0,
      "elementGroups": [],
      "elementName": "CacheStdProductAttributes",
      "elementTimeout": 900,
      "hideOnNull": false,
      "hideWarnings": false,
      "protectedExpression": false,
      "summarize": false
    },
    {
      "allowOverride": false,
      "combinationType": "FUNCTION",
      "displayOptions": 0,
      "elementGroups": [],
      "elementName": "TermUoMConversionCache",
      "elementTimeout": 0,
      "hideOnNull": false,
      "hideWarnings": false,
      "protectedExpression": false,
      "summarize": false
    },
    {
      "allowOverride": false,
      "combinationType": "FUNCTION",
      "displayOptions": 0,
      "elementGroups": [],
      "elementLabel": "Precision Cache",
      "elementName": "PrecisionCache",
      "elementTimeout": 0,
      "hideOnNull": false,
      "hideWarnings": false,
      "protectedExpression": false,
      "summarize": false
    },
    {
      "allowOverride": false,
      "combinationType": "FUNCTION",
      "displayOptions": 0,
      "elementGroups": [],
      "elementLabel": "Currency Adj Cache",
      "elementName": "CurrencyAdjCache",
      "elementTimeout": 0,
      "hideOnNull": false,
      "hideWarnings": false,
      "protectedExpression": false,
      "summarize": false
    },
    {
      "allowOverride": false,
      "combinationType": "FUNCTION",
      "displayOptions": 0,
      "elementGroups": [],
      "elementLabel": "Region Adj Cache",
      "elementName": "RegionAdjCache",
      "elementTimeout": 0,
      "hideOnNull": false,
      "hideWarnings": false,
      "protectedExpression": false,
      "summarize": false
    },
    {
      "allowOverride": false,
      "combinationType": "FUNCTION",
      "displayOptions": 0,
      "elementGroups": [],
      "elementLabel": "Uplift Cache",
      "elementName": "UpliftCache",
      "elementTimeout": 0,
      "hideOnNull": false,
      "hideWarnings": false,
      "protectedExpression": false,
      "summarize": false
    },
    {
      "allowOverride": false,
      "combinationType": "FUNCTION",
      "displayOptions": 0,
      "elementGroups": [],
      "elementLabel": "Promotion Adj Cache",
      "elementName": "PromotionAdjCache",
      "elementTimeout": 0,
      "hideOnNull": false,
      "hideWarnings": false,
      "protectedExpression": false,
      "summarize": false
    },
    {
      "allowOverride": false,
      "combinationType": "FUNCTION",
      "displayOptions": 0,
      "elementGroups": [],
      "elementLabel": "Upgrade Adj Cache",
      "elementName": "UpgradeAdjCache",
      "elementTimeout": 0,
      "hideOnNull": false,
      "hideWarnings": false,
      "protectedExpression": false,
      "summarize": false
    },
    {
      "allowOverride": false,
      "combinationType": "FUNCTION",
      "displayOptions": 0,
      "elementGroups": [],
      "elementLabel": "Volume Tier Adj Cache",
      "elementName": "VolumeTierAdjCache",
      "elementTimeout": 0,
      "hideOnNull": false,
      "hideWarnings": false,
      "protectedExpression": false,
      "summarize": false
    },
    {
      "allowOverride": false,
      "combinationType": "FUNCTION",
      "displayOptions": 0,
      "elementGroups": [],
      "elementLabel": "Data Center Adj Cache",
      "elementName": "DataCenterAdjCache",
      "elementTimeout": 0,
      "hideOnNull": false,
      "hideWarnings": false,
      "protectedExpression": false,
      "summarize": false
    },
    {
      "allowOverride": false,
      "combinationType": "FUNCTION",
      "displayOptions": 0,
      "elementGroups": [],
      "elementLabel": "Purchasing Program Adj Cache",
      "elementName": "PurchasingProgramAdjCache",
      "elementTimeout": 0,
      "hideOnNull": false,
      "hideWarnings": false,
      "protectedExpression": false,
      "summarize": false
    },
    {
      "allowOverride": false,
      "combinationType": "FUNCTION",
      "displayOptions": 0,
      "elementGroups": [],
      "elementLabel": "Segment Adj Cache",
      "elementName": "SegmentAdjCache",
      "elementTimeout": 0,
      "hideOnNull": false,
      "hideWarnings": false,
      "protectedExpression": false,
      "summarize": false
    },
    {
      "allowOverride": false,
      "combinationType": "FUNCTION",
      "displayOptions": 0,
      "elementGroups": [],
      "elementLabel": "Support Type Adj Cache",
      "elementName": "SupportTypeAdjCache",
      "elementTimeout": 0,
      "hideOnNull": false,
      "hideWarnings": false,
      "protectedExpression": false,
      "summarize": false
    },
    {
      "allowOverride": false,
      "combinationType": "FUNCTION",
      "displayOptions": 0,
      "elementGroups": [],
      "elementLabel": "Support Tier Adj Cache",
      "elementName": "SupportTierAdjCache",
      "elementTimeout": 0,
      "hideOnNull": false,
      "hideWarnings": false,
      "protectedExpression": false,
      "summarize": false
    },
    {
      "allowOverride": false,
      "combinationType": "FUNCTION",
      "displayOptions": 0,
      "elementGroups": [],
      "elementLabel": "Term Adj Cache",
      "elementName": "TermAdjCache",
      "elementTimeout": 0,
      "hideOnNull": false,
      "hideWarnings": false,
      "protectedExpression": false,
      "summarize": false
    },
    {
      "allowOverride": false,
      "combinationType": "FUNCTION",
      "displayOptions": 0,
      "elementGroups": [],
      "elementLabel": "Payment Adj Cache",
      "elementName": "PaymentAdjCache",
      "elementTimeout": 0,
      "hideOnNull": false,
      "hideWarnings": false,
      "protectedExpression": false,
      "summarize": false
    },
    {
      "allowOverride": false,
      "combinationType": "FUNCTION",
      "displayOptions": 0,
      "elementGroups": [],
      "elementLabel": "OS Adj Cache",
      "elementName": "OSAdjCache",
      "elementTimeout": 0,
      "hideOnNull": false,
      "hideWarnings": false,
      "protectedExpression": false,
      "summarize": false
    },
    {
      "allowOverride": false,
      "combinationType": "FUNCTION",
      "displayOptions": 0,
      "elementGroups": [],
      "elementLabel": "Hosting Adj Cache",
      "elementName": "HostingAdjCache",
      "elementTimeout": 0,
      "hideOnNull": false,
      "hideWarnings": false,
      "protectedExpression": false,
      "summarize": false
    },
    {
      "allowOverride": false,
      "combinationType": "FUNCTION",
      "displayOptions": 0,
      "elementGroups": [],
      "elementLabel": "Program Option Adj Cache",
      "elementName": "ProgramOptionAdjCache",
      "elementTimeout": 0,
      "hideOnNull": false,
      "hideWarnings": false,
      "protectedExpression": false,
      "summarize": false
    },
    {
      "allowOverride": false,
      "combinationType": "FUNCTION",
      "displayOptions": 0,
      "elementGroups": [],
      "elementName": "CacheBasePriceSKU",
      "elementTimeout": 900,
      "hideOnNull": false,
      "hideWarnings": false,
      "protectedExpression": false,
      "summarize": false
    },
    {
      "allowOverride": false,
      "combinationType": "FUNCTION",
      "displayOptions": 0,
      "elementGroups": [],
      "elementName": "CacheBaseSKUDetails",
      "elementTimeout": 0,
      "hideOnNull": false,
      "hideWarnings": false,
      "protectedExpression": false,
      "summarize": false
    },
    {
      "allowOverride": false,
      "combinationType": "FUNCTION",
      "displayOptions": 0,
      "elementGroups": [],
      "elementName": "MetricAdjCache",
      "elementTimeout": 900,
      "hideOnNull": false,
      "hideWarnings": false,
      "protectedExpression": false,
      "summarize": false
    },
    {
      "allowOverride": false,
      "combinationType": "FUNCTION",
      "displayOptions": 0,
      "elementGroups": [],
      "elementLabel": "Currency Adjustment",
      "elementName": "CurrencyAdjustment",
      "elementTimeout": 0,
      "hideOnNull": false,
      "hideWarnings": false,
      "protectedExpression": false,
      "summarize": false
    },
    {
      "allowOverride": false,
      "combinationType": "FUNCTION",
      "displayOptions": 0,
      "elementGroups": [],
      "elementLabel": "Region Adjustment",
      "elementName": "RegionAdjustment",
      "elementTimeout": 0,
      "hideOnNull": false,
      "hideWarnings": false,
      "protectedExpression": false,
      "summarize": false
    },
    {
      "allowOverride": false,
      "combinationType": "FUNCTION",
      "displayOptions": 0,
      "elementGroups": [],
      "elementLabel": "Promotion Adjustment",
      "elementName": "PromotionAdjustment",
      "elementTimeout": 0,
      "hideOnNull": false,
      "hideWarnings": false,
      "protectedExpression": false,
      "summarize": false
    },
    {
      "allowOverride": false,
      "combinationType": "FUNCTION",
      "displayOptions": 0,
      "elementGroups": [],
      "elementLabel": "VolumeTier Adjustment",
      "elementName": "VolumeTierAdjustment",
      "elementTimeout": 0,
      "hideOnNull": false,
      "hideWarnings": false,
      "protectedExpression": false,
      "summarize": false
    },
    {
      "allowOverride": false,
      "combinationType": "FUNCTION",
      "displayOptions": 0,
      "elementGroups": [],
      "elementLabel": "DataCenter Adjustment",
      "elementName": "DataCenterAdjustment",
      "elementTimeout": 0,
      "hideOnNull": false,
      "hideWarnings": false,
      "protectedExpression": false,
      "summarize": false
    },
    {
      "allowOverride": false,
      "combinationType": "FUNCTION",
      "displayOptions": 0,
      "elementGroups": [],
      "elementLabel": "PurchasingProgram Adjustment",
      "elementName": "PurchasingProgramAdjustment",
      "elementTimeout": 0,
      "hideOnNull": false,
      "hideWarnings": false,
      "protectedExpression": false,
      "summarize": false
    },
    {
      "allowOverride": false,
      "combinationType": "FUNCTION",
      "displayOptions": 0,
      "elementGroups": [],
      "elementLabel": "Segment Adjustment",
      "elementName": "SegmentAdjustment",
      "elementTimeout": 0,
      "hideOnNull": false,
      "hideWarnings": false,
      "protectedExpression": false,
      "summarize": false
    },
    {
      "allowOverride": false,
      "combinationType": "FUNCTION",
      "displayOptions": 0,
      "elementGroups": [],
      "elementLabel": "OS Adjustment",
      "elementName": "OSAdjustment",
      "elementTimeout": 0,
      "hideOnNull": false,
      "hideWarnings": false,
      "protectedExpression": false,
      "summarize": false
    },
    {
      "allowOverride": false,
      "combinationType": "FUNCTION",
      "displayOptions": 0,
      "elementGroups": [],
      "elementLabel": "Hosting Adjustment",
      "elementName": "HostingAdjustment",
      "elementTimeout": 0,
      "hideOnNull": false,
      "hideWarnings": false,
      "protectedExpression": false,
      "summarize": false
    },
    {
      "allowOverride": false,
      "combinationType": "FUNCTION",
      "displayOptions": 0,
      "elementGroups": [],
      "elementLabel": "Program Option Adjustment",
      "elementName": "ProgramOptionAdjustment",
      "elementTimeout": 0,
      "hideOnNull": false,
      "hideWarnings": false,
      "protectedExpression": false,
      "summarize": false
    },
    {
      "allowOverride": false,
      "combinationType": "FUNCTION",
      "displayOptions": 0,
      "elementGroups": [],
      "elementLabel": "Support Type Adjustment",
      "elementName": "SupportTypeAdjustment",
      "elementTimeout": 0,
      "hideOnNull": false,
      "hideWarnings": false,
      "protectedExpression": false,
      "summarize": false
    },
    {
      "allowOverride": false,
      "combinationType": "FUNCTION",
      "displayOptions": 0,
      "elementGroups": [],
      "elementLabel": "SupportTier Adjustment",
      "elementName": "SupportTierAdjustment",
      "elementTimeout": 0,
      "hideOnNull": false,
      "hideWarnings": false,
      "protectedExpression": false,
      "summarize": false
    },
    {
      "allowOverride": false,
      "combinationType": "FUNCTION",
      "displayOptions": 0,
      "elementGroups": [],
      "elementLabel": "Term Adjustment",
      "elementName": "TermAdjustment",
      "elementTimeout": 0,
      "hideOnNull": false,
      "hideWarnings": false,
      "protectedExpression": false,
      "summarize": false
    },
    {
      "allowOverride": false,
      "combinationType": "FUNCTION",
      "displayOptions": 0,
      "elementGroups": [],
      "elementLabel": "Term UoM Adjustment",
      "elementName": "TermUoMAdjustment",
      "elementTimeout": 0,
      "hideOnNull": false,
      "hideWarnings": false,
      "protectedExpression": false,
      "summarize": false
    },
    {
      "allowOverride": false,
      "combinationType": "FUNCTION",
      "displayOptions": 0,
      "elementGroups": [],
      "elementLabel": "Payment Adjustment",
      "elementName": "PaymentAdjustment",
      "elementTimeout": 0,
      "hideOnNull": false,
      "hideWarnings": false,
      "protectedExpression": false,
      "summarize": false
    },
    {
      "allowOverride": false,
      "combinationType": "FUNCTION",
      "displayOptions": 0,
      "elementGroups": [],
      "elementLabel": "Metric Adjustment",
      "elementName": "MetricAdjustment",
      "elementTimeout": 0,
      "hideOnNull": false,
      "hideWarnings": false,
      "protectedExpression": false,
      "summarize": false
    },
    {
      "allowOverride": false,
      "combinationType": "FUNCTION",
      "displayOptions": 0,
      "elementGroups": [],
      "elementLabel": "Upgrade Adjustment",
      "elementName": "UpgradeAdjustment",
      "elementTimeout": 0,
      "hideOnNull": false,
      "hideWarnings": false,
      "protectedExpression": false,
      "summarize": false
    },
    {
      "allowOverride": false,
      "combinationType": "FUNCTION",
      "displayOptions": 0,
      "elementGroups": [],
      "elementName": "PopulateAdjustmentRecords",
      "elementTimeout": 0,
      "hideOnNull": false,
      "hideWarnings": false,
      "protectedExpression": false,
      "summarize": false
    },
    {
      "allowOverride": false,
      "combinationType": "FUNCTION",
      "displayOptions": 0,
      "elementGroups": [],
      "elementName": "DeleteRecords",
      "elementTimeout": 900,
      "hideOnNull": false,
      "hideWarnings": false,
      "protectedExpression": false,
      "summarize": false
    },
    {
      "allowOverride": false,
      "combinationType": "FUNCTION",
      "displayOptions": 0,
      "elementGroups": [],
      "elementName": "InsertRecords",
      "elementTimeout": 900,
      "hideOnNull": false,
      "hideWarnings": false,
      "protectedExpression": false,
      "summarize": false
    }
  ],
  "formulaNature": "calculationFlow",
  "inputDescriptors": [],
  "label": "CF Bundle Adjustment Calculation",
  "status": "ACTIVE",
  "uniqueName": "CF_BundleAdjustmentCalculation",
  "validAfter": "2019-01-01"
}