{
  "folder" : "VeloCloud",
  "hideWarnings" : false,
  "isPlasma" : false,
  "label" : "Edition Options New",
  "status" : "ACTIVE",
  "type" : "MATRIX",
  "uniqueName" : "EditionOptionsNew",
  "validAfter" : "2019-11-01",
  "valueType" : "MATRIX"
}