{
  "fieldName" : "attribute5",
  "fieldType" : 2,
  "fieldValueOptions" : "[\"Hour\",\"MTH\"]",
  "label" : "UoM",
  "labelTranslations" : {
    "" : "UoM"
  },
  "readOnly" : false,
  "requiredField" : false
}