{
  "category" : "TAM Calculation / Analysis",
  "configuration" : {
    "formulaName" : "DB_TAMCalculationforDependent",
    "inputs" : [ {
      "addUnknownValues" : null,
      "additionalConfig" : {
        "visible" : true
      },
      "alwaysEditable" : null,
      "filter" : null,
      "formattingOptions" : { },
      "inputs" : [ ],
      "label" : "Start Year",
      "labelTranslations" : null,
      "lookupTableId" : null,
      "name" : "Start Year",
      "parameterConfig" : {
        "dataType" : "date"
      },
      "parameterGroup" : null,
      "readOnly" : null,
      "required" : true,
      "type" : "DATEUSERENTRY",
      "url" : null,
      "value" : null,
      "valueHint" : null,
      "valueOptions" : null
    }, {
      "addUnknownValues" : null,
      "additionalConfig" : {
        "visible" : true
      },
      "alwaysEditable" : null,
      "filter" : null,
      "formattingOptions" : { },
      "inputs" : [ ],
      "label" : "End Year",
      "labelTranslations" : null,
      "lookupTableId" : null,
      "name" : "End Year",
      "parameterConfig" : {
        "dataType" : "date"
      },
      "parameterGroup" : null,
      "readOnly" : null,
      "required" : true,
      "type" : "DATEUSERENTRY",
      "url" : null,
      "value" : null,
      "valueHint" : null,
      "valueOptions" : null
    }, {
      "addUnknownValues" : null,
      "additionalConfig" : {
        "visible" : true
      },
      "alwaysEditable" : null,
      "filter" : null,
      "formattingOptions" : { },
      "inputs" : [ ],
      "label" : "Percentage Change (%)",
      "labelTranslations" : null,
      "lookupTableId" : null,
      "name" : "Percentage Change (%)",
      "parameterConfig" : {
        "dataType" : "float"
      },
      "parameterGroup" : null,
      "readOnly" : null,
      "required" : null,
      "type" : "USERENTRY",
      "url" : null,
      "value" : null,
      "valueHint" : null,
      "valueOptions" : null
    }, {
      "addUnknownValues" : null,
      "additionalConfig" : {
        "visible" : true
      },
      "alwaysEditable" : null,
      "filter" : {
        "dimensionFilters" : { }
      },
      "formattingOptions" : { },
      "inputs" : [ ],
      "label" : "Data Selection",
      "labelTranslations" : null,
      "lookupTableId" : null,
      "name" : "Data Selection",
      "parameterConfig" : {
        "dmSourceName" : "DM.PricingandDiscountingDM"
      },
      "parameterGroup" : null,
      "readOnly" : null,
      "required" : null,
      "type" : "DMFILTERBUILDER",
      "url" : null,
      "value" : { },
      "valueHint" : null,
      "valueOptions" : null
    } ]
  },
  "dynamicInputs" : false,
  "hide" : false,
  "label" : "Dependent SKUs TAM Calculation",
  "labelTranslations" : { },
  "uniqueName" : "DependentSKUsTAMCalculation"
}