{
  "category": "TAM Calculation / Analysis",
  "configuration": {
    "formulaName": "DB_TAMDependentSkuList",
    "inputs": [
      {
        "addUnknownValues": null,
        "additionalConfig": {
          "visible": true
        },
        "alwaysEditable": null,
        "filter": null,
        "formattingOptions": {},
        "inputs": [],
        "label": "Product",
        "labelTranslations": null,
        "lookupTableId": null,
        "name": "Product",
        "parameterConfig": {},
        "parameterGroup": null,
        "readOnly": null,
        "required": null,
        "type": "PRODUCTGROUP",
        "url": null,
        "value": null,
        "valueHint": null,
        "valueOptions": null
      }
    ]
  },
  "dynamicInputs": false,
  "hide": false,
  "label": "TAM Dependent SKU Details",
  "labelTranslations": {},
  "uniqueName": "TAMDependentSKUDetails"
}