{
  "configuration" : {
    "formulaName" : "VeloSWSKUView",
    "inputs" : [ {
      "addUnknownValues" : null,
      "alwaysEditable" : null,
      "filter" : null,
      "label" : "Edition",
      "labelTranslations" : null,
      "lookupTableId" : null,
      "name" : "Edition",
      "parameterConfig" : { },
      "parameterGroup" : null,
      "readOnly" : null,
      "required" : null,
      "type" : "OPTIONS",
      "url" : null,
      "value" : null,
      "valueHint" : null,
      "valueOptions" : [ "ENT", "PRE", "STD" ]
    }, {
      "addUnknownValues" : null,
      "alwaysEditable" : null,
      "filter" : null,
      "label" : "Renewal Options",
      "labelTranslations" : null,
      "lookupTableId" : null,
      "name" : "Renewal Options",
      "parameterConfig" : { },
      "parameterGroup" : null,
      "readOnly" : null,
      "required" : null,
      "type" : "OPTIONS",
      "url" : null,
      "value" : null,
      "valueHint" : null,
      "valueOptions" : [ " ", "R" ]
    }, {
      "addUnknownValues" : null,
      "alwaysEditable" : null,
      "filter" : null,
      "label" : "License Class",
      "labelTranslations" : null,
      "lookupTableId" : null,
      "name" : "License Class",
      "parameterConfig" : { },
      "parameterGroup" : null,
      "readOnly" : null,
      "required" : null,
      "type" : "OPTIONS",
      "url" : null,
      "value" : null,
      "valueHint" : null,
      "valueOptions" : [ "A", "C", "F" ]
    }, {
      "addUnknownValues" : null,
      "alwaysEditable" : null,
      "filter" : null,
      "label" : "Gateway Options",
      "labelTranslations" : null,
      "lookupTableId" : null,
      "name" : "Gateway Options",
      "parameterConfig" : { },
      "parameterGroup" : null,
      "readOnly" : null,
      "required" : null,
      "type" : "OPTIONS",
      "url" : null,
      "value" : null,
      "valueHint" : null,
      "valueOptions" : [ " ", "HG", "SG" ]
    }, {
      "addUnknownValues" : null,
      "alwaysEditable" : null,
      "filter" : null,
      "label" : "Support Options",
      "labelTranslations" : null,
      "lookupTableId" : null,
      "name" : "Support Options",
      "parameterConfig" : { },
      "parameterGroup" : null,
      "readOnly" : null,
      "required" : null,
      "type" : "OPTIONS",
      "url" : null,
      "value" : null,
      "valueHint" : null,
      "valueOptions" : [ "L14", "L34" ]
    }, {
      "addUnknownValues" : null,
      "alwaysEditable" : null,
      "filter" : null,
      "label" : "Orchestrator",
      "labelTranslations" : null,
      "lookupTableId" : null,
      "name" : "Orchestrator",
      "parameterConfig" : { },
      "parameterGroup" : null,
      "readOnly" : null,
      "required" : null,
      "type" : "OPTIONS",
      "url" : null,
      "value" : null,
      "valueHint" : null,
      "valueOptions" : [ " ", "HO", "SO" ]
    }, {
      "addUnknownValues" : null,
      "alwaysEditable" : null,
      "filter" : null,
      "label" : "Service Level Factor",
      "labelTranslations" : null,
      "lookupTableId" : null,
      "name" : "Service Level Factor",
      "parameterConfig" : { },
      "parameterGroup" : null,
      "readOnly" : null,
      "required" : null,
      "type" : "OPTIONS",
      "url" : null,
      "value" : null,
      "valueHint" : null,
      "valueOptions" : [ "S1", "S2", "S3" ]
    }, {
      "addUnknownValues" : null,
      "alwaysEditable" : null,
      "filter" : null,
      "label" : "Bandwidth",
      "labelTranslations" : null,
      "lookupTableId" : null,
      "name" : "Bandwidth",
      "parameterConfig" : { },
      "parameterGroup" : null,
      "readOnly" : null,
      "required" : null,
      "type" : "OPTIONS",
      "url" : null,
      "value" : null,
      "valueHint" : null,
      "valueOptions" : [ "001G", "002G", "005G", "010G", "010M", "030M", "050M", "100M", "200M", "350M", "500M", "750M" ]
    }, {
      "addUnknownValues" : null,
      "alwaysEditable" : null,
      "filter" : null,
      "label" : "Payment Term",
      "labelTranslations" : null,
      "lookupTableId" : null,
      "name" : "Payment Term",
      "parameterConfig" : { },
      "parameterGroup" : null,
      "readOnly" : null,
      "required" : null,
      "type" : "OPTIONS",
      "url" : null,
      "value" : null,
      "valueHint" : null,
      "valueOptions" : [ "1", "3", "5" ]
    }, {
      "addUnknownValues" : null,
      "alwaysEditable" : null,
      "filter" : null,
      "label" : "Payment Type",
      "labelTranslations" : null,
      "lookupTableId" : null,
      "name" : "Payment Type",
      "parameterConfig" : { },
      "parameterGroup" : null,
      "readOnly" : null,
      "required" : null,
      "type" : "OPTIONS",
      "url" : null,
      "value" : null,
      "valueHint" : null,
      "valueOptions" : [ "Annual", "Monthly", "Prepaid" ]
    } ]
  },
  "dynamicInputs" : false,
  "hide" : false,
  "label" : "VeloCloud SW SKU View",
  "uniqueName" : "VeloSWSKUView"
}