{
  "fieldName" : "key1",
  "fieldType" : 2,
  "fieldValueOptions" : "[\"Extended Replacement Service\",\"Hardware Capex\",\"Rental\"]",
  "label" : "Key1",
  "labelTranslations" : {
    "" : "Item Type"
  },
  "requiredField" : false
}