{
  "fieldType" : 1,
  "formatType" : "NUMERIC_LONG",
  "label" : "DataCenterAdjustmentFactor",
  "labelTranslations" : {
    "" : "Data Center Adjustment Factor"
  },
  "readOnly" : false,
  "requiredField" : false
}