{
  "fieldType" : 1,
  "formatType" : "NUMERIC_LONG",
  "label" : "BillingTermAdjustmentFactor",
  "labelTranslations" : {
    "" : "Billing Term Adjustment Factor"
  },
  "readOnly" : false,
  "requiredField" : false
}