{
  "fieldType" : 1,
  "formatType" : "NUMERIC_LONG",
  "label" : "BillingFrequencyAdjustmentFactor",
  "labelTranslations" : {
    "" : "Billing Frequency Adjustment Factor"
  },
  "readOnly" : false,
  "requiredField" : false
}