{
  "folder" : "VeloCloud",
  "hideWarnings" : false,
  "isPlasma" : false,
  "label" : "Renewal Options",
  "status" : "ACTIVE",
  "type" : "SIMPLE",
  "uniqueName" : "RenewalOptions",
  "validAfter" : "2019-01-01",
  "valueType" : "STRING"
}