{
  "elements" : [ {
    "allowOverride" : false,
    "combinationType" : "FUNCTION",
    "displayOptions" : 0,
    "elementGroups" : [ ],
    "elementLabel" : "Constants",
    "elementName" : "Constants",
    "elementTimeout" : 0,
    "excludeFromExport" : false,
    "hideOnNull" : false,
    "hideWarnings" : false,
    "overridden" : false,
    "protectedExpression" : false,
    "summarize" : false
  }, {
    "allowOverride" : false,
    "combinationType" : "FUNCTION",
    "displayOptions" : 0,
    "elementGroups" : [ ],
    "elementName" : "Lib",
    "elementTimeout" : 900,
    "excludeFromExport" : false,
    "hideOnNull" : false,
    "hideWarnings" : false,
    "overridden" : false,
    "protectedExpression" : false,
    "summarize" : false
  }, {
    "allowOverride" : false,
    "combinationType" : "FUNCTION",
    "displayOptions" : 0,
    "elementGroups" : [ ],
    "elementLabel" : "Cache LPG ID",
    "elementName" : "CacheLPGID",
    "elementTimeout" : 0,
    "excludeFromExport" : false,
    "hideOnNull" : false,
    "hideWarnings" : false,
    "overridden" : false,
    "protectedExpression" : false,
    "summarize" : false
  }, {
    "allowOverride" : false,
    "combinationType" : "FUNCTION",
    "displayOptions" : 0,
    "elementGroups" : [ ],
    "elementLabel" : "CF Last Update Date Time",
    "elementName" : "CFLastUpdateDateTime",
    "elementTimeout" : 0,
    "excludeFromExport" : false,
    "hideOnNull" : false,
    "hideWarnings" : false,
    "overridden" : false,
    "protectedExpression" : false,
    "summarize" : false
  }, {
    "allowOverride" : false,
    "combinationType" : "FUNCTION",
    "displayOptions" : 0,
    "elementGroups" : [ ],
    "elementLabel" : "Cache LPG Approved Items",
    "elementName" : "CacheLPGApprovedItems",
    "elementTimeout" : 900,
    "excludeFromExport" : false,
    "hideOnNull" : false,
    "hideWarnings" : false,
    "overridden" : false,
    "protectedExpression" : false,
    "summarize" : false
  }, {
    "allowOverride" : false,
    "combinationType" : "FUNCTION",
    "displayOptions" : 0,
    "elementGroups" : [ ],
    "elementLabel" : "Cache Standard Product",
    "elementName" : "CacheStandardProduct",
    "elementTimeout" : 900,
    "excludeFromExport" : false,
    "hideOnNull" : false,
    "hideWarnings" : false,
    "overridden" : false,
    "protectedExpression" : false,
    "summarize" : false
  }, {
    "allowOverride" : false,
    "combinationType" : "FUNCTION",
    "displayOptions" : 0,
    "elementGroups" : [ ],
    "elementLabel" : "Cache Standard Adjustment",
    "elementName" : "CacheStandardAdjustment",
    "elementTimeout" : 900,
    "excludeFromExport" : false,
    "hideOnNull" : false,
    "hideWarnings" : false,
    "overridden" : false,
    "protectedExpression" : false,
    "summarize" : false
  }, {
    "allowOverride" : false,
    "combinationType" : "FUNCTION",
    "displayOptions" : 0,
    "elementGroups" : [ ],
    "elementLabel" : "Std Adj Meta Data",
    "elementName" : "StdAdjMetaData",
    "elementTimeout" : 0,
    "excludeFromExport" : false,
    "hideOnNull" : false,
    "hideWarnings" : false,
    "overridden" : false,
    "protectedExpression" : false,
    "summarize" : false
  }, {
    "allowOverride" : false,
    "combinationType" : "FUNCTION",
    "displayOptions" : 0,
    "elementGroups" : [ ],
    "elementLabel" : "TermUoM Conversion Cache",
    "elementName" : "TermUoMConversionCache",
    "elementTimeout" : 0,
    "excludeFromExport" : false,
    "hideOnNull" : false,
    "hideWarnings" : false,
    "overridden" : false,
    "protectedExpression" : false,
    "summarize" : false
  }, {
    "allowOverride" : false,
    "combinationType" : "FUNCTION",
    "displayOptions" : 0,
    "elementGroups" : [ ],
    "elementLabel" : "Cache Standard Adjustment factors",
    "elementName" : "CacheStandardAdjustmentfactors",
    "elementTimeout" : 900,
    "excludeFromExport" : false,
    "hideOnNull" : false,
    "hideWarnings" : false,
    "overridden" : false,
    "protectedExpression" : false,
    "summarize" : false
  }, {
    "allowOverride" : false,
    "combinationType" : "FUNCTION",
    "displayOptions" : 0,
    "elementGroups" : [ ],
    "elementLabel" : "Determine SKU Exception Level",
    "elementName" : "DetermineSKUExceptionLevel",
    "elementTimeout" : 900,
    "excludeFromExport" : false,
    "hideOnNull" : false,
    "hideWarnings" : false,
    "overridden" : false,
    "protectedExpression" : false,
    "summarize" : false
  } ],
  "formulaNature" : "calculationFlow",
  "inputDescriptors" : [ ],
  "label" : "CF_EnrichExceptionLevel",
  "status" : "ACTIVE",
  "uniqueName" : "CF_EnrichExceptionLevel",
  "validAfter" : "2020-01-01"
}