{
  "folder" : "VeloCloud",
  "hideWarnings" : false,
  "isPlasma" : false,
  "label" : "Billing Terms Factor",
  "status" : "ACTIVE",
  "type" : "MATRIX",
  "uniqueName" : "BillingTermsFactor",
  "validAfter" : "2019-01-01",
  "valueType" : "MATRIX2"
}