{
  "elements": [
    {
      "allowOverride": false,
      "combinationType": "FUNCTION",
      "displayOptions": 0,
      "elementLabel": "Retain Global",
      "elementName": "RetainGlobal",
      "elementTimeout": 0,
      "hideOnNull": false,
      "hideWarnings": false,
      "protectedExpression": false,
      "summarize": false
    },
    {
      "allowOverride": false,
      "combinationType": "FUNCTION",
      "displayOptions": 0,
      "elementLabel": "Library",
      "elementName": "Library",
      "elementTimeout": 15,
      "hideOnNull": false,
      "hideWarnings": false,
      "protectedExpression": false,
      "summarize": false
    },
    {
      "allowOverride": false,
      "combinationType": "FUNCTION",
      "displayOptions": 16,
      "elementLabel": "Part Number",
      "elementName": "PartNumber",
      "elementTimeout": 0,
      "hideOnNull": false,
      "hideWarnings": false,
      "protectedExpression": false,
      "summarize": false
    },
    {
      "allowOverride": false,
      "combinationType": "FUNCTION",
      "displayOptions": 16,
      "elementLabel": "Product Family",
      "elementName": "ProductFamily",
      "elementTimeout": 0,
      "hideOnNull": false,
      "hideWarnings": false,
      "protectedExpression": false,
      "summarize": false
    },
    {
      "allowOverride": false,
      "combinationType": "FUNCTION",
      "displayOptions": 16,
      "elementLabel": "SKU Sequence",
      "elementName": "SKUSequence",
      "elementTimeout": 0,
      "hideOnNull": false,
      "hideWarnings": false,
      "protectedExpression": false,
      "summarize": false
    },
    {
      "allowOverride": false,
      "combinationType": "FUNCTION",
      "displayOptions": 16,
      "elementLabel": "Extension",
      "elementName": "Extension",
      "elementTimeout": 0,
      "hideOnNull": false,
      "hideWarnings": false,
      "protectedExpression": false,
      "summarize": false
    },
    {
      "allowOverride": false,
      "combinationType": "FUNCTION",
      "displayOptions": 16,
      "elementGroups": [],
      "elementLabel": "Is SKU Multi Year?",
      "elementName": "isMultiYearSKU",
      "elementTimeout": 0,
      "formatType": "TEXT",
      "hideOnNull": false,
      "hideWarnings": false,
      "protectedExpression": false,
      "summarize": false
    },
    {
      "allowOverride": false,
      "combinationType": "FUNCTION",
      "displayOptions": 16,
      "elementLabel": "SKU Type",
      "elementName": "SKUType",
      "elementTimeout": 0,
      "hideOnNull": false,
      "hideWarnings": false,
      "protectedExpression": false,
      "summarize": false
    },
    {
      "allowOverride": false,
      "combinationType": "FUNCTION",
      "displayOptions": 16,
      "elementLabel": "Item Type",
      "elementName": "ItemType",
      "elementTimeout": 0,
      "hideOnNull": false,
      "hideWarnings": false,
      "protectedExpression": false,
      "summarize": false
    },
    {
      "allowOverride": true,
      "combinationType": "FUNCTION",
      "displayOptions": 16,
      "elementLabel": "LC Factor",
      "elementName": "LCFactor",
      "elementTimeout": 0,
      "hideOnNull": false,
      "hideWarnings": false,
      "protectedExpression": false,
      "summarize": false
    },
    {
      "allowOverride": false,
      "combinationType": "FUNCTION",
      "displayOptions": 0,
      "elementLabel": "Product Type",
      "elementName": "ProductType",
      "elementTimeout": 0,
      "hideOnNull": false,
      "hideWarnings": false,
      "protectedExpression": false,
      "summarize": false
    },
    {
      "allowOverride": false,
      "combinationType": "FUNCTION",
      "displayOptions": 16,
      "elementLabel": "Commercial License",
      "elementName": "CommercialLicense",
      "elementTimeout": 0,
      "hideOnNull": false,
      "hideWarnings": false,
      "protectedExpression": false,
      "summarize": false
    },
    {
      "allowOverride": false,
      "combinationType": "FUNCTION",
      "displayOptions": 16,
      "elementLabel": "Commercial License Price",
      "elementName": "CommercialLicensePrice",
      "elementTimeout": 0,
      "formatType": "MONEY_USD",
      "hideOnNull": false,
      "hideWarnings": false,
      "protectedExpression": false,
      "summarize": false
    },
    {
      "allowOverride": true,
      "combinationType": "FUNCTION",
      "displayOptions": 16,
      "elementLabel": "LicenseAdjustment",
      "elementName": "LicenseAdjustment",
      "elementTimeout": 0,
      "formatType": "PERCENT",
      "hideOnNull": false,
      "hideWarnings": false,
      "protectedExpression": false,
      "summarize": false
    },
    {
      "allowOverride": false,
      "combinationType": "FUNCTION",
      "displayOptions": 16,
      "elementLabel": "Discounted Commercial License",
      "elementName": "DiscountedCommercialLicense",
      "elementTimeout": 0,
      "formatType": "MONEY_USD",
      "hideOnNull": false,
      "hideWarnings": false,
      "protectedExpression": false,
      "summarize": false
    },
    {
      "allowOverride": true,
      "combinationType": "FUNCTION",
      "displayOptions": 16,
      "elementLabel": "1 Year Commercial Basic / Production SnS Percent",
      "elementName": "OneYearCommercialBasicProductionSnSPercent",
      "elementTimeout": 0,
      "formatType": "PERCENT",
      "hideOnNull": false,
      "hideWarnings": false,
      "protectedExpression": false,
      "summarize": false
    },
    {
      "allowOverride": false,
      "combinationType": "FUNCTION",
      "displayOptions": 16,
      "elementLabel": "1 Year Commercial Basic / Production SnS Price",
      "elementName": "OneYearCommercialBasicProductionSnSPrice",
      "elementTimeout": 0,
      "formatType": "MONEY_USD",
      "hideOnNull": false,
      "hideWarnings": false,
      "protectedExpression": false,
      "summarize": false
    },
    {
      "allowOverride": true,
      "combinationType": "FUNCTION",
      "displayOptions": 16,
      "elementLabel": "1 Year Commercial Basic / Production Support / Subscription Percent",
      "elementName": "OneYearCommercialBasicProductionSupportSubscriptionPercent",
      "elementTimeout": 0,
      "formatType": "PERCENT",
      "hideOnNull": false,
      "hideWarnings": false,
      "protectedExpression": false,
      "summarize": false
    },
    {
      "allowOverride": false,
      "combinationType": "FUNCTION",
      "displayOptions": 16,
      "elementLabel": "1 Year Commercial Basic / Production Support / Subscription Price",
      "elementName": "OneYearCommercialBasicProductionSupportSubscriptionPrice",
      "elementTimeout": 0,
      "formatType": "MONEY_USD",
      "hideOnNull": false,
      "hideWarnings": false,
      "protectedExpression": false,
      "summarize": false
    },
    {
      "allowOverride": true,
      "combinationType": "FUNCTION",
      "displayOptions": 16,
      "elementLabel": "3 Year Discount Percent",
      "elementName": "threeYearDiscount",
      "elementTimeout": 0,
      "formatType": "PERCENT",
      "hideOnNull": false,
      "hideWarnings": false,
      "protectedExpression": false,
      "summarize": false
    },
    {
      "allowOverride": false,
      "combinationType": "FUNCTION",
      "displayOptions": 16,
      "elementLabel": "3 Year Commercial Basic / Production SnS Price",
      "elementName": "ThreeYearCommercialBasicProductionSnSPrice",
      "elementTimeout": 0,
      "formatType": "MONEY_USD",
      "hideOnNull": false,
      "hideWarnings": false,
      "protectedExpression": false,
      "summarize": false
    },
    {
      "allowOverride": false,
      "combinationType": "FUNCTION",
      "displayOptions": 16,
      "elementLabel": "3 Year Commercial Basic / Production Support / Subscription Price",
      "elementName": "ThreeYearCommercialBasicProductionSupportSubscriptionPrice",
      "elementTimeout": 0,
      "formatType": "MONEY_USD",
      "hideOnNull": false,
      "hideWarnings": false,
      "protectedExpression": false,
      "summarize": false
    },
    {
      "allowOverride": false,
      "combinationType": "FUNCTION",
      "displayOptions": 16,
      "elementLabel": "2 Month Commercial Basic / Production SnS Price",
      "elementName": "TwoMonthCommercialBasicProductionSnSPrice",
      "elementTimeout": 0,
      "formatType": "MONEY_USD",
      "hideOnNull": false,
      "hideWarnings": false,
      "protectedExpression": false,
      "summarize": false
    },
    {
      "allowOverride": false,
      "combinationType": "FUNCTION",
      "displayOptions": 16,
      "elementLabel": "2 Month Commercial Basic / Production Support / Subscription Price",
      "elementName": "TwoMonthCommercialBasicProductionSSPrice",
      "elementTimeout": 0,
      "formatType": "MONEY_USD",
      "hideOnNull": false,
      "hideWarnings": false,
      "protectedExpression": false,
      "summarize": false
    },
    {
      "allowOverride": true,
      "combinationType": "FUNCTION",
      "displayOptions": 16,
      "elementLabel": "5 Year Discount Percent",
      "elementName": "fiveYearDiscount",
      "elementTimeout": 0,
      "formatType": "PERCENT",
      "hideOnNull": false,
      "hideWarnings": false,
      "protectedExpression": false,
      "summarize": false
    },
    {
      "allowOverride": false,
      "combinationType": "FUNCTION",
      "displayOptions": 16,
      "elementLabel": "5 Year Commercial Production SnS Price",
      "elementName": "FiveYearCommercialProductionSnSPrice",
      "elementTimeout": 0,
      "formatType": "MONEY_USD",
      "hideOnNull": false,
      "hideWarnings": false,
      "protectedExpression": false,
      "summarize": false
    },
    {
      "allowOverride": true,
      "combinationType": "FUNCTION",
      "displayOptions": 16,
      "elementLabel": "Academic License Discount Percent",
      "elementName": "AcademicLicensePercent",
      "elementTimeout": 0,
      "formatType": "PERCENT",
      "hideOnNull": false,
      "hideWarnings": false,
      "protectedExpression": false,
      "summarize": false
    },
    {
      "allowOverride": false,
      "combinationType": "FUNCTION",
      "displayOptions": 16,
      "elementLabel": "Academic License",
      "elementName": "AcademicLicense",
      "elementTimeout": 0,
      "formatType": "MONEY_USD",
      "hideOnNull": false,
      "hideWarnings": false,
      "protectedExpression": false,
      "summarize": false
    },
    {
      "allowOverride": true,
      "combinationType": "FUNCTION",
      "displayOptions": 16,
      "elementLabel": "1 Year Academic Basic SnS Percent",
      "elementName": "OneYearAcademicBasicSnSPercent",
      "elementTimeout": 0,
      "formatType": "PERCENT",
      "hideOnNull": false,
      "hideWarnings": false,
      "protectedExpression": false,
      "summarize": false
    },
    {
      "allowOverride": false,
      "combinationType": "FUNCTION",
      "displayOptions": 16,
      "elementLabel": "1 Year Academic Basic  SnS Price",
      "elementName": "OneYearAcademicBasicSnSPrice",
      "elementTimeout": 0,
      "formatType": "MONEY_USD",
      "hideOnNull": false,
      "hideWarnings": false,
      "protectedExpression": false,
      "summarize": false
    },
    {
      "allowOverride": true,
      "combinationType": "FUNCTION",
      "displayOptions": 16,
      "elementLabel": "1 Year Academic Basic Support / Subscription Percent",
      "elementName": "OneYearAcademicBasicSupportSubscriptionPercent",
      "elementTimeout": 0,
      "formatType": "PERCENT",
      "hideOnNull": false,
      "hideWarnings": false,
      "protectedExpression": false,
      "summarize": false
    },
    {
      "allowOverride": false,
      "combinationType": "FUNCTION",
      "displayOptions": 16,
      "elementLabel": "1 Year Academic Basic Support / Subscription Price",
      "elementName": "OneYearAcademicBasicSupportSubscriptionPrice",
      "elementTimeout": 0,
      "formatType": "MONEY_USD",
      "hideOnNull": false,
      "hideWarnings": false,
      "protectedExpression": false,
      "summarize": false
    },
    {
      "allowOverride": false,
      "combinationType": "FUNCTION",
      "displayOptions": 16,
      "elementLabel": "3 Year Academic Basic SnS Price",
      "elementName": "ThreeYearAcademicBasicSnSPrice",
      "elementTimeout": 0,
      "formatType": "MONEY_USD",
      "hideOnNull": false,
      "hideWarnings": false,
      "protectedExpression": false,
      "summarize": false
    },
    {
      "allowOverride": false,
      "combinationType": "FUNCTION",
      "displayOptions": 16,
      "elementLabel": "3 Year Academic Basic Support / Subscription Price",
      "elementName": "ThreeYearAcademicBasicSupportSubscriptionPrice",
      "elementTimeout": 0,
      "formatType": "MONEY_USD",
      "hideOnNull": false,
      "hideWarnings": false,
      "protectedExpression": false,
      "summarize": false
    },
    {
      "allowOverride": false,
      "combinationType": "FUNCTION",
      "displayOptions": 16,
      "elementLabel": "2 Month Academic Basic SnS Price",
      "elementName": "TwoMonthAcademicBasicSnSPrice",
      "elementTimeout": 0,
      "formatType": "MONEY_USD",
      "hideOnNull": false,
      "hideWarnings": false,
      "protectedExpression": false,
      "summarize": false
    },
    {
      "allowOverride": false,
      "combinationType": "FUNCTION",
      "displayOptions": 16,
      "elementLabel": "2 Month Academic Basic Support / Subscription Price",
      "elementName": "TwoMonthAcademicBasicSupportSubscriptionPrice",
      "elementTimeout": 0,
      "formatType": "MONEY_USD",
      "hideOnNull": false,
      "hideWarnings": false,
      "protectedExpression": false,
      "summarize": false
    },
    {
      "allowOverride": false,
      "combinationType": "FUNCTION",
      "displayOptions": 16,
      "elementLabel": "1 Year Academic Production SnS Price",
      "elementName": "OneYearAcademicProductionSnSPrice",
      "elementTimeout": 0,
      "formatType": "MONEY_USD",
      "hideOnNull": false,
      "hideWarnings": false,
      "protectedExpression": false,
      "summarize": false
    },
    {
      "allowOverride": false,
      "combinationType": "FUNCTION",
      "displayOptions": 16,
      "elementLabel": "1 Year Academic Production Support / Subscription Price",
      "elementName": "OneYearAcademicProductionSSPrice",
      "elementTimeout": 0,
      "formatType": "MONEY_USD",
      "hideOnNull": false,
      "hideWarnings": false,
      "protectedExpression": false,
      "summarize": false
    },
    {
      "allowOverride": false,
      "combinationType": "FUNCTION",
      "displayOptions": 16,
      "elementLabel": "3 Year Academic Production SnS Price",
      "elementName": "ThreeYearAcademicProductionSnSPrice",
      "elementTimeout": 0,
      "formatType": "MONEY_USD",
      "hideOnNull": false,
      "hideWarnings": false,
      "protectedExpression": false,
      "summarize": false
    },
    {
      "allowOverride": false,
      "combinationType": "FUNCTION",
      "displayOptions": 16,
      "elementLabel": "3 Year Academic Production Support / Subscription Price",
      "elementName": "ThreeYearAcademicProductionSSPrice",
      "elementTimeout": 0,
      "formatType": "MONEY_USD",
      "hideOnNull": false,
      "hideWarnings": false,
      "protectedExpression": false,
      "summarize": false
    },
    {
      "allowOverride": false,
      "combinationType": "FUNCTION",
      "displayOptions": 16,
      "elementLabel": "2 Month Academic Production SnS Price",
      "elementName": "TwoMonthAcademicProductionSnSPrice",
      "elementTimeout": 0,
      "formatType": "MONEY_USD",
      "hideOnNull": false,
      "hideWarnings": false,
      "protectedExpression": false,
      "summarize": false
    },
    {
      "allowOverride": false,
      "combinationType": "FUNCTION",
      "displayOptions": 16,
      "elementLabel": "2 Month Academic Production Support / Subscription Price",
      "elementName": "TwoMonthAcademicProductionSSPrice",
      "elementTimeout": 0,
      "formatType": "MONEY_USD",
      "hideOnNull": false,
      "hideWarnings": false,
      "protectedExpression": false,
      "summarize": false
    },
    {
      "allowOverride": false,
      "combinationType": "FUNCTION",
      "displayOptions": 16,
      "elementLabel": "5 Year Academic Production SnS Price",
      "elementName": "FiveYearAcademicProductionSnSPrice",
      "elementTimeout": 0,
      "formatType": "MONEY_USD",
      "hideOnNull": false,
      "hideWarnings": false,
      "protectedExpression": false,
      "summarize": false
    },
    {
      "allowOverride": true,
      "combinationType": "FUNCTION",
      "displayOptions": 16,
      "elementLabel": "Federal License Percent",
      "elementName": "FederalLicensePercent",
      "elementTimeout": 0,
      "formatType": "PERCENT",
      "hideOnNull": false,
      "hideWarnings": false,
      "protectedExpression": false,
      "summarize": false
    },
    {
      "allowOverride": false,
      "combinationType": "FUNCTION",
      "displayOptions": 16,
      "elementLabel": "Federal License",
      "elementName": "FederalLicense",
      "elementTimeout": 0,
      "formatType": "MONEY_USD",
      "hideOnNull": false,
      "hideWarnings": false,
      "protectedExpression": false,
      "summarize": false
    },
    {
      "allowOverride": true,
      "combinationType": "FUNCTION",
      "displayOptions": 16,
      "elementLabel": "Federal License Discount Percent",
      "elementName": "FederalLicenseDiscount",
      "elementTimeout": 0,
      "formatType": "PERCENT",
      "hideOnNull": false,
      "hideWarnings": false,
      "protectedExpression": false,
      "summarize": false
    },
    {
      "allowOverride": false,
      "combinationType": "FUNCTION",
      "displayOptions": 16,
      "elementLabel": "Discounted Federal License",
      "elementName": "DiscountedFederalLicense",
      "elementTimeout": 0,
      "formatType": "MONEY_USD",
      "hideOnNull": false,
      "hideWarnings": false,
      "protectedExpression": false,
      "summarize": false
    },
    {
      "allowOverride": false,
      "combinationType": "FUNCTION",
      "displayOptions": 16,
      "elementLabel": "1 Year Federal Basic / Production SnS Price",
      "elementName": "OneYearFederalBasicProductionSnSPrice",
      "elementTimeout": 0,
      "formatType": "MONEY_USD",
      "hideOnNull": false,
      "hideWarnings": false,
      "protectedExpression": false,
      "summarize": false
    },
    {
      "allowOverride": false,
      "combinationType": "FUNCTION",
      "displayOptions": 16,
      "elementLabel": "1 Year Federal Basic / Production Support / Subscription Price",
      "elementName": "OneYearFederalBasicProductionSupportSubscriptionPrice",
      "elementTimeout": 0,
      "formatType": "MONEY_USD",
      "hideOnNull": false,
      "hideWarnings": false,
      "protectedExpression": false,
      "summarize": false
    },
    {
      "allowOverride": false,
      "combinationType": "FUNCTION",
      "displayOptions": 16,
      "elementLabel": "3 Year Federal Basic / Production SnS Price",
      "elementName": "ThreeYearFederalBasicProductionSnSPrice",
      "elementTimeout": 0,
      "formatType": "MONEY_USD",
      "hideOnNull": false,
      "hideWarnings": false,
      "protectedExpression": false,
      "summarize": false
    },
    {
      "allowOverride": false,
      "combinationType": "FUNCTION",
      "displayOptions": 16,
      "elementLabel": "3 Year Federal Basic / Production Support / Subscription Price",
      "elementName": "ThreeYearFederalBasicProductionSupportSubscriptionPrice",
      "elementTimeout": 0,
      "formatType": "MONEY_USD",
      "hideOnNull": false,
      "hideWarnings": false,
      "protectedExpression": false,
      "summarize": false
    },
    {
      "allowOverride": false,
      "combinationType": "FUNCTION",
      "displayOptions": 16,
      "elementLabel": "2 Month Federal Basic / Production SnS Price",
      "elementName": "TwoMonthFederalBasicProductionSnSPrice",
      "elementTimeout": 0,
      "formatType": "MONEY_USD",
      "hideOnNull": false,
      "hideWarnings": false,
      "protectedExpression": false,
      "summarize": false
    },
    {
      "allowOverride": false,
      "combinationType": "FUNCTION",
      "displayOptions": 16,
      "elementLabel": "2 Month Federal Basic / Production Support / Subscription Price",
      "elementName": "TwoMonthFederalBasicProductionSSPrice",
      "elementTimeout": 0,
      "formatType": "MONEY_USD",
      "hideOnNull": false,
      "hideWarnings": false,
      "protectedExpression": false,
      "summarize": false
    },
    {
      "allowOverride": false,
      "combinationType": "FUNCTION",
      "displayOptions": 16,
      "elementLabel": "5 Year Federal Production SnS Price",
      "elementName": "FiveYearFederalProductionSnSPrice",
      "elementTimeout": 0,
      "formatType": "MONEY_USD",
      "hideOnNull": false,
      "hideWarnings": false,
      "protectedExpression": false,
      "summarize": false
    },
    {
      "allowOverride": false,
      "combinationType": "FUNCTION",
      "displayOptions": 16,
      "elementLabel": "List Price",
      "elementName": "ListPrice",
      "elementTimeout": 0,
      "formatType": "MONEY_USD",
      "hideOnNull": false,
      "hideWarnings": false,
      "protectedExpression": false,
      "summarize": false
    },
    {
      "allowOverride": false,
      "combinationType": "FUNCTION",
      "displayOptions": 16,
      "elementLabel": "Waterfall",
      "elementName": "Waterfall",
      "elementTimeout": 0,
      "hideOnNull": false,
      "hideWarnings": false,
      "protectedExpression": false,
      "summarize": false
    },
    {
      "allowOverride": false,
      "combinationType": "FUNCTION",
      "displayOptions": 16,
      "elementLabel": "Conversion Factor (AUD)",
      "elementName": "ConversionFactorAUD",
      "elementTimeout": 0,
      "hideOnNull": false,
      "hideWarnings": false,
      "protectedExpression": false,
      "summarize": false
    },
    {
      "allowOverride": false,
      "combinationType": "FUNCTION",
      "displayOptions": 16,
      "elementLabel": "Conversion Factor (JPY)",
      "elementName": "ConversionFactorJPY",
      "elementTimeout": 0,
      "hideOnNull": false,
      "hideWarnings": false,
      "protectedExpression": false,
      "summarize": false
    },
    {
      "allowOverride": false,
      "combinationType": "FUNCTION",
      "displayOptions": 16,
      "elementLabel": "Conversion Factor (CNY)",
      "elementName": "ConversionFactorCNY",
      "elementTimeout": 0,
      "hideOnNull": false,
      "hideWarnings": false,
      "protectedExpression": false,
      "summarize": false
    },
    {
      "allowOverride": false,
      "combinationType": "FUNCTION",
      "displayOptions": 16,
      "elementLabel": "Conversion Factor (EUR)",
      "elementName": "ConversionFactorEUR",
      "elementTimeout": 0,
      "hideOnNull": false,
      "hideWarnings": false,
      "protectedExpression": false,
      "summarize": false
    },
    {
      "allowOverride": false,
      "combinationType": "FUNCTION",
      "displayOptions": 16,
      "elementLabel": "Conversion Factor (GBP)",
      "elementName": "ConversionFactorGBP",
      "elementTimeout": 0,
      "hideOnNull": false,
      "hideWarnings": false,
      "protectedExpression": false,
      "summarize": false
    },
    {
      "allowOverride": false,
      "combinationType": "FUNCTION",
      "displayOptions": 16,
      "elementLabel": "Conversion Factor (GBP)",
      "elementName": "ConversionFactorEMEAUSD",
      "elementTimeout": 0,
      "hideOnNull": false,
      "hideWarnings": false,
      "protectedExpression": false,
      "summarize": false
    },
    {
      "allowOverride": false,
      "combinationType": "FUNCTION",
      "displayOptions": 16,
      "elementLabel": "Conversion Factor (GBP)",
      "elementName": "ConversionFactorEMEAUSD2",
      "elementTimeout": 0,
      "hideOnNull": false,
      "hideWarnings": false,
      "protectedExpression": false,
      "summarize": false
    },
    {
      "allowOverride": false,
      "combinationType": "FUNCTION",
      "displayOptions": 16,
      "elementLabel": "Conversion Factor (GBP)",
      "elementName": "ConversionFactorUSDGLOBAL",
      "elementTimeout": 0,
      "hideOnNull": false,
      "hideWarnings": false,
      "protectedExpression": false,
      "summarize": false
    },
    {
      "allowOverride": false,
      "combinationType": "FUNCTION",
      "displayOptions": 17,
      "elementLabel": "List Price AUD",
      "elementName": "ListPriceAUD",
      "elementTimeout": 0,
      "formatType": "MONEY",
      "hideOnNull": false,
      "hideWarnings": false,
      "protectedExpression": false,
      "summarize": false
    },
    {
      "allowOverride": false,
      "combinationType": "FUNCTION",
      "displayOptions": 17,
      "elementLabel": "List Price JPY",
      "elementName": "ListPriceJPY",
      "elementTimeout": 0,
      "formatType": "MONEY",
      "hideOnNull": false,
      "hideWarnings": false,
      "protectedExpression": false,
      "summarize": false
    },
    {
      "allowOverride": false,
      "combinationType": "FUNCTION",
      "displayOptions": 17,
      "elementLabel": "List Price EUR",
      "elementName": "ListPriceEUR",
      "elementTimeout": 0,
      "formatType": "MONEY",
      "hideOnNull": false,
      "hideWarnings": false,
      "protectedExpression": false,
      "summarize": false
    },
    {
      "allowOverride": false,
      "combinationType": "FUNCTION",
      "displayOptions": 17,
      "elementLabel": "List Price CNY",
      "elementName": "ListPriceCNY",
      "elementTimeout": 0,
      "formatType": "MONEY",
      "hideOnNull": false,
      "hideWarnings": false,
      "protectedExpression": false,
      "summarize": false
    },
    {
      "allowOverride": false,
      "combinationType": "FUNCTION",
      "displayOptions": 17,
      "elementLabel": "List Price GBP",
      "elementName": "ListPriceGBP",
      "elementTimeout": 0,
      "formatType": "MONEY",
      "hideOnNull": false,
      "hideWarnings": false,
      "protectedExpression": false,
      "summarize": false
    },
    {
      "allowOverride": false,
      "combinationType": "FUNCTION",
      "displayOptions": 17,
      "elementLabel": "List Price EMEA USD",
      "elementName": "ListPriceEMEAUSD",
      "elementTimeout": 0,
      "formatType": "MONEY",
      "hideOnNull": false,
      "hideWarnings": false,
      "protectedExpression": false,
      "summarize": false
    },
    {
      "allowOverride": false,
      "combinationType": "FUNCTION",
      "displayOptions": 17,
      "elementLabel": "List Price EMEA USD 2",
      "elementName": "ListPriceEMEAUSD2",
      "elementTimeout": 0,
      "formatType": "MONEY",
      "hideOnNull": false,
      "hideWarnings": false,
      "protectedExpression": false,
      "summarize": false
    },
    {
      "allowOverride": false,
      "combinationType": "FUNCTION",
      "displayOptions": 17,
      "elementLabel": "List Price USD GLOBAL",
      "elementName": "ListPriceUSDGLOBAL",
      "elementTimeout": 0,
      "formatType": "MONEY",
      "hideOnNull": false,
      "hideWarnings": false,
      "protectedExpression": false,
      "summarize": false
    }
  ],
  "inputDescriptors": [],
  "label": "LPG Perpetual",
  "status": "ACTIVE",
  "uniqueName": "LPG_Perpetual",
  "validAfter": "2019-06-02"
}