{
  "fieldType" : 2,
  "fieldValueOptions" : "[\"Absolute\",\"Percentage\"]",
  "label" : "OverrideType",
  "labelTranslations" : {
    "" : "Override Type"
  },
  "readOnly" : false,
  "requiredField" : false
}