{
  "aggregation" : false,
  "auxiliary" : false,
  "calculated" : false,
  "deleted" : false,
  "deployed" : true,
  "dimension" : false,
  "expression" : "EMEAUSD",
  "key" : false,
  "label" : "EMEA USD",
  "measureType" : "PERUNIT",
  "numeric" : true,
  "owningFC" : "Historical Price Data",
  "partitioningKey" : false,
  "persisted" : true,
  "queryable" : true,
  "source" : "DMDS.HistoricalPriceData",
  "system" : false,
  "time" : false,
  "type" : "MONEY",
  "visibility" : 1
}