{
  "aggregation" : false,
  "auxiliary" : false,
  "calculated" : true,
  "deleted" : false,
  "deployed" : true,
  "dimension" : false,
  "expression" : "PriceChangeEffectiveDate",
  "key" : false,
  "label" : "Start Date",
  "numeric" : false,
  "owningFC" : "Historical Price Data",
  "partitioningKey" : false,
  "persisted" : true,
  "queryable" : true,
  "source" : "DMDS.HistoricalPriceData",
  "system" : false,
  "time" : true,
  "type" : "DATE",
  "visibility" : 1
}