{
  "fieldName" : "attribute2",
  "fieldType" : 1,
  "formatType" : "PERCENT",
  "label" : "ManagedServicePremium",
  "labelTranslations" : {
    "" : "Managed Service Premium"
  },
  "readOnly" : false,
  "requiredField" : false
}