{
  "aggregation" : false,
  "auxiliary" : false,
  "calculated" : false,
  "deleted" : false,
  "deployed" : true,
  "dimension" : true,
  "expression" : "UomFrom",
  "key" : true,
  "label" : "UomFrom",
  "numeric" : false,
  "persisted" : true,
  "queryable" : true,
  "system" : false,
  "time" : false,
  "type" : "UOM"
}