{
  "fieldName" : "attribute1",
  "fieldType" : 2,
  "fieldValueOptions" : "[\"Replace\",\"Conditional\",\"Plain Text\"]",
  "label" : "Attr. 1",
  "labelTranslations" : {
    "" : "Type"
  },
  "requiredField" : false
}