{
  "elements": [
    {
      "allowOverride": false,
      "combinationType": "FUNCTION",
      "displayOptions": 0,
      "elementGroups": [],
      "elementName": "Constants",
      "elementTimeout": 0,
      "hideOnNull": false,
      "hideWarnings": false,
      "protectedExpression": false,
      "summarize": false
    },
    {
      "allowOverride": false,
      "combinationType": "FUNCTION",
      "displayOptions": 0,
      "elementGroups": [],
      "elementName": "PricingConfigCache",
      "elementTimeout": 900,
      "hideOnNull": false,
      "hideWarnings": false,
      "protectedExpression": false,
      "summarize": false
    },
    {
      "allowOverride": false,
      "combinationType": "FUNCTION",
      "displayOptions": 0,
      "elementGroups": [],
      "elementName": "SKUCache",
      "elementTimeout": 900,
      "hideOnNull": false,
      "hideWarnings": false,
      "protectedExpression": false,
      "summarize": false
    },
    {
      "allowOverride": false,
      "combinationType": "FUNCTION",
      "displayOptions": 0,
      "elementGroups": [],
      "elementName": "PopulatePricingConfig",
      "elementTimeout": 900,
      "hideOnNull": false,
      "hideWarnings": false,
      "protectedExpression": false,
      "summarize": false
    },
    {
      "allowOverride": false,
      "combinationType": "FUNCTION",
      "displayOptions": 0,
      "elementGroups": [],
      "elementName": "DeleteRecords",
      "elementTimeout": 900,
      "hideOnNull": false,
      "hideWarnings": false,
      "protectedExpression": false,
      "summarize": false
    },
    {
      "allowOverride": false,
      "combinationType": "FUNCTION",
      "displayOptions": 0,
      "elementGroups": [],
      "elementName": "InsertRecords",
      "elementTimeout": 900,
      "hideOnNull": false,
      "hideWarnings": false,
      "protectedExpression": false,
      "summarize": false
    }
  ],
  "formulaNature": "calculationFlow",
  "inputDescriptors": [],
  "label": "CF Update Pricing Configuration",
  "status": "ACTIVE",
  "uniqueName": "CF_UpdatePricingConfiguration",
  "validAfter": "2019-01-01"
}