{
  "hideWarnings" : false,
  "isPlasma" : false,
  "label" : "Location Options",
  "status" : "ACTIVE",
  "type" : "SIMPLE",
  "uniqueName" : "LocationOptions",
  "validAfter" : "2019-01-01",
  "valueType" : "STRING"
}