{
  "elements": [
    {
      "allowOverride": false,
      "combinationType": "FUNCTION",
      "displayOptions": 0,
      "elementGroups": [],
      "elementLabel": "Constants",
      "elementName": "Constants",
      "elementTimeout": 0,
      "excludeFromExport": false,
      "hideOnNull": false,
      "hideWarnings": false,
      "overridden": false,
      "protectedExpression": false,
      "summarize": false
    },
    {
      "allowOverride": false,
      "combinationType": "FUNCTION",
      "displayOptions": 0,
      "elementGroups": [],
      "elementName": "CacheStandardProductValues",
      "elementTimeout": 0,
      "excludeFromExport": false,
      "hideOnNull": false,
      "hideWarnings": false,
      "overridden": false,
      "protectedExpression": false,
      "summarize": false
    },
    {
      "allowOverride": false,
      "combinationType": "FUNCTION",
      "displayOptions": 16,
      "elementGroups": [],
      "elementLabel": "Product Group Selection",
      "elementName": "ProductGroupSelection",
      "elementTimeout": 0,
      "excludeFromExport": false,
      "hideOnNull": false,
      "hideWarnings": false,
      "overridden": false,
      "protectedExpression": false,
      "summarize": false
    },
    {
      "allowOverride": false,
      "combinationType": "FUNCTION",
      "displayOptions": 16,
      "elementGroups": [],
      "elementLabel": "Product Selection",
      "elementName": "ProductSelection",
      "elementTimeout": 0,
      "excludeFromExport": false,
      "hideOnNull": false,
      "hideWarnings": false,
      "overridden": false,
      "protectedExpression": false,
      "summarize": false
    },
    {
      "allowOverride": false,
      "combinationType": "FUNCTION",
      "displayOptions": 16,
      "elementGroups": [],
      "elementLabel": "Offer Selection",
      "elementName": "OfferSelection",
      "elementTimeout": 0,
      "excludeFromExport": false,
      "hideOnNull": false,
      "hideWarnings": false,
      "overridden": false,
      "protectedExpression": false,
      "summarize": false
    },
    {
      "allowOverride": false,
      "combinationType": "FUNCTION",
      "displayOptions": 16,
      "elementGroups": [],
      "elementLabel": "Base Selection",
      "elementName": "BaseSelection",
      "elementTimeout": 0,
      "excludeFromExport": false,
      "hideOnNull": false,
      "hideWarnings": false,
      "overridden": false,
      "protectedExpression": false,
      "summarize": false
    },
    {
      "allowOverride": false,
      "combinationType": "FUNCTION",
      "displayOptions": 16,
      "elementGroups": [],
      "elementLabel": "Product Group Entry",
      "elementName": "ProductGroupEntry",
      "elementTimeout": 0,
      "excludeFromExport": false,
      "hideOnNull": false,
      "hideWarnings": false,
      "overridden": false,
      "protectedExpression": false,
      "summarize": false
    },
    {
      "allowOverride": false,
      "combinationType": "FUNCTION",
      "displayOptions": 16,
      "elementGroups": [],
      "elementLabel": "Product Entry",
      "elementName": "ProductEntry",
      "elementTimeout": 0,
      "excludeFromExport": false,
      "hideOnNull": false,
      "hideWarnings": false,
      "overridden": false,
      "protectedExpression": false,
      "summarize": false
    },
    {
      "allowOverride": false,
      "combinationType": "FUNCTION",
      "displayOptions": 16,
      "elementGroups": [],
      "elementLabel": "Offer Entry",
      "elementName": "OfferEntry",
      "elementTimeout": 0,
      "excludeFromExport": false,
      "hideOnNull": false,
      "hideWarnings": false,
      "overridden": false,
      "protectedExpression": false,
      "summarize": false
    },
    {
      "allowOverride": false,
      "combinationType": "FUNCTION",
      "displayOptions": 16,
      "elementGroups": [],
      "elementLabel": "Base Entry",
      "elementName": "BaseEntry",
      "elementTimeout": 0,
      "excludeFromExport": false,
      "hideOnNull": false,
      "hideWarnings": false,
      "overridden": false,
      "protectedExpression": false,
      "summarize": false
    }
  ],
  "inputDescriptors": [],
  "label": "Standard Product Hierarchies value change Wizard",
  "status": "ACTIVE",
  "uniqueName": "CW_StandardProductWizard",
  "validAfter": "2000-01-01"
}