{
  "chartDefinition": {
    "auxLines": [],
    "chartType": "SCATTER",
    "dictionary": "[{\"sectionIdx\":1,\"category\":\"PROJECTION\",\"categoryLabel\":\"Projection\",\"defaultValue\":\"AVGDeal Size by Order Id\",\"field\":{\"name\":\"DealSizebyOrderId\",\"rank\":44,\"measureType\":\"PERUNIT\",\"visibility\":1,\"sourceField\":\"DealSizebyOrderId\",\"expression\":\"DealSizebyOrderId\",\"numeric\":true,\"system\":false,\"key\":false,\"deleted\":false,\"dimension\":false,\"auxiliary\":false,\"deployed\":true,\"aggregation\":false,\"calculated\":false,\"persisted\":true,\"time\":false,\"queryable\":true,\"dbColumn\":\"attribute44\",\"dbTable\":\"vmware_DM_PricingandDiscountingDM\",\"partitioningKey\":false,\"type\":\"NUMBER\",\"source\":\"DMDS.PricingandDiscounting\",\"owningFC\":\"Pricing and Discounting\",\"label\":\"Deal Size by Order Id\"},\"key\":\"x\",\"keyLabel\":\"Axis X\",\"sectionLabel\":\"Scatter Data\"},{\"sectionIdx\":1,\"category\":\"PROJECTION\",\"categoryLabel\":\"Projection\",\"defaultValue\":\"∑Discount CC\",\"field\":{\"name\":\"DiscountCC\",\"rank\":36,\"measureType\":\"PERUNIT\",\"visibility\":1,\"sourceField\":\"DiscountCC\",\"expression\":\"DiscountCC\",\"numeric\":true,\"system\":false,\"key\":false,\"deleted\":false,\"dimension\":false,\"auxiliary\":false,\"deployed\":true,\"aggregation\":false,\"calculated\":false,\"persisted\":true,\"time\":false,\"queryable\":true,\"dbColumn\":\"attribute36\",\"dbTable\":\"vmware_DM_PricingandDiscountingDM\",\"partitioningKey\":false,\"type\":\"NUMBER\",\"source\":\"DMDS.PricingandDiscounting\",\"owningFC\":\"Pricing and Discounting\",\"label\":\"Discount CC\"},\"key\":\"y\",\"keyLabel\":\"Axis Y\",\"sectionLabel\":\"Scatter Data\"},{\"sectionIdx\":1,\"category\":\"PROJECTION\",\"categoryLabel\":\"Projection\",\"defaultValue\":\"Order Id\",\"field\":{\"name\":\"OrderId\",\"rank\":1,\"visibility\":1,\"sourceField\":\"OrderId\",\"expression\":\"OrderId\",\"numeric\":false,\"system\":false,\"key\":true,\"deleted\":false,\"dimension\":true,\"auxiliary\":false,\"deployed\":true,\"aggregation\":false,\"calculated\":false,\"persisted\":true,\"time\":false,\"queryable\":true,\"dbColumn\":\"attribute1\",\"dbTable\":\"vmware_DM_PricingandDiscountingDM\",\"partitioningKey\":false,\"type\":\"TEXT\",\"source\":\"DMDS.PricingandDiscounting\",\"owningFC\":\"Pricing and Discounting\",\"label\":\"Order Id\"},\"key\":\"groupBy\",\"keyLabel\":\"Aggregation By\",\"sectionLabel\":\"Scatter Data\"},{\"sectionIdx\":1,\"category\":\"PROJECTION\",\"categoryLabel\":\"Projection\",\"defaultValue\":\"Order Id\",\"field\":{\"name\":\"OrderId\",\"rank\":1,\"visibility\":1,\"sourceField\":\"OrderId\",\"expression\":\"OrderId\",\"numeric\":false,\"system\":false,\"key\":true,\"deleted\":false,\"dimension\":true,\"auxiliary\":false,\"deployed\":true,\"aggregation\":false,\"calculated\":false,\"persisted\":true,\"time\":false,\"queryable\":true,\"dbColumn\":\"attribute1\",\"dbTable\":\"vmware_DM_PricingandDiscountingDM\",\"partitioningKey\":false,\"type\":\"TEXT\",\"source\":\"DMDS.PricingandDiscounting\",\"owningFC\":\"Pricing and Discounting\",\"label\":\"Order Id\"},\"key\":\"bandBy\",\"keyLabel\":\"Band By\",\"sectionLabel\":\"Scatter Data\"},{\"sectionIdx\":1,\"category\":\"AUX_LINE\",\"categoryLabel\":\"Trend line\",\"defaultValue\":\"\",\"key\":\"trendLine1\",\"keyLabel\":\"trendLine1\",\"sectionLabel\":\"\"}]",
    "dynamicFCsWidget": {},
    "options": "{\"title\":\"Pricing and Discounting\",\"subtitle\":\"Discount CC Vs Deal size by order id\",\"xLabel\":\"\",\"yLabel\":\"\",\"showZAxis\":false,\"zAxisLabel\":\"Other\",\"verticalLayout\":false,\"hideLegend\":false,\"hideTooltips\":false,\"disableDrilldown\":false,\"disableZoom\":false,\"initialDataGrouping\":false,\"legacyComparison\":false,\"comparison\":false,\"discretization\":true,\"disableGridDiscretization\":false}",
    "series": [
      "{\"datamart\":\"DM.PricingandDiscountingDM\",\"label\":\"Scatter Data\",\"currency\":\"USD\",\"calculationMode\":\"SUM\",\"calculatedFieldFormulaControllerState\":{\"rowLimit\":{\"aggregationFormula\":\"SUM\"},\"x\":{\"specifier\":\"AVG\",\"displayValue\":\"AVGDeal Size by Order Id\",\"value\":{\"alias\":null,\"label\":\"AVGDeal Size by Order Id\",\"expression\":\"AVG(DealSizebyOrderId)\",\"name\":\"DealSizebyOrderId\",\"advancedProjection\":true,\"function\":null,\"default\":null,\"formatString\":\"AVG{field}\",\"parameters\":{\"field\":\"DealSizebyOrderId\"}},\"aggregationFormula\":\"AVG\"},\"y\":{\"specifier\":\"SUM\",\"displayValue\":\"∑Discount CC\",\"value\":{\"alias\":null,\"label\":\"∑Discount CC\",\"expression\":\"SUM(DiscountCC)\",\"name\":\"DiscountCC\",\"advancedProjection\":true,\"function\":null,\"default\":null,\"formatString\":\"∑{field}\",\"parameters\":{\"field\":\"DiscountCC\"}},\"aggregationFormula\":\"SUM\"},\"z\":{},\"bubbleSize\":{}},\"calculatedFieldNonAggrFormulaControllerState\":{},\"x\":\"DealSizebyOrderId\",\"y\":\"DiscountCC\",\"groupBy\":\"OrderId\",\"bandBy\":\"OrderId\",\"hideOther\":true,\"showBandByLegend\":false,\"sortByDir\":{\"sortBy\":{},\"x\":{},\"y\":{}},\"showCount\":true,\"hideDataLabels\":true,\"showBoxplot\":false,\"bplot_y\":\"DealSizebyOrderId\",\"trendLineType\":\"linear\",\"showLinearTrendLineInLegend\":true,\"linearTrendLineHideDataLabels\":true,\"linearTrendLineColor\":\"#AA4643\",\"showLinearTrendLine\":true,\"bandByLegend\":[],\"additionalMeasures\":[],\"drilldowns\":[],\"exclusions\":[]}"
    ]
  },
  "chartType": "SCATTER",
  "createdByName": "gokila",
  "description": "",
  "externalChartDefinition": {
    "highchart": {
      "chart": {
        "animation": false,
        "marginLeft": 80,
        "marginRight": 80,
        "marginTop": 120,
        "spacingBottom": 5,
        "type": "scatter",
        "zoomType": "xy"
      },
      "credits": {
        "enabled": false
      },
      "labels": {
        "style": {
          "backgroundColor": "#ffffff",
          "fontFamily": "MuseoSans-300, arial, helvetica, sans-serif",
          "fontSize": "11px",
          "fontWeight": "normal"
        }
      },
      "legend": {
        "align": "center",
        "borderWidth": 0,
        "enabled": true,
        "layout": "horizontal",
        "verticalAlign": "top",
        "x": 0,
        "y": 50
      },
      "plotOptions": {
        "cursor": "pointer",
        "pie": {
          "allowPointSelect": true,
          "cursor": "pointer",
          "dataLabels": {
            "enabled": false
          }
        },
        "scatter": {
          "marker": {
            "radius": 3,
            "states": {
              "hover": {
                "enabled": true,
                "lineColor": "rgb(100,100,100)"
              }
            }
          },
          "states": {
            "hover": {
              "marker": {
                "enabled": false
              }
            }
          }
        },
        "series": {
          "animation": false,
          "cursor": "pointer",
          "dataLabels": {
            "y": -13
          },
          "turboThreshold": 0
        }
      },
      "series": [
        {
          "color": "rgba(187,187,187,0.5)",
          "data": [],
          "id": "s0_Scatter Data_clusters",
          "label": "Scatter Data",
          "linkedTo": "Scatter Data_points",
          "marker": {
            "fillColor": "rgba(187,187,187,0.5)",
            "radius": 4,
            "symbol": "square"
          },
          "name": " ",
          "sectionId": 0,
          "seriesIndex": 0,
          "showInLegend": false,
          "showInLegendTable": true,
          "visible": true,
          "xLabel": "AVGDeal Size by Order Id",
          "yLabel": "∑Discount CC"
        },
        {
          "color": "#1aadce",
          "data": [],
          "id": "s0_Scatter Data_points",
          "label": "Scatter Data",
          "marker": {
            "hover": {
              "animation": false,
              "enabled": true
            },
            "symbol": "circle"
          },
          "name": "Scatter Data",
          "sectionId": 1,
          "seriesIndex": 0,
          "showInLegend": true,
          "showInLegendTable": true,
          "visible": true,
          "xLabel": "AVGDeal Size by Order Id",
          "yLabel": "∑Discount CC"
        },
        {
          "color": "#AA4643",
          "data": [],
          "isTrendLine": true,
          "marker": {
            "enabled": false
          },
          "name": " [y = 11769.0378005356 + -2.04144781545599x]",
          "showInLegend": true,
          "type": "line",
          "zIndex": 100
        }
      ],
      "subtitle": {
        "text": "Discount CC Vs Deal size by order id"
      },
      "symbols": [
        "circle",
        "diamond",
        "triangle",
        "triangle-down"
      ],
      "title": {
        "text": "Pricing and Discounting"
      },
      "tooltip": {
        "enabled": true
      },
      "xAxis": {
        "alignTicks": false,
        "endOnTick": true,
        "labels": {},
        "max": null,
        "min": null,
        "showLastLabel": true,
        "startOnTick": true,
        "title": {
          "enabled": true,
          "margin": 15,
          "style": {
            "backgroundColor": "#ffffff",
            "fontFamily": "MuseoSans-300, arial, helvetica, sans-serif",
            "fontSize": "12px",
            "fontWeight": "bold"
          },
          "text": "AVGDeal Size by Order Id"
        },
        "type": "linear"
      },
      "yAxis": {
        "max": null,
        "min": null,
        "title": {
          "style": {
            "backgroundColor": "#ffffff",
            "fontFamily": "MuseoSans-300, arial, helvetica, sans-serif",
            "fontSize": "12px",
            "fontWeight": "bold"
          },
          "text": "∑Discount CC"
        },
        "type": "linear"
      },
      "zAxis": {
        "title": {
          "style": {
            "backgroundColor": "#ffffff",
            "fontFamily": "MuseoSans-300, arial, helvetica, sans-serif",
            "fontSize": "12px",
            "fontWeight": "bold"
          }
        }
      }
    },
    "queryDTOs": "[\"{\\\"name\\\":null,\\\"datamart\\\":\\\"DM.PricingandDiscountingDM\\\",\\\"label\\\":\\\"Scatter Data\\\",\\\"limit\\\":null,\\\"source\\\":\\\"DM.PricingandDiscountingDM\\\",\\\"projections\\\":{\\\"x\\\":{\\\"advancedProjection\\\":true,\\\"expression\\\":\\\"AVG({field})\\\",\\\"function\\\":null,\\\"parameters\\\":{\\\"field\\\":\\\"DealSizebyOrderId\\\",\\\"quantity\\\":\\\"\\\",\\\"base\\\":\\\"\\\"},\\\"default\\\":null,\\\"formatString\\\":\\\"AVG{field}\\\",\\\"label\\\":\\\"AVGDeal Size by Order Id\\\",\\\"name\\\":\\\"DealSizebyOrderId\\\",\\\"alias\\\":\\\"x\\\"},\\\"y\\\":{\\\"advancedProjection\\\":true,\\\"expression\\\":\\\"SUM({field})\\\",\\\"function\\\":null,\\\"parameters\\\":{\\\"field\\\":\\\"DiscountCC\\\",\\\"quantity\\\":\\\"\\\",\\\"base\\\":\\\"\\\"},\\\"default\\\":null,\\\"formatString\\\":\\\"∑{field}\\\",\\\"label\\\":\\\"∑Discount CC\\\",\\\"name\\\":\\\"DiscountCC\\\",\\\"alias\\\":\\\"y\\\"},\\\"groupBy\\\":{\\\"alias\\\":\\\"groupBy\\\",\\\"expression\\\":\\\"OrderId\\\",\\\"format\\\":null,\\\"label\\\":\\\"Order Id\\\",\\\"name\\\":\\\"OrderId\\\"},\\\"bandBy\\\":{\\\"alias\\\":\\\"bandBy\\\",\\\"expression\\\":\\\"OrderId\\\",\\\"format\\\":null,\\\"label\\\":\\\"Order Id\\\",\\\"name\\\":\\\"OrderId\\\"}},\\\"options\\\":{\\\"currency\\\":\\\"USD\\\",\\\"regression\\\":[\\\"y\\\",\\\"x\\\"],\\\"distribution\\\":[\\\"x\\\",\\\"y\\\"],\\\"discretization\\\":[\\\"x\\\",\\\"y\\\"]},\\\"filter\\\":{},\\\"dimensionFilters\\\":[],\\\"rollup\\\":true,\\\"sortBy\\\":[]}\"]"
  },
  "label": "Pricing and Discounting",
  "uniqueName": "admin__1664342130191",
  "visibility": "PUBLIC"
}