{
  "fieldName" : "name",
  "fieldType" : 2,
  "fieldValueOptions" : "[\"Extended Replacement Service\",\"Hardware Capex\",\"Rental\"]",
  "label" : "Name",
  "labelTranslations" : {
    "" : "Item Type"
  },
  "requiredField" : false
}