{
  "areDefault" : true,
  "areGlobal" : true,
  "preferenceName" : "--single-preferences--",
  "viewState" : {
    "columns" : [ {
      "portlets" : [ {
        "height" : 552,
        "minimized" : false,
        "name" : "ViewHardwareSKU",
        "rowOffset" : 0,
        "viewState" : null
      } ],
      "width" : 100
    } ],
    "isToolbarVisible" : true
  }
}