{
  "fieldName" : "attribute1",
  "fieldType" : 2,
  "fieldValueOptions" : "[\"Yes\",\"No\"]",
  "label" : "InclusionFlag",
  "labelTranslations" : {
    "" : "Inclusion Flag"
  },
  "requiredField" : false
}