{
  "fieldName" : "key1",
  "fieldType" : 2,
  "fieldValueOptions" : "[\"Software\"]",
  "label" : "Key1",
  "labelTranslations" : {
    "" : "Item Type"
  },
  "readOnly" : false,
  "requiredField" : false
}