{
  "folder" : "Tech",
  "hideWarnings" : false,
  "isPlasma" : false,
  "label" : "Pfx SAPRegion Mapping Internal",
  "status" : "ACTIVE",
  "type" : "MATRIX",
  "uniqueName" : "PfxSAPRegionMappingInternal",
  "validAfter" : "2022-01-01",
  "valueType" : "MATRIX"
}