{
  "fieldType" : 2,
  "fieldValueOptions" : "[\"MTH\",\"Year\"]",
  "label" : "RetentionPeriodUOM",
  "labelTranslations" : {
    "" : "Retention Period UOM"
  },
  "readOnly" : false,
  "requiredField" : false
}