{
  "fieldType" : 1,
  "formatType" : "NUMERIC_LONG",
  "label" : "ProgramOptionAdjustment",
  "labelTranslations" : {
    "" : "Program Option Adjustment"
  },
  "readOnly" : false,
  "requiredField" : false
}