{
  "elements": [
    {
      "allowOverride": false,
      "combinationType": "FUNCTION",
      "displayOptions": 16,
      "elementLabel": "Filters",
      "elementName": "Filters",
      "elementTimeout": 0,
      "hideOnNull": false,
      "hideWarnings": false,
      "protectedExpression": false,
      "summarize": false
    }
  ],
  "inputDescriptors": [],
  "label": "SAP Validation Configurator",
  "status": "ACTIVE",
  "uniqueName": "SAPValidationConfigurator",
  "validAfter": "2019-01-01"
}