{
  "elements": [
    {
      "allowOverride": false,
      "combinationType": "FUNCTION",
      "displayOptions": 16,
      "elementGroups": [
        "row"
      ],
      "elementName": "EndDate",
      "elementTimeout": 0,
      "formatType": "DATE",
      "hideOnNull": false,
      "hideWarnings": false,
      "protectedExpression": false,
      "summarize": false
    }
  ],
  "formulaNature": "paDataLoad",
  "inputDescriptors": [],
  "label": "DL_VMware_PriceList",
  "status": "ACTIVE",
  "uniqueName": "DL_VMware_PriceList",
  "validAfter": "2019-01-01"
}