key1,key2,attribute1,attribute2,attribute3,attribute4,attribute5,attribute6,attribute7,attribute8,attribute9,attribute10,attribute11,attribute12,attribute13,attribute14,attribute15,attribute16,attribute17,attribute18,attribute19,attribute20,attribute21,attribute22,attribute23,attribute24,attribute25,attribute26,attribute27,attribute28,attribute29,attribute30
001G,ENT,,,3500,650,,,,,,,,,,,,,,,,,,,,,,,,,,
001G,STD,,,3000,600,,,,,,,,,,,,,,,,,,,,,,,,,,
002G,STD,,,4500,700,,,,,,,,,,,,,,,,,,,,,,,,,,
005G,ENT,,,5200,800,,,,,,,,,,,,,,,,,,,,,,,,,,
010G,PRE,,,7000,900,,,,,,,,,,,,,,,,,,,,,,,,,,
010M,PRE,,,160,100,,,,,,,,,,,,,,,,,,,,,,,,,,
030M,ENT,,,240,150,,,,,,,,,,,,,,,,,,,,,,,,,,
050M,PRE,,,350,175,,,,,,,,,,,,,,,,,,,,,,,,,,
100M,STD,,,500,250,,,,,,,,,,,,,,,,,,,,,,,,,,
200M,ENT,,,1000,400,,,,,,,,,,,,,,,,,,,,,,,,,,
350M,STD,,,1200,450,,,,,,,,,,,,,,,,,,,,,,,,,,
500M,ENT,,,1400,500,,,,,,,,,,,,,,,,,,,,,,,,,,
750M,PRE,,,2200,550,,,,,,,,,,,,,,,,,,,,,,,,,,
