{
  "areDefault" : true,
  "areGlobal" : true,
  "preferenceName" : "Default",
  "viewState" : "({\"layout\":[{\"i\":\"TAMSummary\",\"w\":12,\"h\":4,\"x\":0,\"y\":0,\"minW\":1,\"minH\":1,\"isChart\":false,\"moved\":false,\"static\":false},{\"i\":\"TAMDetails\",\"w\":12,\"h\":6,\"x\":0,\"y\":4,\"minW\":1,\"minH\":1,\"isChart\":false,\"moved\":false,\"static\":false},{\"i\":\"ProductHierarchyFilter\",\"isHidden\":true,\"minW\":6,\"minH\":5,\"isChart\":false},{\"i\":\"PercentageChange\",\"isHidden\":true,\"minW\":6,\"minH\":5,\"isChart\":false},{\"i\":\"StartYear\",\"isHidden\":true,\"minW\":6,\"minH\":5,\"isChart\":false},{\"i\":\"savedCharts_System_Portlet\",\"isHidden\":true,\"minW\":6,\"minH\":5,\"isChart\":false},{\"i\":\"claimManager_System_Portlet\",\"isHidden\":true,\"minW\":6,\"minH\":5,\"isChart\":false},{\"i\":\"promotionManager_System_Portlet\",\"isHidden\":true,\"minW\":6,\"minH\":5,\"isChart\":false},{\"i\":\"quicksearch_System_Portlet\",\"isHidden\":true,\"minW\":6,\"minH\":5,\"isChart\":false},{\"i\":\"workflow_System_Portlet\",\"isHidden\":true,\"minW\":6,\"minH\":5,\"isChart\":false},{\"i\":\"pendingCreationWorkflow_System_Portlet\",\"isHidden\":true,\"minW\":6,\"minH\":5,\"isChart\":false},{\"i\":\"pricelist_System_Portlet\",\"isHidden\":true,\"minW\":6,\"minH\":5,\"isChart\":false},{\"i\":\"toDo_System_Portlet\",\"isHidden\":true,\"minW\":6,\"minH\":5,\"isChart\":false},{\"i\":\"dashboard_System_Portlet\",\"isHidden\":true,\"minW\":6,\"minH\":5,\"isChart\":false},{\"i\":\"_System_Portlet\",\"isHidden\":true,\"minW\":6,\"minH\":5,\"isChart\":false},{\"i\":\"priceGrid_System_Portlet\",\"isHidden\":true,\"minW\":6,\"minH\":5,\"isChart\":false},{\"i\":\"priceShop_System_Portlet\",\"isHidden\":true,\"minW\":6,\"minH\":5,\"isChart\":false},{\"i\":\"rebateManager_System_Portlet\",\"isHidden\":true,\"minW\":6,\"minH\":5,\"isChart\":false}],\"portletPreferences\":{\"TAMSummary\":{\"viewState\":{\"field\":[{\"name\":\"Fields\"},{\"name\":\"Values\"}],\"group\":[],\"sort\":{},\"pageSize\":300},\"quickFilter\":null},\"TAMDetails\":{\"viewState\":{\"field\":[{\"name\":\"ProductClass\"},{\"name\":\"PndSubClass\"},{\"name\":\"PlatformGroup\"},{\"name\":\"ProductGroup\"},{\"name\":\"ProductDivision\"},{\"name\":\"CustomerPurchasedSKU\"},{\"name\":\"ProductSKU\"},{\"name\":\"PhantomSku\"},{\"name\":\"OrderDate\"},{\"name\":\"CurrencyCode\"},{\"name\":\"GrossBookingsCC\"}],\"group\":[],\"sort\":{},\"pageSize\":300},\"quickFilter\":{}}},\"extraOptions\":{},\"field\":[]})"
}