{
  "elements": [
    {
      "allowOverride": false,
      "combinationType": "FUNCTION",
      "displayOptions": 0,
      "elementGroups": [],
      "elementLabel": "Library",
      "elementName": "Library",
      "elementTimeout": 0,
      "hideOnNull": false,
      "hideWarnings": false,
      "protectedExpression": false,
      "summarize": false
    },
    {
      "allowOverride": false,
      "combinationType": "FUNCTION",
      "displayOptions": 16,
      "elementGroups": [],
      "elementLabel": "Bandwidth",
      "elementName": "Bandwidth",
      "elementTimeout": 0,
      "hideOnNull": false,
      "hideWarnings": false,
      "protectedExpression": false,
      "summarize": false
    },
    {
      "allowOverride": false,
      "combinationType": "FUNCTION",
      "displayOptions": 16,
      "elementGroups": [],
      "elementLabel": "Edition",
      "elementName": "Edition",
      "elementTimeout": 0,
      "hideOnNull": false,
      "hideWarnings": false,
      "protectedExpression": false,
      "summarize": false
    },
    {
      "allowOverride": false,
      "combinationType": "FUNCTION",
      "displayOptions": 16,
      "elementGroups": [],
      "elementLabel": "Software",
      "elementName": "Software",
      "elementTimeout": 0,
      "hideOnNull": false,
      "hideWarnings": false,
      "protectedExpression": false,
      "summarize": false
    },
    {
      "allowOverride": false,
      "combinationType": "FUNCTION",
      "displayOptions": 16,
      "elementGroups": [],
      "elementLabel": "Gateway",
      "elementName": "Gateway",
      "elementTimeout": 0,
      "hideOnNull": false,
      "hideWarnings": false,
      "protectedExpression": false,
      "summarize": false
    },
    {
      "allowOverride": false,
      "combinationType": "FUNCTION",
      "displayOptions": 16,
      "elementGroups": [],
      "elementLabel": "Support",
      "elementName": "Support",
      "elementTimeout": 0,
      "hideOnNull": false,
      "hideWarnings": false,
      "protectedExpression": false,
      "summarize": false
    },
    {
      "allowOverride": false,
      "combinationType": "FUNCTION",
      "displayOptions": 16,
      "elementGroups": [],
      "elementLabel": "Service",
      "elementName": "Service",
      "elementTimeout": 0,
      "hideOnNull": false,
      "hideWarnings": false,
      "protectedExpression": false,
      "summarize": false
    },
    {
      "allowOverride": false,
      "combinationType": "FUNCTION",
      "displayOptions": 16,
      "elementGroups": [],
      "elementLabel": "Payment Term",
      "elementName": "PaymentTerm",
      "elementTimeout": 0,
      "hideOnNull": false,
      "hideWarnings": false,
      "protectedExpression": false,
      "summarize": false
    },
    {
      "allowOverride": false,
      "combinationType": "FUNCTION",
      "displayOptions": 16,
      "elementGroups": [],
      "elementLabel": "License Class",
      "elementName": "LicenseClass",
      "elementTimeout": 0,
      "hideOnNull": false,
      "hideWarnings": false,
      "protectedExpression": false,
      "summarize": false
    },
    {
      "allowOverride": false,
      "combinationType": "FUNCTION",
      "displayOptions": 16,
      "elementGroups": [],
      "elementLabel": "Renewal",
      "elementName": "Renewal",
      "elementTimeout": 0,
      "hideOnNull": false,
      "hideWarnings": false,
      "protectedExpression": false,
      "summarize": false
    },
    {
      "allowOverride": false,
      "combinationType": "FUNCTION",
      "displayOptions": 16,
      "elementGroups": [],
      "elementLabel": "Payment Type",
      "elementName": "PaymentType",
      "elementTimeout": 0,
      "hideOnNull": false,
      "hideWarnings": false,
      "protectedExpression": false,
      "summarize": false
    },
    {
      "allowOverride": false,
      "combinationType": "FUNCTION",
      "displayOptions": 16,
      "elementGroups": [],
      "elementLabel": "Payment Desc",
      "elementName": "PaymentDesc",
      "elementTimeout": 0,
      "hideOnNull": false,
      "hideWarnings": false,
      "protectedExpression": false,
      "summarize": false
    },
    {
      "allowOverride": false,
      "combinationType": "FUNCTION",
      "displayOptions": 16,
      "elementGroups": [],
      "elementLabel": "Dashboard View",
      "elementName": "DashboardView",
      "elementTimeout": 0,
      "formatType": "COMPLEX",
      "hideOnNull": false,
      "hideWarnings": false,
      "protectedExpression": false,
      "summarize": false
    }
  ],
  "inputDescriptors": [],
  "label": "VC Software Dashboard",
  "status": "ACTIVE",
  "uniqueName": "VCSoftwareDashboard",
  "validAfter": "2019-01-01"
}