{
  "aggregation" : false,
  "auxiliary" : false,
  "calculated" : false,
  "deleted" : false,
  "deployed" : true,
  "dimension" : false,
  "expression" : "tos_spf_spf_msla_lc",
  "key" : false,
  "label" : "tos_spf_spf_msla_lc",
  "measureType" : "PERUNIT",
  "numeric" : true,
  "owningFC" : "Transaction",
  "persisted" : true,
  "queryable" : true,
  "source" : "DMDS.Transaction",
  "system" : false,
  "time" : false,
  "type" : "MONEY"
}