{
  "areDefault" : true,
  "areGlobal" : true,
  "filter" : { },
  "preferenceName" : "Default",
  "viewState" : "({\"field\":[{\"name\":\"typedId\",\"visible\":false},{\"name\":\"sku\"},{\"name\":\"lastUpdateDate\",\"autoFitWidth\":true,\"width\":110},{\"name\":\"attribute1\"},{\"name\":\"attribute2\"},{\"name\":\"attribute3\"},{\"name\":\"attribute4\"},{\"name\":\"attribute5\"},{\"name\":\"attribute6\",\"autoFitWidth\":true,\"width\":15},{\"name\":\"attribute7\"},{\"name\":\"attribute8\"},{\"name\":\"attribute9\"},{\"name\":\"attribute10\"},{\"name\":\"attribute11\"},{\"name\":\"attribute12\"},{\"name\":\"attribute13\"},{\"name\":\"attribute14\"},{\"name\":\"attribute15\"},{\"name\":\"attribute16\",\"visible\":false},{\"name\":\"attribute17\",\"visible\":false},{\"name\":\"attribute18\",\"visible\":false},{\"name\":\"attribute19\",\"visible\":false},{\"name\":\"attribute20\",\"visible\":false}],\"pricefx_columnLabels\":null})"
}