{
  "aggregation" : false,
  "auxiliary" : false,
  "calculated" : false,
  "deleted" : false,
  "deployed" : true,
  "dimension" : false,
  "expression" : "currency",
  "key" : false,
  "label" : "Currency",
  "numeric" : false,
  "persisted" : true,
  "queryable" : true,
  "source" : "DMDS.Product",
  "sourceField" : "currency",
  "system" : false,
  "time" : false,
  "type" : "TEXT"
}