{
  "fieldName" : "attribute4",
  "fieldType" : 2,
  "fieldValueOptions" : "[\"Long Desc\"]",
  "label" : "AttributeName",
  "labelTranslations" : {
    "" : "Attribute Name"
  },
  "readOnly" : false,
  "requiredField" : false
}