{
  "folder" : "Common",
  "hideWarnings" : false,
  "isPlasma" : false,
  "label" : "Volume Tier",
  "status" : "ACTIVE",
  "type" : "MATRIX",
  "uniqueName" : "VolumeTier",
  "validAfter" : "2019-01-01",
  "valueType" : "MATRIX6"
}