{
  "aggregation": false,
  "auxiliary": false,
  "calculated": true,
  "deleted": false,
  "deployed": false,
  "dimension": false,
  "expression": "DiscountCC/GrossBookingsCC",
  "key": false,
  "label": "Discount Percentage",
  "labelTranslations": {},
  "numeric": true,
  "partitioningKey": false,
  "persisted": false,
  "queryable": true,
  "system": false,
  "time": false,
  "type": "NUMBER",
  "visibility": 1
}