{
  "aggregation": false,
  "auxiliary": false,
  "calculated": false,
  "deleted": false,
  "deployed": true,
  "dimension": true,
  "expression": "ProductDivision",
  "key": false,
  "label": "Product Division",
  "labelTranslations": {},
  "numeric": false,
  "owningFC": "Pricing and Discounting",
  "partitioningKey": false,
  "persisted": true,
  "queryable": true,
  "source": "DMDS.PricingandDiscounting",
  "sourceField" : "ProductDivision",
  "system" : false,
  "time" : false,
  "type" : "TEXT",
  "visibility" : 1
}