name,attribute1,attribute2,attribute3,attribute4,attribute5,attribute6,attribute7,attribute8,attribute9,attribute10,attribute11,attribute12,attribute13,attribute14,attribute15,attribute16,attribute17,attribute18,attribute19,attribute20,attribute21,attribute22,attribute23,attribute24,attribute25,attribute26,attribute27,attribute28,attribute29,attribute30
Billing Frequency,Payment Type,Payment Type,,,,,,,,,,,,,,,,,,,,,,,,,,,,
Billing Frequency Adjustment Factor,,,,,,,,,,,,,,,,,,,,,,,,,,,,,,
Billing Term,Term,Term,,,,,,,,,,,,,,,,,,,,,,,,,,,,
Billing Term Adjustment Factor,,,,,,,,,,,,,,,,,,,,,,,,,,,,,,
Currency ,Currency,,,,,,,,,,,,,,,,,,,,,,,,,,,,,
Customer Segment,Segment Type,Segment Type,,,,,,,,,,,,,,,,,,,,,,,,,,,,
Customer Segment Adjustment Factor,,,,,,,,,,,,,,,,,,,,,,,,,,,,,,
Data Center,Data Center,Data Center,,,,,,,,,,,,,,,,,,,,,,,,,,,,
Data Center Adjustment Factor,,,,,,,,,,,,,,,,,,,,,,,,,,,,,,
FX Adjustment Factor,,,,,,,,,,,,,,,,,,,,,,,,,,,,,,
Hosting,Hosting,,,,,,,,,,,,,,,,,,,,,,,,,,,,,
Hosting Adjustment Factor,,,,,,,,,,,,,,,,,,,,,,,,,,,,,,
Long description,,,,,,,,,,,,,,,,,,,,,,,,,,,,,,
Metric,Metric,Metric,,,,,,,,,,,,,,,,,,,,,,,,,,,,
Metric Adjustment Factor,,,,,,,,,,,,,,,,,,,,,,,,,,,,,,
OD_Plan,OD_Plan,,,,,,,,,,,,,,,,,,,,,,,,,,,,,
On demand UoM,,,,,,,,,,,,,,,,,,,,,,,,,,,,,,
PDH Billing SKU,,,,,,,,,,,,,,,,,,,,,,,,,,,,,,
PP Prod Group,,,,,,,,,,,,,,,,,,,,,,,,,,,,,,
Pricing Region,Price List Region,,,,,,,,,,,,,,,,,,,,,,,,,,,,,
Pricing Region Adjustment Factor,,,,,,,,,,,,,,,,,,,,,,,,,,,,,,
Product Family,,,,,,,,,,,,,,,,,,,,,,,,,,,,,,
Product Family Description,,,,,,,,,,,,,,,,,,,,,,,,,,,,,,
Program Option,Program Option,,,,,,,,,,,,,,,,,,,,,,,,,,,,,
Program Option Adjustment Factor,,,,,,,,,,,,,,,,,,,,,,,,,,,,,,
Retention Period,Retention Period,,,,,,,,,,,,,,,,,,,,,,,,,,,,,
Retention Period Adjustment Factor,,,,,,,,,,,,,,,,,,,,,,,,,,,,,,
SAP Material Description,,,,,,,,,,,,,,,,,,,,,,,,,,,,,,
SAP Material Number,,,,,,,,,,,,,,,,,,,,,,,,,,,,,,
SKUAssignment,SKUAssignment,,,,,,,,,,,,,,,,,,,,,,,,,,,,,
Short description,,,,,,,,,,,,,,,,,,,,,,,,,,,,,,
Support Tier,Support Tier,Support Tier,,,,,,,,,,,,,,,,,,,,,,,,,,,,
Support Tier Adjustment Factor,,,,,,,,,,,,,,,,,,,,,,,,,,,,,,
Support Type,Support Type,Support Tier,,,,,,,,,,,,,,,,,,,,,,,,,,,,
Support Type Adjustment Factor,,,,,,,,,,,,,,,,,,,,,,,,,,,,,,
Time From,,,,,,,,,,,,,,,,,,,,,,,,,,,,,,
Time To,,,,,,,,,,,,,,,,,,,,,,,,,,,,,,
UM conv factor,,,,,,,,,,,,,,,,,,,,,,,,,,,,,,
Usage Group,,,,,,,,,,,,,,,,,,,,,,,,,,,,,,
Usage item,,,,,,,,,,,,,,,,,,,,,,,,,,,,,,
Valid From,,,,,,,,,,,,,,,,,,,,,,,,,,,,,,
Valid To,,,,,,,,,,,,,,,,,,,,,,,,,,,,,,
