{
  "elements": [
    {
      "combinationType": "FUNCTION",
      "elementLabel": "PriceGridWF",
      "elementName": "PriceGridWF",
      "elementTimeout": 0,
      "hideWarnings": false,
      "protectedExpression": false
    }
  ],
  "status": "ACTIVE",
  "uniqueName": "pricegriditem",
  "validAfter": "2019-07-01",
  "workflowType": "pricegriditem"
}