{
  "configuration" : {
    "entries" : [ {
      "formulaName" : "CF_BundleProductMasterUpdate",
      "id" : "BABA4B2C-B69A-496E-A31F-7EA12B337C87",
      "name" : "Bundle Product Master Update",
      "numberOfTimeUnits" : 365,
      "periodic" : true,
      "startingDate" : "2021-03-11T06:00:00",
      "targetDate" : null,
      "timeUnit" : "DAY"
    } ]
  }
}