{
  "configuration" : {
    "entries" : [ {
      "formulaName" : "CF_UpgradeBaseSKUPriceCalculation",
      "id" : "911A6B5E-6F1B-465D-B15C-ACC3C49AA8A3",
      "name" : "Calculate Upgrade Base SKU",
      "numberOfTimeUnits" : 365,
      "periodic" : true,
      "startingDate" : "2021-11-15T03:41:47",
      "targetDate" : null,
      "timeUnit" : "DAY"
    } ]
  }
}