{
  "configuration" : {
    "entries" : [ {
      "formulaName" : "VeloSKUCreationLogic",
      "id" : "2B13948C-27CD-4A9D-9779-B9F462CEB19B",
      "name" : "VeloSKUs",
      "numberOfTimeUnits" : 1,
      "periodic" : true,
      "startingDate" : "2019-09-04T02:30:00",
      "targetDate" : null,
      "timeUnit" : "DAY"
    } ]
  }
}