{
  "configuration" : {
    "entries" : [ {
      "formulaName" : "CF_MAPBU_PV_SKU_Generation",
      "globalFormulaState" : { },
      "id" : "C02AB615-CB65-4691-9499-0AC749818D92",
      "name" : "Generate PV MAPBU Skus",
      "numberOfTimeUnits" : 365,
      "periodic" : true,
      "startingDate" : "2020-06-13T01:30:00",
      "timeUnit" : "DAY"
    } ]
  }
}