{
  "configuration" : {
    "entries" : [ {
      "formulaName" : "CF_StdProductRulesGeneration",
      "id" : "F3CC2ECB-C77D-43CF-92F1-3353EB14AD02",
      "name" : "Generate Standard Product Rules",
      "numberOfTimeUnits" : 365,
      "periodic" : true,
      "startingDate" : "2021-02-15T12:51:21",
      "targetDate" : null,
      "timeUnit" : "DAY"
    } ]
  }
}