{
  "configuration" : {
    "entries" : [ {
      "formulaName" : "CF_VeloCloudSoftwareSkuGeneration",
      "globalFormulaState" : { },
      "id" : "66CA5563-D88A-4167-88DD-A1F6CE491495",
      "name" : "Generate VC Software Skus",
      "numberOfTimeUnits" : 1,
      "periodic" : true,
      "startingDate" : "2020-06-13T01:00:00",
      "timeUnit" : "DAY"
    } ]
  }
}