{
  "configuration" : {
    "entries" : [ {
      "formulaName" : "CF_NyansaSKUGeneration",
      "id" : "683F1179-278D-400C-9B98-A574CB126CE9",
      "name" : "Generate Nyansa Skus",
      "numberOfTimeUnits" : 365,
      "periodic" : true,
      "startingDate" : "2020-07-08T02:30:00",
      "targetDate" : null,
      "timeUnit" : "DAY"
    } ]
  }
}