{
  "configuration" : {
    "entries" : [ {
      "formulaName" : "CF_VeloCloudHardwareSkuGeneration",
      "id" : "E2836897-A5BB-425A-9C91-8DC9EBE4E0FC",
      "name" : "Generate VC Hardware Skus",
      "numberOfTimeUnits" : 365,
      "periodic" : true,
      "startingDate" : "2020-05-07T00:30:00",
      "targetDate" : null,
      "timeUnit" : "DAY"
    } ]
  }
}