{
  "configuration" : {
    "entries" : [ {
      "formulaName" : "CF_SAPCommitFile",
      "id" : "C0D3B9CF-DCF9-405B-85A5-711761480C3A",
      "name" : "SAP Commit File Generation",
      "numberOfTimeUnits" : 365,
      "periodic" : true,
      "startingDate" : "2021-09-16T17:07:54",
      "targetDate" : null,
      "timeUnit" : "DAY"
    } ]
  }
}