{
  "configuration" : {
    "entries" : [ {
      "formulaName" : "CF_SKUCountNotificationMailConfiguration",
      "id" : "7756E8F3-1A83-43D0-A038-19542711A8B1",
      "name" : "Daily SKU COUNT",
      "numberOfTimeUnits" : 365,
      "periodic" : true,
      "startingDate" : "2021-04-06T03:51:10",
      "targetDate" : null,
      "timeUnit" : "DAY"
    } ]
  }
}