{
  "configuration" : {
    "entries" : [ {
      "formulaName" : "CF_UpdateBundleSKUDescription",
      "id" : "A0567078-823C-4BF5-AC56-6B486D0ACA51",
      "name" : "Update Bundle SKU Description",
      "numberOfTimeUnits" : 365,
      "periodic" : true,
      "startingDate" : "2021-05-20T08:19:34",
      "targetDate" : null,
      "timeUnit" : "DAY"
    } ]
  }
}