{
  "configuration" : {
    "entries" : [ {
      "formulaName" : "CF_UpdateSAPSKUDescription",
      "id" : "86035C19-6EC0-49FF-8C03-60BBA27CC127",
      "name" : "Update SAP SKU Description",
      "numberOfTimeUnits" : 365,
      "periodic" : true,
      "startingDate" : "2021-08-05T10:20:20",
      "targetDate" : null,
      "timeUnit" : "DAY"
    } ]
  }
}