{
  "configuration" : {
    "entries" : [ {
      "formulaName" : "CF_UpdatePricingConfiguration",
      "id" : "B3266B37-E283-406D-B213-9BFD67A6F80B",
      "name" : "Update Pricing Configuration",
      "numberOfTimeUnits" : 365,
      "periodic" : true,
      "startingDate" : "2021-04-20T15:08:21",
      "targetDate" : null,
      "timeUnit" : "DAY"
    } ]
  }
}