{
  "configuration" : {
    "entries" : [ {
      "formulaName" : "CompareVeloSKUsCreatedLogic",
      "id" : "1C7E037A-4A51-451E-9645-05299094502F",
      "name" : "UpdateFlag",
      "numberOfTimeUnits" : 1,
      "periodic" : true,
      "startingDate" : "2019-10-31T14:16:08",
      "targetDate" : null,
      "timeUnit" : "DAY"
    } ]
  }
}