{
  "elements": [
    {
      "allowOverride": false,
      "combinationType": "FUNCTION",
      "displayOptions": 0,
      "elementLabel": "Global Cache",
      "elementName": "GlobalCache",
      "elementTimeout": 0,
      "hideOnNull": false,
      "hideWarnings": false,
      "protectedExpression": false,
      "summarize": false
    },
    {
      "allowOverride": false,
      "combinationType": "FUNCTION",
      "displayOptions": 4,
      "elementLabel": "Hybrid SKU",
      "elementName": "HybridSKU",
      "elementTimeout": 0,
      "formatType": "TEXT",
      "hideOnNull": false,
      "hideWarnings": false,
      "protectedExpression": false,
      "summarize": false
    },
    {
      "allowOverride": false,
      "combinationType": "INFO",
      "displayOptions": 0,
      "elementLabel": "BoM",
      "elementName": "BoM",
      "elementTimeout": 0,
      "hideOnNull": false,
      "hideWarnings": false,
      "protectedExpression": false,
      "summarize": false
    },
    {
      "allowOverride": false,
      "combinationType": "FUNCTION",
      "displayOptions": 0,
      "elementLabel": "Local Currency factor",
      "elementName": "LCFactor",
      "elementTimeout": 0,
      "hideOnNull": false,
      "hideWarnings": false,
      "protectedExpression": false,
      "summarize": false
    },
    {
      "allowOverride": false,
      "combinationType": "FUNCTION",
      "displayOptions": 0,
      "elementLabel": "Local Currency AUD",
      "elementName": "LCFactorAUD",
      "elementTimeout": 0,
      "hideOnNull": false,
      "hideWarnings": false,
      "protectedExpression": false,
      "summarize": false
    },
    {
      "allowOverride": false,
      "combinationType": "FUNCTION",
      "displayOptions": 0,
      "elementLabel": "Local Currency JPY",
      "elementName": "LCFactorJPY",
      "elementTimeout": 0,
      "hideOnNull": false,
      "hideWarnings": false,
      "protectedExpression": false,
      "summarize": false
    },
    {
      "allowOverride": false,
      "combinationType": "FUNCTION",
      "displayOptions": 0,
      "elementLabel": "Local Currency CNY",
      "elementName": "LCFactorCNY",
      "elementTimeout": 0,
      "hideOnNull": false,
      "hideWarnings": false,
      "protectedExpression": false,
      "summarize": false
    },
    {
      "allowOverride": false,
      "combinationType": "FUNCTION",
      "displayOptions": 0,
      "elementLabel": "Local Currency EUR",
      "elementName": "LCFactorEUR",
      "elementTimeout": 0,
      "hideOnNull": false,
      "hideWarnings": false,
      "protectedExpression": false,
      "summarize": false
    },
    {
      "allowOverride": false,
      "combinationType": "FUNCTION",
      "displayOptions": 0,
      "elementLabel": "Local Currency GBP",
      "elementName": "LCFactorGBP",
      "elementTimeout": 0,
      "hideOnNull": false,
      "hideWarnings": false,
      "protectedExpression": false,
      "summarize": false
    },
    {
      "allowOverride": false,
      "combinationType": "FUNCTION",
      "displayOptions": 0,
      "elementLabel": "Local Currency EMEA USD",
      "elementName": "LCFactorEMEAUSD",
      "elementTimeout": 0,
      "hideOnNull": false,
      "hideWarnings": false,
      "protectedExpression": false,
      "summarize": false
    },
    {
      "allowOverride": false,
      "combinationType": "FUNCTION",
      "displayOptions": 0,
      "elementLabel": "Local Currency EMEA USD 2",
      "elementName": "LCFactorEMEAUSD2",
      "elementTimeout": 0,
      "hideOnNull": false,
      "hideWarnings": false,
      "protectedExpression": false,
      "summarize": false
    },
    {
      "allowOverride": false,
      "combinationType": "FUNCTION",
      "displayOptions": 0,
      "elementLabel": "Local Currency GLOBAL USD",
      "elementName": "LCFactorGLOBALUSD",
      "elementTimeout": 0,
      "hideOnNull": false,
      "hideWarnings": false,
      "protectedExpression": false,
      "summarize": false
    },
    {
      "allowOverride": true,
      "combinationType": "FUNCTION",
      "displayOptions": 4,
      "elementLabel": "BOM List",
      "elementName": "BoMList",
      "elementTimeout": 0,
      "formatType": "COMPLEX",
      "hideOnNull": false,
      "hideWarnings": false,
      "protectedExpression": false,
      "summarize": false
    },
    {
      "allowOverride": false,
      "combinationType": "FUNCTION",
      "displayOptions": 4,
      "elementLabel": "Hybrid SKU Price USD",
      "elementName": "HybridSkuPriceUSD",
      "elementTimeout": 0,
      "formatType": "MONEY_USD",
      "hideOnNull": false,
      "hideWarnings": false,
      "protectedExpression": false,
      "summarize": false
    },
    {
      "allowOverride": false,
      "combinationType": "FUNCTION",
      "displayOptions": 4,
      "elementLabel": "Hybrid SKU Price AUD",
      "elementName": "HybridSkuPriceAUD",
      "elementTimeout": 0,
      "formatType": "MONEY",
      "hideOnNull": false,
      "hideWarnings": false,
      "protectedExpression": false,
      "summarize": false
    },
    {
      "allowOverride": false,
      "combinationType": "FUNCTION",
      "displayOptions": 4,
      "elementLabel": "Hybrid SKU Price JPY",
      "elementName": "HybridSkuPriceJPY",
      "elementTimeout": 0,
      "formatType": "MONEY_JPY",
      "hideOnNull": false,
      "hideWarnings": false,
      "protectedExpression": false,
      "summarize": false
    },
    {
      "allowOverride": false,
      "combinationType": "FUNCTION",
      "displayOptions": 4,
      "elementLabel": "Hybrid SKU Price CNY",
      "elementName": "HybridSkuPriceCNY",
      "elementTimeout": 0,
      "formatType": "MONEY",
      "hideOnNull": false,
      "hideWarnings": false,
      "protectedExpression": false,
      "summarize": false
    },
    {
      "allowOverride": false,
      "combinationType": "FUNCTION",
      "displayOptions": 4,
      "elementLabel": "Hybrid SKU Price EUR",
      "elementName": "HybridSkuPriceEUR",
      "elementTimeout": 0,
      "formatType": "MONEY_EUR",
      "hideOnNull": false,
      "hideWarnings": false,
      "protectedExpression": false,
      "summarize": false
    },
    {
      "allowOverride": false,
      "combinationType": "FUNCTION",
      "displayOptions": 4,
      "elementLabel": "Hybrid SKU Price GBP",
      "elementName": "HybridSkuPriceGBP",
      "elementTimeout": 0,
      "formatType": "MONEY_GBP",
      "hideOnNull": false,
      "hideWarnings": false,
      "protectedExpression": false,
      "summarize": false
    },
    {
      "allowOverride": false,
      "combinationType": "FUNCTION",
      "displayOptions": 4,
      "elementLabel": "Hybrid SKU Price EMEA USD",
      "elementName": "HybridSkuPriceEMEAUSD",
      "elementTimeout": 0,
      "formatType": "MONEY_USD",
      "hideOnNull": false,
      "hideWarnings": false,
      "protectedExpression": false,
      "summarize": false
    },
    {
      "allowOverride": false,
      "combinationType": "FUNCTION",
      "displayOptions": 4,
      "elementLabel": "Hybrid SKU Price EMEA USD 2",
      "elementName": "HybridSkuPriceEMEAUSD2",
      "elementTimeout": 0,
      "formatType": "MONEY_USD",
      "hideOnNull": false,
      "hideWarnings": false,
      "protectedExpression": false,
      "summarize": false
    },
    {
      "allowOverride": false,
      "combinationType": "FUNCTION",
      "displayOptions": 4,
      "elementLabel": "Hybrid SKU Price GLOBAL USD",
      "elementName": "HybridSkuPriceGLOBALUSD",
      "elementTimeout": 0,
      "formatType": "MONEY_USD",
      "hideOnNull": false,
      "hideWarnings": false,
      "protectedExpression": false,
      "summarize": false
    }
  ],
  "inputDescriptors": [],
  "label": "LPG Hybrid SKU Price Calculation Logic - Local Currency",
  "status": "ACTIVE",
  "uniqueName": "LPG_Hybrid_LC",
  "validAfter": "2019-09-06"
}