{
  "fieldName" : "attribute1",
  "fieldType" : 1,
  "formatType" : "NUMERIC_LONG",
  "label" : "BUPrice",
  "labelTranslations" : {
    "" : "BU Price"
  },
  "readOnly" : false,
  "requiredField" : false
}