{
  "cssProperties" : "background-color:ProductTypeBaseSKU",
  "fieldType" : 2,
  "label" : "Currency",
  "labelTranslations" : {
    "" : "Product Type Base SKU"
  },
  "readOnly" : false,
  "requiredField" : false
}