{
  "executionFormula" : "CW_UpdatePriceListRegionExecution",
  "label" : "Update Price List Region In Valid Combination",
  "uniqueName" : "UpdatePriceListRegionInValidCombination",
  "userGroup" : null,
  "wizardFormula" : "CW_UpdatePriceListRegionConfiguration"
}