{
  "auxiliary" : false,
  "baseCcyCode" : "USD",
  "baseUomCode" : "EA",
  "deployed" : true,
  "fields" : [ "alerts", "backend_mdf_mdf_cc", "backend_mdf_mdf_lc", "backend_mdf_mdf_usd", "backend_mdf_vce_mdf_cc", "backend_mdf_vce_mdf_lc", "backend_mdf_vce_mdf_usd", "bundle_flag", "channel", "class", "completeResultsAvailable", "currency_code", "deal_category", "deal_type", "endcust_iso_country_name", "ext_list_price_cc", "ext_list_price_lc", "ext_list_price_usd", "formulaDetailedResults", "formulaResult", "geo", "gross_revenue_cc", "gross_revenue_lc", "gross_revenue_usd", "isDeleted", "lastUpdateDate", "net_revenue_cc", "net_revenue_lc", "net_revenue_usd", "no_of_orders", "order_id", "order_size_bucket", "order_size_bucket_static", "pb_list_price", "platform_group", "product_group", "product_platform", "product_sku", "quantity", "quarter", "tos_contractual_contractual_cc", "tos_contractual_contractual_lc", "tos_contractual_contractual_usd", "tos_contractual_ela_cc", "tos_contractual_ela_lc", "tos_contractual_ela_usd", "tos_contractual_vcan_line_level_cc", "tos_contractual_vcan_line_level_lc", "tos_contractual_vcan_line_level_usd", "tos_programmatic_advantage_plus_discount_cc", "tos_programmatic_advantage_plus_discount_lc", "tos_programmatic_advantage_plus_discount_usd", "tos_programmatic_epp_cc", "tos_programmatic_epp_lc", "tos_programmatic_epp_usd", "tos_programmatic_spp_academic_cc", "tos_programmatic_spp_academic_lc", "tos_programmatic_spp_academic_usd", "tos_programmatic_spp_bvp_discount_cc", "tos_programmatic_spp_bvp_discount_lc", "tos_programmatic_spp_bvp_discount_usd", "tos_programmatic_spp_commercial_cc", "tos_programmatic_spp_commercial_lc", "tos_programmatic_spp_commercial_usd", "tos_programmatic_vpp_a_cc", "tos_programmatic_vpp_a_lc", "tos_programmatic_vpp_a_ps_cc", "tos_programmatic_vpp_a_ps_lc", "tos_programmatic_vpp_a_ps_usd", "tos_programmatic_vpp_a_usd", "tos_programmatic_vpp_b_cc", "tos_programmatic_vpp_b_lc", "tos_programmatic_vpp_b_ps_cc", "tos_programmatic_vpp_b_ps_lc", "tos_programmatic_vpp_b_ps_usd", "tos_programmatic_vpp_b_usd", "tos_programmatic_vpp_c_cc", "tos_programmatic_vpp_c_lc", "tos_programmatic_vpp_c_ps_cc", "tos_programmatic_vpp_c_ps_lc", "tos_programmatic_vpp_c_ps_usd", "tos_programmatic_vpp_c_usd", "tos_programmatic_vpp_commercial_cc", "tos_programmatic_vpp_commercial_lc", "tos_programmatic_vpp_commercial_usd", "tos_programmatic_vpp_d_cc", "tos_programmatic_vpp_d_lc", "tos_programmatic_vpp_d_ps_cc", "tos_programmatic_vpp_d_ps_lc", "tos_programmatic_vpp_d_ps_usd", "tos_programmatic_vpp_d_usd", "tos_programmatic_vpp_federal_cc", "tos_programmatic_vpp_federal_lc", "tos_programmatic_vpp_federal_usd", "tos_spf_spf_blanket_cc", "tos_spf_spf_blanket_lc", "tos_spf_spf_blanket_opc_cc", "tos_spf_spf_blanket_opc_lc", "tos_spf_spf_blanket_opc_usd", "tos_spf_spf_blanket_usd", "tos_spf_spf_budget_cc", "tos_spf_spf_budget_lc", "tos_spf_spf_budget_usd", "tos_spf_spf_cc", "tos_spf_spf_enduser_cc", "tos_spf_spf_enduser_lc", "tos_spf_spf_enduser_usd", "tos_spf_spf_global_account_pricing_cc", "tos_spf_spf_global_account_pricing_lc", "tos_spf_spf_global_account_pricing_usd", "tos_spf_spf_lc", "tos_spf_spf_msla_cc", "tos_spf_spf_msla_lc", "tos_spf_spf_msla_usd", "tos_spf_spf_other_cc", "tos_spf_spf_other_lc", "tos_spf_spf_other_usd", "tos_spf_spf_partner_cc", "tos_spf_spf_partner_lc", "tos_spf_spf_partner_usd", "tos_spf_spf_pull_cc", "tos_spf_spf_pull_lc", "tos_spf_spf_pull_usd", "tos_spf_spf_usd", "tos_spf_spf_vcan_cc", "tos_spf_spf_vcan_lc", "tos_spf_spf_vcan_usd", "total_discount_cc", "total_discount_lc", "total_discount_usd", "usage", "warnings", "week_of_qtr" ],
  "isPlasma" : false,
  "label" : "Transaction",
  "loadableFields" : [ "order_id", "product_sku", "currency_code", "isDeleted", "lastUpdateDate", "formulaResult", "formulaDetailedResults", "warnings", "alerts" ],
  "localFields" : [ "order_id", "product_sku", "currency_code", "isDeleted", "lastUpdateDate", "formulaResult", "formulaDetailedResults", "warnings", "alerts" ],
  "locked" : false,
  "normalization" : "HIGH",
  "queryable" : true,
  "source" : "DMDS.Transaction",
  "type" : "DATAMART",
  "uniqueName" : "Transaction",
  "valid" : true,
  "view" : false
}