{
  "fieldName" : "attribute7",
  "fieldType" : 2,
  "fieldValueOptions" : "[\"Yes\",\"No\"]",
  "label" : "Attr. 7",
  "labelTranslations" : {
    "" : "Inclusive Flag"
  },
  "requiredField" : false
}