{
  "aggregation" : false,
  "auxiliary" : false,
  "calculated" : false,
  "deleted" : false,
  "deployed" : true,
  "dimension" : true,
  "expression" : "platform_group",
  "key" : false,
  "label" : "platform_group",
  "numeric" : false,
  "owningFC" : "Transaction",
  "persisted" : true,
  "queryable" : true,
  "source" : "DMDS.Transaction",
  "sourceField" : "platform_group",
  "system" : false,
  "time" : false,
  "type" : "TEXT"
}