{
  "folder" : "SAP",
  "hideWarnings" : false,
  "isPlasma" : false,
  "label" : "OverageFileConfiguration",
  "status" : "ACTIVE",
  "type" : "MATRIX",
  "uniqueName" : "OverageFileConfiguration",
  "validAfter" : "2016-01-01",
  "valueType" : "MATRIX"
}