{
  "elements": [
    {
      "allowOverride": false,
      "combinationType": "FUNCTION",
      "displayOptions": 0,
      "elementGroups": [],
      "elementLabel": "Constants",
      "elementName": "Constants",
      "elementTimeout": 0,
      "hideOnNull": false,
      "hideWarnings": false,
      "summarize": false
    },
    {
      "allowOverride": false,
      "combinationType": "FUNCTION",
      "displayOptions": 0,
      "elementGroups": [],
      "elementLabel": "Cache Pricing Factors",
      "elementName": "CachePricingFactors",
      "elementTimeout": 0,
      "hideOnNull": false,
      "hideWarnings": false,
      "summarize": false
    },
    {
      "allowOverride": false,
      "combinationType": "FUNCTION",
      "displayOptions": 0,
      "elementGroups": [],
      "elementLabel": "SKU",
      "elementName": "SKU",
      "elementTimeout": 0,
      "hideOnNull": false,
      "hideWarnings": false,
      "summarize": false
    },
    {
      "allowOverride": false,
      "combinationType": "FUNCTION",
      "displayOptions": 0,
      "elementGroups": [],
      "elementLabel": "Abort Syntax Check",
      "elementName": "AbortSyntaxCheck",
      "elementTimeout": 0,
      "hideOnNull": false,
      "hideWarnings": false,
      "summarize": false
    },
    {
      "allowOverride": false,
      "combinationType": "FUNCTION",
      "displayOptions": 0,
      "elementGroups": [],
      "elementLabel": "SKU Info",
      "elementName": "SKUInfo",
      "elementTimeout": 0,
      "hideOnNull": false,
      "hideWarnings": false,
      "summarize": false
    },
    {
      "allowOverride": false,
      "combinationType": "FUNCTION",
      "displayOptions": 16,
      "elementGroups": [],
      "elementLabel": "Offer",
      "elementName": "Offer",
      "elementTimeout": 0,
      "hideOnNull": false,
      "hideWarnings": false,
      "summarize": false
    },
    {
      "allowOverride": false,
      "combinationType": "FUNCTION",
      "displayOptions": 0,
      "elementGroups": [],
      "elementLabel": "SkipOtherOffer",
      "elementName": "SkipOtherOffer",
      "elementTimeout": 0,
      "hideOnNull": false,
      "hideWarnings": false,
      "summarize": false
    },
    {
      "allowOverride": false,
      "combinationType": "FUNCTION",
      "displayOptions": 16,
      "elementGroups": [],
      "elementLabel": "Base",
      "elementName": "Base",
      "elementTimeout": 0,
      "hideOnNull": false,
      "hideWarnings": false,
      "summarize": false
    },
    {
      "allowOverride": false,
      "combinationType": "FUNCTION",
      "displayOptions": 16,
      "elementGroups": [],
      "elementLabel": "Appliance Type",
      "elementName": "ApplianceType",
      "elementTimeout": 0,
      "hideOnNull": false,
      "hideWarnings": false,
      "summarize": false
    },
    {
      "allowOverride": false,
      "combinationType": "FUNCTION",
      "displayOptions": 16,
      "elementGroups": [],
      "elementLabel": "Box Size",
      "elementName": "BoxSize",
      "elementTimeout": 0,
      "hideOnNull": false,
      "hideWarnings": false,
      "summarize": false
    },
    {
      "allowOverride": false,
      "combinationType": "FUNCTION",
      "displayOptions": 16,
      "elementGroups": [],
      "elementLabel": "Replacement Service Type",
      "elementName": "ReplacementServiceType",
      "elementTimeout": 0,
      "hideOnNull": false,
      "hideWarnings": false,
      "summarize": false
    },
    {
      "allowOverride": false,
      "combinationType": "FUNCTION",
      "displayOptions": 16,
      "elementGroups": [],
      "elementLabel": "Segment",
      "elementName": "Segment",
      "elementTimeout": 0,
      "hideOnNull": false,
      "hideWarnings": false,
      "summarize": false
    },
    {
      "allowOverride": false,
      "combinationType": "FUNCTION",
      "displayOptions": 16,
      "elementGroups": [],
      "elementLabel": "Years",
      "elementName": "Years",
      "elementTimeout": 0,
      "formatType": "NUMERIC",
      "hideOnNull": false,
      "hideWarnings": false,
      "summarize": false
    },
    {
      "allowOverride": false,
      "combinationType": "FUNCTION",
      "displayOptions": 16,
      "elementGroups": [],
      "elementLabel": "Base Price",
      "elementName": "BasePrice",
      "elementTimeout": 0,
      "formatType": "NUMERIC_LONG",
      "hideOnNull": false,
      "hideWarnings": false,
      "summarize": false
    },
    {
      "allowOverride": false,
      "combinationType": "FUNCTION",
      "displayOptions": 16,
      "elementGroups": [],
      "elementLabel": "Replacement Service Factor",
      "elementName": "ReplacementServiceFactor",
      "elementTimeout": 0,
      "formatType": "NUMERIC_LONG",
      "hideOnNull": false,
      "hideWarnings": false,
      "summarize": false
    },
    {
      "allowOverride": false,
      "combinationType": "FUNCTION",
      "displayOptions": 16,
      "elementGroups": [],
      "elementLabel": "Segment Adjustment",
      "elementName": "SegmentAdjustment",
      "elementTimeout": 0,
      "formatType": "NUMERIC_LONG",
      "hideOnNull": false,
      "hideWarnings": false,
      "summarize": false
    },
    {
      "allowOverride": false,
      "combinationType": "FUNCTION",
      "displayOptions": 16,
      "elementGroups": [],
      "elementLabel": "Year Factor",
      "elementName": "YearFactor",
      "elementTimeout": 0,
      "formatType": "NUMERIC",
      "hideOnNull": false,
      "hideWarnings": false,
      "summarize": false
    },
    {
      "allowOverride": false,
      "combinationType": "FUNCTION",
      "displayOptions": 16,
      "elementGroups": [],
      "elementLabel": "LC Factor",
      "elementName": "LCFactor",
      "elementTimeout": 0,
      "hideOnNull": false,
      "hideWarnings": false,
      "summarize": false
    },
    {
      "allowOverride": false,
      "combinationType": "FUNCTION",
      "displayOptions": 16,
      "elementGroups": [],
      "elementLabel": "Longevity Factor",
      "elementName": "LongevityFactor",
      "elementTimeout": 0,
      "hideOnNull": false,
      "hideWarnings": false,
      "summarize": false
    },
    {
      "allowOverride": false,
      "combinationType": "FUNCTION",
      "displayOptions": 0,
      "elementGroups": [],
      "elementLabel": "Cache Currency Factor",
      "elementName": "CacheCurrencyFactor",
      "elementTimeout": 0,
      "hideOnNull": false,
      "hideWarnings": false,
      "summarize": false
    },
    {
      "allowOverride": false,
      "combinationType": "FUNCTION",
      "displayOptions": 16,
      "elementGroups": [],
      "elementLabel": "Hardware Price",
      "elementName": "HwPrice",
      "elementTimeout": 0,
      "formatType": "NUMERIC_LONG",
      "hideOnNull": false,
      "hideWarnings": false,
      "summarize": false
    },
    {
      "allowOverride": false,
      "combinationType": "FUNCTION",
      "displayOptions": 16,
      "elementGroups": [],
      "elementLabel": "Hardware Price (AUD)",
      "elementName": "AUDHwPrice",
      "elementTimeout": 0,
      "hideOnNull": false,
      "hideWarnings": false,
      "summarize": false
    },
    {
      "allowOverride": false,
      "combinationType": "FUNCTION",
      "displayOptions": 16,
      "elementGroups": [],
      "elementLabel": "Hardware Price (JPY)",
      "elementName": "JPYHwPrice",
      "elementTimeout": 0,
      "hideOnNull": false,
      "hideWarnings": false,
      "summarize": false
    },
    {
      "allowOverride": false,
      "combinationType": "FUNCTION",
      "displayOptions": 16,
      "elementGroups": [],
      "elementLabel": "Hardware Price (CNY)",
      "elementName": "CNYHwPrice",
      "elementTimeout": 0,
      "hideOnNull": false,
      "hideWarnings": false,
      "summarize": false
    },
    {
      "allowOverride": false,
      "combinationType": "FUNCTION",
      "displayOptions": 16,
      "elementGroups": [],
      "elementLabel": "Hardware Price (EUR)",
      "elementName": "EURHwPrice",
      "elementTimeout": 0,
      "hideOnNull": false,
      "hideWarnings": false,
      "summarize": false
    },
    {
      "allowOverride": false,
      "combinationType": "FUNCTION",
      "displayOptions": 16,
      "elementGroups": [],
      "elementLabel": "Hardware Price (GBP)",
      "elementName": "GBPHwPrice",
      "elementTimeout": 0,
      "hideOnNull": false,
      "hideWarnings": false,
      "summarize": false
    }
  ],
  "label": "Pricing Logic Nyansa Hardware",
  "status": "ACTIVE",
  "uniqueName": "PricingLogicNyansaHardware",
  "validAfter": "2019-01-01"
}