{
  "auxiliary" : false,
  "deployed" : true,
  "fields" : [ "AUD", "CNY", "EMEAUSD", "EMEAUSD2", "EUR", "EndDate", "GBP", "GUSD", "JPY", "PartNumber", "PlatformGroup", "PriceChangeEffectiveDate", "Product", "ProductComments", "ProductFamily", "ProductPlatform", "StartDate", "USD", "Version", "isDeleted", "lastUpdateDate" ],
  "isPlasma" : false,
  "label" : "Historical Price Data",
  "locked" : false,
  "queryable" : true,
  "reload" : false,
  "type" : "DATASOURCE",
  "uniqueName" : "HistoricalPriceData",
  "valid" : true,
  "view" : false
}