[
  {
    "addUnknownValues": null,
    "filter": null,
    "label": "Context",
    "labelTranslations": null,
    "lookupTableId": null,
    "name": "PFX_STUDIO_TYPECODE",
    "parameterConfig": null,
    "parameterGroup": null,
    "readOnly": null,
    "required": null,
    "type": "OPTION",
    "url": null,
    "value": "PRODUCT",
    "valueHint": null,
    "valueOptions": [
      "PRODUCT",
      "PRODUCTEXTENSION",
      "PRICEGRIDITEM",
      "PRICELISTITEM",
      "MATRIXPRICEGRIDITEM",
      "MATRIXPRICELISTITEM",
      "CUSTOMER",
      "CUSTOMEREXTENSION",
      "PRICERECORD",
      "MANUALPRICELISTITEM"
    ]
  },
  {
    "addUnknownValues": null,
    "filter": null,
    "label": "ProductSKU",
    "labelTranslations": null,
    "lookupTableId": null,
    "name": "ProductSKU",
    "parameterConfig": null,
    "parameterGroup": null,
    "readOnly": null,
    "required": null,
    "type": "STRINGUSERENTRY",
    "url": null,
    "value": "NB-VC01G-ENT-HO-SG-L14S2-12P-C",
    "valueHint": null,
    "valueOptions": []
  },
  {
    "addUnknownValues": null,
    "filter": null,
    "label": "targetDate",
    "labelTranslations": null,
    "lookupTableId": null,
    "name": "targetDate",
    "parameterConfig": null,
    "parameterGroup": null,
    "readOnly": null,
    "required": null,
    "type": "DATEUSERENTRY",
    "url": null,
    "value": "2020-05-16",
    "valueHint": null,
    "valueOptions": []
  }
]