{
  "__TYPE" : "PGI",
  "isConvertibleToInputType" : true,
  "isConvertibleToPdf" : false,
  "isDefault" : false,
  "isToSign" : false,
  "name" : "Standard Products Currency Template",
  "templateInputType" : "EXCEL"
}