{
  "actionUUID" : "CalculationTask-SDGbn",
  "calculationConfig" : {
    "feederInputParams" : [ ],
    "formulaName" : "DL_PriceBook_Effective_MonthPriceBook",
    "inputParams" : [ ],
    "mappingParams" : [ ],
    "outputElements" : [ {
      "displayedInPriceShop" : true,
      "elementGroups" : [ "init" ],
      "elementName" : "UpdateRecord",
      "formulaDate" : "2019-01-01",
      "formulaName" : "DL_PriceBook_Effective_MonthPriceBook",
      "key" : false,
      "selected" : false
    } ]
  },
  "continuous" : false,
  "distributed" : false,
  "dtoSourceFilter" : {
    "_constructor" : "AdvancedCriteria",
    "criteria" : [ {
      "fieldName" : "StartDate",
      "operator" : "greaterOrEqual",
      "value" : "2012-01-01"
    }, {
      "fieldName" : "EndDate",
      "operator" : "lessOrEqual",
      "value" : {
        "_constructor" : "RelativeDate",
        "value" : "$today"
      }
    } ],
    "operator" : "and"
  },
  "incLoadDate" : "2021-09-16T08:49:51",
  "incremental" : false,
  "isDefault" : false,
  "isPlasma" : false,
  "label" : "Price Change Book",
  "sourceName" : "DMDS.HistoricalPriceData",
  "targetName" : "DM.PriceChangeMonthBook",
  "type" : "CALCULATION",
  "valid" : true,
  "withTargetSnapshot" : false
}