{
  "folder" : "MAPBU",
  "hideWarnings" : false,
  "isPlasma" : false,
  "label" : "MAPBU Segment Adjustment",
  "status" : "ACTIVE",
  "type" : "MATRIX",
  "uniqueName" : "MAPBUSegmentAdj",
  "validAfter" : "2019-01-01",
  "valueType" : "MATRIX"
}