{
  "hideWarnings" : false,
  "isPlasma" : false,
  "label" : "Currency Exchange",
  "status" : "ACTIVE",
  "type" : "MATRIX",
  "uniqueName" : "CurrencyExchange",
  "validAfter" : "2019-06-01",
  "valueType" : "MATRIX2"
}