{
  "fieldName" : "attribute4",
  "fieldType" : 1,
  "formatType" : "PERCENT",
  "label" : "Attr. 4",
  "labelTranslations" : {
    "" : "Rental Discount Pct"
  },
  "readOnly" : false,
  "requiredField" : false
}