{
  "fieldName" : "attribute1",
  "fieldType" : 2,
  "fieldValueOptions" : "[\"Small\",\"Large\"]",
  "label" : "Attr. 1",
  "labelTranslations" : {
    "" : "Box Size"
  },
  "readOnly" : false,
  "requiredField" : false
}