{
  "aggregation": false,
  "auxiliary": false,
  "calculated": false,
  "deleted": false,
  "deployed": true,
  "dimension": true,
  "expression": "UniqueID",
  "key": true,
  "label": "Unique ID",
  "labelTranslations": {},
  "numeric": false,
  "owningFC": "Pricing and Discounting",
  "partitioningKey": false,
  "persisted": true,
  "queryable": true,
  "source": "DMDS.PricingandDiscounting",
  "system": false,
  "time": false,
  "type": "TEXT",
  "visibility": 1
}