{
  "aggregation": false,
  "auxiliary": false,
  "calculated": false,
  "deleted": false,
  "deployed": true,
  "dimension": false,
  "expression": "VmwareAcvLc",
  "key": false,
  "label": "Vmware Acv Lc",
  "labelTranslations": {},
  "measureType": "PERUNIT",
  "numeric": true,
  "owningFC": "Pricing and Discounting",
  "partitioningKey": false,
  "persisted": true,
  "queryable": true,
  "source": "DMDS.PricingandDiscounting",
  "system": false,
  "time": false,
  "type": "MONEY",
  "visibility": 1
}