{
  "fieldName" : "attribute4",
  "fieldType" : 2,
  "fieldValueOptions" : "[\"=\",\"<=\",\">\",\"<>\"]",
  "label" : "Attr. 4",
  "labelTranslations" : {
    "" : "Operator"
  },
  "readOnly" : false,
  "requiredField" : false
}