{
  "elements": [
    {
      "allowOverride": false,
      "combinationType": "FUNCTION",
      "displayOptions": 0,
      "elementGroups": [],
      "elementLabel": "AbortSyntaxCheck",
      "elementName": "AbortSyntaxCheck",
      "elementTimeout": 0,
      "hideOnNull": false,
      "hideWarnings": false,
      "summarize": false
    },
    {
      "allowOverride": false,
      "combinationType": "FUNCTION",
      "displayOptions": 0,
      "elementGroups": [],
      "elementLabel": "BasePrice",
      "elementName": "BasePrice",
      "elementTimeout": 0,
      "hideOnNull": false,
      "hideWarnings": false,
      "summarize": false
    },
    {
      "allowOverride": false,
      "combinationType": "FUNCTION",
      "displayOptions": 0,
      "elementGroups": [],
      "elementLabel": "CurrentItem",
      "elementName": "CurrentItem",
      "elementTimeout": 0,
      "hideOnNull": false,
      "hideWarnings": false,
      "summarize": false
    },
    {
      "allowOverride": false,
      "combinationType": "FUNCTION",
      "displayOptions": 0,
      "elementGroups": [],
      "elementLabel": "OverrideType",
      "elementName": "OverrideType",
      "elementTimeout": 0,
      "hideOnNull": false,
      "hideWarnings": false,
      "summarize": false
    },
    {
      "allowOverride": false,
      "combinationType": "FUNCTION",
      "displayOptions": 0,
      "elementGroups": [],
      "elementLabel": "Calculation",
      "elementName": "Calculation",
      "elementTimeout": 0,
      "hideOnNull": false,
      "hideWarnings": false,
      "summarize": false
    },
    {
      "allowOverride": false,
      "combinationType": "FUNCTION",
      "displayOptions": 16,
      "elementGroups": [],
      "elementLabel": "Factor",
      "elementName": "Factor",
      "elementTimeout": 0,
      "formatType": "NUMERIC_LONG",
      "hideOnNull": false,
      "hideWarnings": false,
      "summarize": false
    },
    {
      "allowOverride": false,
      "combinationType": "FUNCTION",
      "displayOptions": 16,
      "elementGroups": [],
      "elementLabel": "Amount",
      "elementName": "Amount",
      "elementTimeout": 0,
      "formatType": "NUMERIC",
      "hideOnNull": false,
      "hideWarnings": false,
      "summarize": false
    }
  ],
  "inputDescriptors": [],
  "label": "CFS Nyansa Volume Tier Adjustment",
  "status": "ACTIVE",
  "uniqueName": "CFS_NyansaVolumeTierAdjustment",
  "validAfter": "2019-01-01"
}