{
  "description": "",
  "entityRefTypeCode": "",
  "fieldType": 2,
  "formatType": "TEXT",
  "label": "ProductGroup",
  "labelTranslations": {
    "": "Product Group"
  },
  "readOnly": false,
  "requiredField": false
}