{
  "hideWarnings" : false,
  "isPlasma" : false,
  "label" : "SAP Price List Region Name",
  "status" : "ACTIVE",
  "type" : "SIMPLE",
  "uniqueName" : "SAPPriceListRegionName",
  "validAfter" : "2016-01-01",
  "valueType" : "STRING"
}