{
  "elements": [
    {
      "allowOverride": false,
      "combinationType": "FUNCTION",
      "displayOptions": 16,
      "elementLabel": "LPG Name",
      "elementName": "LPGName",
      "elementTimeout": 0,
      "hideOnNull": false,
      "hideWarnings": false,
      "summarize": false
    },
    {
      "allowOverride": false,
      "combinationType": "FUNCTION",
      "displayOptions": 16,
      "elementLabel": "Product Family Filters",
      "elementName": "ProductFamilyFilters",
      "elementTimeout": 0,
      "hideOnNull": false,
      "hideWarnings": false,
      "summarize": false
    },
    {
      "allowOverride": false,
      "combinationType": "FUNCTION",
      "displayOptions": 16,
      "elementLabel": "Product Id Filters",
      "elementName": "ProductIdFilters",
      "elementTimeout": 0,
      "hideOnNull": false,
      "hideWarnings": false,
      "summarize": false
    },
    {
      "allowOverride": false,
      "combinationType": "FUNCTION",
      "displayOptions": 16,
      "elementLabel": "Usage Item Filters",
      "elementName": "UsageItemFilters",
      "elementTimeout": 0,
      "hideOnNull": false,
      "hideWarnings": false,
      "summarize": false
    },
    {
      "allowOverride": false,
      "combinationType": "FUNCTION",
      "displayOptions": 16,
      "elementLabel": "Data Center Filters",
      "elementName": "DataCenterFilters",
      "elementTimeout": 0,
      "hideOnNull": false,
      "hideWarnings": false,
      "summarize": false
    },
    {
      "allowOverride": false,
      "combinationType": "FUNCTION",
      "displayOptions": 0,
      "elementLabel": "Currency",
      "elementName": "Currency",
      "elementTimeout": 0,
      "hideOnNull": false,
      "hideWarnings": false,
      "summarize": false
    },
    {
      "allowOverride": false,
      "combinationType": "FUNCTION",
      "displayOptions": 0,
      "elementLabel": "Region",
      "elementName": "Region",
      "elementTimeout": 0,
      "hideOnNull": false,
      "hideWarnings": false,
      "summarize": false
    },
    {
      "allowOverride": false,
      "combinationType": "FUNCTION",
      "displayOptions": 16,
      "elementLabel": "SAP Validation Output",
      "elementName": "SAPValidationOutput",
      "elementTimeout": 0,
      "hideOnNull": false,
      "hideWarnings": false,
      "summarize": false
    }
  ],
  "inputDescriptors": [],
  "label": "SAP Validation",
  "status": "ACTIVE",
  "uniqueName": "SAPValidation",
  "validAfter": "2019-09-10"
}