{
  "description" : "",
  "entityRefTypeCode" : "",
  "fieldType" : 2,
  "formatType" : "TEXT",
  "label" : "Product",
  "labelTranslations" : {
    "" : "Product"
  },
  "readOnly" : false,
  "requiredField" : false
}