{
  "elements": [
    {
      "allowOverride": false,
      "combinationType": "FUNCTION",
      "displayOptions": 0,
      "elementGroups": [],
      "elementLabel": "Abort On Syntax Check",
      "elementName": "AbortOnSyntaxCheck",
      "elementTimeout": 0,
      "hideOnNull": false,
      "hideWarnings": false,
      "protectedExpression": false,
      "summarize": false
    },
    {
      "allowOverride": false,
      "combinationType": "FUNCTION",
      "displayOptions": 0,
      "elementGroups": [],
      "elementLabel": "Constants",
      "elementName": "Constants",
      "elementTimeout": 0,
      "hideOnNull": false,
      "hideWarnings": false,
      "protectedExpression": false,
      "summarize": false
    },
    {
      "allowOverride": false,
      "combinationType": "FUNCTION",
      "displayOptions": 0,
      "elementGroups": [],
      "elementLabel": "Pfx SAP Internal Cache",
      "elementName": "PfxSAPInternalCache",
      "elementTimeout": 0,
      "hideOnNull": false,
      "hideWarnings": false,
      "protectedExpression": false,
      "summarize": false
    },
    {
      "allowOverride": false,
      "combinationType": "FUNCTION",
      "displayOptions": 16,
      "elementGroups": [],
      "elementLabel": "MasterLaunchRegions",
      "elementName": "MasterLaunchRegions",
      "elementTimeout": 0,
      "hideOnNull": false,
      "hideWarnings": false,
      "protectedExpression": false,
      "summarize": false
    },
    {
      "allowOverride": false,
      "combinationType": "FUNCTION",
      "displayOptions": 16,
      "elementGroups": [],
      "elementLabel": "Channel Launch Regions",
      "elementName": "ChannelLaunchRegions",
      "elementTimeout": 0,
      "hideOnNull": false,
      "hideWarnings": false,
      "protectedExpression": false,
      "summarize": false
    },
    {
      "allowOverride": false,
      "combinationType": "FUNCTION",
      "displayOptions": 16,
      "elementGroups": [],
      "elementLabel": "Master EOL Regions",
      "elementName": "MasterEOLRegions",
      "elementTimeout": 0,
      "hideOnNull": false,
      "hideWarnings": false,
      "protectedExpression": false,
      "summarize": false
    },
    {
      "allowOverride": false,
      "combinationType": "FUNCTION",
      "displayOptions": 16,
      "elementGroups": [],
      "elementLabel": "Channel EOL Regions",
      "elementName": "ChannelEOLRegions",
      "elementTimeout": 0,
      "hideOnNull": false,
      "hideWarnings": false,
      "protectedExpression": false,
      "summarize": false
    },
    {
      "allowOverride": false,
      "combinationType": "FUNCTION",
      "displayOptions": 16,
      "elementGroups": [],
      "elementLabel": "Pfx Region Key",
      "elementName": "PfxRegionKey",
      "elementTimeout": 0,
      "hideOnNull": false,
      "hideWarnings": false,
      "protectedExpression": false,
      "summarize": false
    }
  ],
  "inputDescriptors": [],
  "label": "CFS_Valid Combination table Price List Region Pfx Sap Conversion",
  "status": "ACTIVE",
  "uniqueName": "CFS_ValidCombinationtablePfxSapConversion",
  "validAfter": "2020-01-01"
}