{
  "areDefault" : true,
  "areGlobal" : true,
  "filter" : { },
  "instance" : {
    "simulationSet" : null,
    "type" : "LT",
    "uniqueName" : "VeloAccessorySKUs",
    "validAfter" : "2019-01-01"
  },
  "preferenceName" : "Default",
  "viewState" : "({\"field\":[{\"name\":\"name\",\"autoFitWidth\":false,\"width\":205},{\"name\":\"attribute1\",\"autoFitWidth\":false,\"width\":76},{\"name\":\"attribute2\",\"autoFitWidth\":false,\"width\":77},{\"name\":\"attribute3\",\"autoFitWidth\":false,\"width\":110},{\"name\":\"attribute4\",\"autoFitWidth\":false,\"width\":55},{\"name\":\"attribute5\",\"autoFitWidth\":false,\"width\":60},{\"name\":\"attribute6\",\"autoFitWidth\":false,\"width\":89},{\"name\":\"attribute7\",\"visible\":false,\"autoFitWidth\":false,\"width\":51},{\"name\":\"attribute8\",\"visible\":false,\"autoFitWidth\":false,\"width\":51},{\"name\":\"attribute9\",\"visible\":false,\"autoFitWidth\":false,\"width\":51},{\"name\":\"attribute10\",\"visible\":false},{\"name\":\"attribute11\",\"visible\":false},{\"name\":\"attribute12\",\"visible\":false},{\"name\":\"attribute13\",\"visible\":false},{\"name\":\"attribute14\",\"visible\":false},{\"name\":\"attribute15\",\"visible\":false},{\"name\":\"attribute16\",\"visible\":false},{\"name\":\"attribute17\",\"visible\":false},{\"name\":\"attribute18\",\"visible\":false},{\"name\":\"attribute19\",\"visible\":false},{\"name\":\"attribute20\",\"visible\":false},{\"name\":\"attribute21\",\"visible\":false},{\"name\":\"attribute22\",\"visible\":false},{\"name\":\"attribute23\",\"visible\":false},{\"name\":\"attribute24\",\"visible\":false},{\"name\":\"attribute25\",\"visible\":false},{\"name\":\"attribute26\",\"visible\":false},{\"name\":\"attribute27\",\"visible\":false},{\"name\":\"attribute28\",\"visible\":false},{\"name\":\"attribute29\",\"visible\":false},{\"name\":\"attribute30\",\"visible\":false},{\"name\":\"lastUpdateByName\",\"autoFitWidth\":false,\"width\":102},{\"name\":\"createDate\",\"autoFitWidth\":false,\"width\":92},{\"name\":\"createdBy\",\"autoFitWidth\":false,\"width\":76},{\"name\":\"lastUpdateDate\",\"autoFitWidth\":false,\"width\":105}],\"sort\":{\"fieldName\":\"name\",\"sortDir\":\"ascending\",\"sortSpecifiers\":[{\"property\":\"name\",\"direction\":\"ascending\"}]},\"pricefx_columnLabels\":null})"
}