{
  "fieldName" : "attribute2",
  "fieldType" : 2,
  "fieldValueOptions" : "[\"Yes\",\"No\"]",
  "label" : "Attr. 2",
  "labelTranslations" : {
    "" : "Inclusion Flag"
  },
  "readOnly" : false,
  "requiredField" : false
}