{
  "fieldName" : "attribute1",
  "fieldType" : 1,
  "formatType" : "NUMERIC",
  "label" : "Attr. 1",
  "labelTranslations" : {
    "" : "Payment Term (Years)"
  },
  "readOnly" : false,
  "requiredField" : false
}