{
  "fieldType" : 1,
  "formatType" : "NUMERIC_LONG",
  "label" : "DiscountedBasePrice",
  "labelTranslations" : {
    "" : "Discounted Base Price"
  },
  "readOnly" : false,
  "requiredField" : false
}