{
  "folder" : "VeloCloud",
  "hideWarnings" : false,
  "isPlasma" : false,
  "label" : "VC Addon Long Desc",
  "status" : "ACTIVE",
  "type" : "MATRIX",
  "uniqueName" : "VCAddonLongDesc",
  "validAfter" : "2021-03-04",
  "valueType" : "MATRIX2"
}