{
  "fieldName" : "attribute1",
  "fieldType" : 3,
  "fieldValueOptions" : "[0,2]",
  "label" : "Attr. 1",
  "labelTranslations" : {
    "" : "Decimal Rounding"
  },
  "readOnly" : false,
  "requiredField" : false
}