{
  "folder" : "Perpetual",
  "hideWarnings" : false,
  "isPlasma" : false,
  "label" : "Upgrade To Destination",
  "status" : "ACTIVE",
  "type" : "MATRIX",
  "uniqueName" : "UpgradeToDestination",
  "validAfter" : "2019-08-26",
  "valueType" : "MATRIX"
}