{
  "fieldName" : "attribute2",
  "fieldType" : 2,
  "fieldValueOptions" : "[\"Active\",\"Inactive\"]",
  "label" : "Status",
  "labelTranslations" : {
    "" : "Status"
  },
  "readOnly" : false,
  "requiredField" : false
}