{
  "fieldName" : "attribute4",
  "fieldType" : 1,
  "formatType" : "MONEY_USD",
  "label" : "SGAdj",
  "labelTranslations" : {
    "" : "SG Adjustment"
  },
  "readOnly" : false,
  "requiredField" : false
}