{
  "fieldName" : "attribute3",
  "fieldType" : 1,
  "formatType" : "MONEY_USD",
  "label" : "HGAdj",
  "labelTranslations" : {
    "" : "HG Adjustment"
  },
  "readOnly" : false,
  "requiredField" : false
}