{
  "fieldName" : "attribute1",
  "fieldType" : 1,
  "formatType" : "MONEY_USD",
  "label" : "L14BasePrice",
  "labelTranslations" : {
    "" : "L14 HO/SO Base Price"
  },
  "readOnly" : false,
  "requiredField" : false
}