{
  "aggregation" : false,
  "auxiliary" : false,
  "calculated" : false,
  "deleted" : false,
  "deployed" : true,
  "dimension" : false,
  "expression" : "SubscriptionTCVCC",
  "key" : false,
  "label" : "Subscription TCVCC",
  "labelTranslations" : { },
  "measureType" : "PERUNIT",
  "numeric" : true,
  "owningFC" : "Pricing and Discounting",
  "partitioningKey" : false,
  "persisted" : true,
  "queryable" : true,
  "source" : "DMDS.PricingandDiscounting",
  "sourceField" : "SubscriptionTCVCC",
  "system" : false,
  "time" : false,
  "type" : "NUMBER",
  "visibility" : 1
}