{
  "elements": [
    {
      "allowOverride": false,
      "combinationType": "FUNCTION",
      "displayOptions": 0,
      "elementGroups": [],
      "elementLabel": "Constants",
      "elementName": "Constants",
      "elementTimeout": 0,
      "hideOnNull": false,
      "hideWarnings": false,
      "summarize": false
    },
    {
      "allowOverride": false,
      "combinationType": "FUNCTION",
      "displayOptions": 0,
      "elementGroups": [],
      "elementLabel": "Cache Pricing Factors",
      "elementName": "CachePricingFactors",
      "elementTimeout": 0,
      "hideOnNull": false,
      "hideWarnings": false,
      "summarize": false
    },
    {
      "allowOverride": false,
      "combinationType": "FUNCTION",
      "displayOptions": 16,
      "elementGroups": [],
      "elementLabel": "SKU",
      "elementName": "SKU",
      "elementTimeout": 0,
      "hideOnNull": false,
      "hideWarnings": false,
      "summarize": false
    },
    {
      "allowOverride": false,
      "combinationType": "FUNCTION",
      "displayOptions": 0,
      "elementGroups": [],
      "elementLabel": "AbortSyntaxCheck",
      "elementName": "AbortSyntaxCheck",
      "elementTimeout": 0,
      "hideOnNull": false,
      "hideWarnings": false,
      "summarize": false
    },
    {
      "allowOverride": false,
      "combinationType": "FUNCTION",
      "displayOptions": 0,
      "elementGroups": [],
      "elementLabel": "SKUInfo",
      "elementName": "SKUInfo",
      "elementTimeout": 0,
      "hideOnNull": false,
      "hideWarnings": false,
      "summarize": false
    },
    {
      "allowOverride": false,
      "combinationType": "FUNCTION",
      "displayOptions": 16,
      "elementGroups": [],
      "elementLabel": "Offer",
      "elementName": "Offer",
      "elementTimeout": 0,
      "hideOnNull": false,
      "hideWarnings": false,
      "summarize": false
    },
    {
      "allowOverride": false,
      "combinationType": "FUNCTION",
      "displayOptions": 16,
      "elementGroups": [],
      "elementLabel": "SkipOtherOffer",
      "elementName": "SkipOtherOffer",
      "elementTimeout": 0,
      "hideOnNull": false,
      "hideWarnings": false,
      "summarize": false
    },
    {
      "allowOverride": false,
      "combinationType": "FUNCTION",
      "displayOptions": 16,
      "elementGroups": [],
      "elementLabel": "Base",
      "elementName": "Base",
      "elementTimeout": 0,
      "hideOnNull": false,
      "hideWarnings": false,
      "summarize": false
    },
    {
      "allowOverride": false,
      "combinationType": "FUNCTION",
      "displayOptions": 16,
      "elementGroups": [],
      "elementLabel": "Volume Tier Name",
      "elementName": "VolumeTierName",
      "elementTimeout": 0,
      "hideOnNull": false,
      "hideWarnings": false,
      "summarize": false
    },
    {
      "allowOverride": false,
      "combinationType": "FUNCTION",
      "displayOptions": 16,
      "elementGroups": [],
      "elementLabel": "Volume Tier Label",
      "elementName": "VolumeTierLabel",
      "elementTimeout": 0,
      "hideOnNull": false,
      "hideWarnings": false,
      "summarize": false
    },
    {
      "allowOverride": false,
      "combinationType": "FUNCTION",
      "displayOptions": 16,
      "elementGroups": [],
      "elementLabel": "Segment",
      "elementName": "Segment",
      "elementTimeout": 0,
      "hideOnNull": false,
      "hideWarnings": false,
      "summarize": false
    },
    {
      "allowOverride": false,
      "combinationType": "FUNCTION",
      "displayOptions": 16,
      "elementGroups": [],
      "elementLabel": "Support",
      "elementName": "Support",
      "elementTimeout": 0,
      "hideOnNull": false,
      "hideWarnings": false,
      "summarize": false
    },
    {
      "allowOverride": false,
      "combinationType": "FUNCTION",
      "displayOptions": 16,
      "elementGroups": [],
      "elementLabel": "Service",
      "elementName": "Service",
      "elementTimeout": 0,
      "hideOnNull": false,
      "hideWarnings": false,
      "summarize": false
    },
    {
      "allowOverride": false,
      "combinationType": "FUNCTION",
      "displayOptions": 16,
      "elementGroups": [],
      "elementLabel": "Terms",
      "elementName": "Terms",
      "elementTimeout": 0,
      "hideOnNull": false,
      "hideWarnings": false,
      "summarize": false
    },
    {
      "allowOverride": false,
      "combinationType": "FUNCTION",
      "displayOptions": 16,
      "elementGroups": [],
      "elementLabel": "Length",
      "elementName": "Length",
      "elementTimeout": 0,
      "hideOnNull": false,
      "hideWarnings": false,
      "summarize": false
    },
    {
      "allowOverride": false,
      "combinationType": "FUNCTION",
      "displayOptions": 16,
      "elementGroups": [],
      "elementLabel": "Normalization",
      "elementName": "Normalization",
      "elementTimeout": 0,
      "hideOnNull": false,
      "hideWarnings": false,
      "summarize": false
    },
    {
      "allowOverride": false,
      "combinationType": "FUNCTION",
      "displayOptions": 16,
      "elementGroups": [],
      "elementLabel": "LC Factor",
      "elementName": "LCFactor",
      "elementTimeout": 0,
      "hideOnNull": false,
      "hideWarnings": false,
      "summarize": false
    },
    {
      "allowOverride": false,
      "combinationType": "FUNCTION",
      "displayOptions": 0,
      "elementGroups": [],
      "elementLabel": "Cache LC Factor",
      "elementName": "CacheLCFactor",
      "elementTimeout": 0,
      "hideOnNull": false,
      "hideWarnings": false,
      "summarize": false
    },
    {
      "allowOverride": false,
      "combinationType": "FUNCTION",
      "displayOptions": 16,
      "elementGroups": [],
      "elementLabel": "Base Price",
      "elementName": "BasePrice",
      "elementTimeout": 0,
      "formatType": "NUMERIC",
      "hideOnNull": false,
      "hideWarnings": false,
      "summarize": false
    },
    {
      "allowOverride": false,
      "combinationType": "FUNCTION",
      "displayOptions": 16,
      "elementGroups": [],
      "elementLabel": "Tier",
      "elementName": "Tier",
      "elementTimeout": 0,
      "formatType": "NUMERIC",
      "hideOnNull": false,
      "hideWarnings": false,
      "summarize": false
    },
    {
      "allowOverride": false,
      "combinationType": "FUNCTION",
      "displayOptions": 16,
      "elementGroups": [],
      "elementLabel": "Segment Adjustment",
      "elementName": "SegmentAdjustment",
      "elementTimeout": 0,
      "formatType": "NUMERIC_LONG",
      "hideOnNull": false,
      "hideWarnings": false,
      "summarize": false
    },
    {
      "allowOverride": false,
      "combinationType": "FUNCTION",
      "displayOptions": 16,
      "elementGroups": [],
      "elementLabel": "Support Factor",
      "elementName": "SupportFactor",
      "elementTimeout": 0,
      "formatType": "NUMERIC",
      "hideOnNull": false,
      "hideWarnings": false,
      "summarize": false
    },
    {
      "allowOverride": false,
      "combinationType": "FUNCTION",
      "displayOptions": 16,
      "elementGroups": [],
      "elementLabel": "Service Factor",
      "elementName": "ServiceFactor",
      "elementTimeout": 0,
      "formatType": "NUMERIC",
      "hideOnNull": false,
      "hideWarnings": false,
      "summarize": false
    },
    {
      "allowOverride": false,
      "combinationType": "FUNCTION",
      "displayOptions": 16,
      "elementGroups": [],
      "elementLabel": "Term Factor",
      "elementName": "TermFactor",
      "elementTimeout": 0,
      "formatType": "NUMERIC",
      "hideOnNull": false,
      "hideWarnings": false,
      "summarize": false
    },
    {
      "allowOverride": false,
      "combinationType": "FUNCTION",
      "displayOptions": 16,
      "elementGroups": [],
      "elementLabel": "Length Factor",
      "elementName": "LengthFactor",
      "elementTimeout": 0,
      "formatType": "NUMERIC",
      "hideOnNull": false,
      "hideWarnings": false,
      "summarize": false
    },
    {
      "allowOverride": false,
      "combinationType": "FUNCTION",
      "displayOptions": 16,
      "elementGroups": [],
      "elementLabel": "Normalization Factor",
      "elementName": "NormalizationFactor",
      "elementTimeout": 0,
      "formatType": "NUMERIC",
      "hideOnNull": false,
      "hideWarnings": false,
      "summarize": false
    },
    {
      "allowOverride": false,
      "combinationType": "FUNCTION",
      "displayOptions": 16,
      "elementGroups": [],
      "elementLabel": "Software Price",
      "elementName": "SwPrice",
      "elementTimeout": 0,
      "formatType": "NUMERIC",
      "hideOnNull": false,
      "hideWarnings": false,
      "summarize": false
    },
    {
      "allowOverride": false,
      "combinationType": "FUNCTION",
      "displayOptions": 16,
      "elementGroups": [],
      "elementLabel": "Software Price (AUD)",
      "elementName": "AUDSwPrice",
      "elementTimeout": 0,
      "hideOnNull": false,
      "hideWarnings": false,
      "summarize": false
    },
    {
      "allowOverride": false,
      "combinationType": "FUNCTION",
      "displayOptions": 16,
      "elementGroups": [],
      "elementLabel": "Software Price (JPY)",
      "elementName": "JPYSwPrice",
      "elementTimeout": 0,
      "hideOnNull": false,
      "hideWarnings": false,
      "summarize": false
    },
    {
      "allowOverride": false,
      "combinationType": "FUNCTION",
      "displayOptions": 16,
      "elementGroups": [],
      "elementLabel": "Software Price (CNY)",
      "elementName": "CNYSwPrice",
      "elementTimeout": 0,
      "hideOnNull": false,
      "hideWarnings": false,
      "summarize": false
    },
    {
      "allowOverride": false,
      "combinationType": "FUNCTION",
      "displayOptions": 16,
      "elementGroups": [],
      "elementLabel": "Software Price (EUR)",
      "elementName": "EURSwPrice",
      "elementTimeout": 0,
      "hideOnNull": false,
      "hideWarnings": false,
      "summarize": false
    },
    {
      "allowOverride": false,
      "combinationType": "FUNCTION",
      "displayOptions": 16,
      "elementGroups": [],
      "elementLabel": "Software Price (GBP)",
      "elementName": "GBPSwPrice",
      "elementTimeout": 0,
      "hideOnNull": false,
      "hideWarnings": false,
      "summarize": false
    }
  ],
  "label": "Pricing Logic Nyansa Software",
  "status": "ACTIVE",
  "uniqueName": "PricingLogicNyansaSoftware",
  "validAfter": "2019-01-01"
}